[
  {
    "id": "hs46202",
    "t": "Songsong Head Start Center",
    "i": "hs46202",
    "n": "Songsong Head Start Center",
    "a": "Songsong Village\nSongsong Rd.",
    "l": "Rota MP 96951",
    "p": "6705329471",
    "cs": [
      3,
      5,
      9
    ],
    "lt": 14.152359,
    "lg": 145.213128,
    "f": 14
  },
  {
    "id": "hs46209",
    "t": "Sinapalo Head Start Center",
    "i": "hs46209",
    "n": "Sinapalo Head Start Center",
    "a": "Sinapalo Village\nSinapalo Rd.",
    "l": "Rota MP 96951",
    "p": "6705320484",
    "cs": [
      3,
      5,
      9
    ],
    "lt": 14.152359,
    "lg": 145.213128,
    "f": 14
  },
  {
    "id": "rc2998",
    "t": "National Marine Sanctuary of American Samoa",
    "u": "",
    "tx": "The National Marine Sanctuary of American Samoa supports one of the greatest diversity of marine life in the national marine sanctuary system, including a wide variety of coral and other invertebrates, fishes, turtles, marine mammals and marine plants. The sanctuary also protects extensive coral reefs, deep water reefs, hydrothermal vent communities, rare marine archaeological resources and encompasses important fishing grounds.  Recreational activities such as diving, snorkeling, and fishing can be enjoyed at the National Marine Sanctuary of American Samoa.",
    "i": "rc2998",
    "cs": [
      7
    ],
    "lt": 14.27933,
    "lg": -170.700897,
    "f": 14
  },
  {
    "id": "hc6",
    "t": "Ofu Community Health Center",
    "i": "hc6",
    "n": "Ofu Community Health Center",
    "a": "Ofu Community Health Ctr",
    "l": "Pago Pago AS 96799",
    "p": "6846551176",
    "cs": [
      10
    ],
    "lt": 14.319506,
    "lg": -170.750246,
    "f": 14
  },
  {
    "id": "hc961",
    "t": "Tau Community Health Center, Manua",
    "i": "hc961",
    "n": "Tau Community Health Center, Manua",
    "a": "Po Box 3965",
    "l": "Pago Pago AS 96799",
    "p": "6846773513",
    "u": "none",
    "cs": [
      10
    ],
    "lt": 14.319506,
    "lg": -170.750246,
    "f": 14
  },
  {
    "id": "hs34358",
    "t": "Alataua ECE",
    "i": "hs34358",
    "n": "Alataua ECE",
    "a": "Nua\nCounty of Alataua, Western District",
    "l": "Pago Pago AS 96799",
    "p": "6846887308",
    "cs": [
      3,
      5,
      9
    ],
    "lt": 14.319506,
    "lg": -170.750246,
    "f": 14
  },
  {
    "id": "hs34359",
    "t": "Aunuu ECE",
    "i": "hs34359",
    "n": "Aunuu ECE",
    "a": "North\nSaole",
    "l": "Pago Pago AS 96799",
    "p": "6846447626",
    "cs": [
      3,
      5,
      9
    ],
    "lt": 14.319506,
    "lg": -170.750246,
    "f": 14
  },
  {
    "id": "hs34362",
    "t": "Pago Pago ECE",
    "i": "hs34362",
    "n": "Pago Pago ECE",
    "a": "Pago Pago\nMaoputasi",
    "l": "Pago Pago AS 96799",
    "p": "6846331997",
    "cs": [
      3,
      5,
      9
    ],
    "lt": 14.319506,
    "lg": -170.750246,
    "f": 14
  },
  {
    "id": "hs34363",
    "t": "Tafuna ECE",
    "i": "hs34363",
    "n": "Tafuna ECE",
    "a": "Tafuna, American Samoa\nTualauta District",
    "l": "Pago Pago AS 96799",
    "p": "6846991469",
    "cs": [
      3,
      5,
      9
    ],
    "lt": 14.319506,
    "lg": -170.750246,
    "f": 14
  },
  {
    "id": "hs34364",
    "t": "Masefau",
    "i": "hs34364",
    "n": "Masefau",
    "a": "Sua\nSasa'e",
    "l": "Pago Pago AS 96799",
    "p": "6846227553",
    "cs": [
      3,
      5,
      9
    ],
    "lt": 14.319506,
    "lg": -170.750246,
    "f": 14
  },
  {
    "id": "hs34365",
    "t": "Siliaga",
    "i": "hs34365",
    "n": "Siliaga",
    "a": "Aasu\nLeasina",
    "l": "Pago Pago AS 96799",
    "p": "6846999497",
    "cs": [
      3,
      5,
      9
    ],
    "lt": 14.319506,
    "lg": -170.750246,
    "f": 14
  },
  {
    "id": "hs34366",
    "t": "Lupelele",
    "i": "hs34366",
    "n": "Lupelele",
    "a": "Futiga-Iliili\nTualauta District",
    "l": "Pago Pago AS 96799",
    "p": "6846999497",
    "cs": [
      3,
      5,
      9
    ],
    "lt": 14.319506,
    "lg": -170.750246,
    "f": 14
  },
  {
    "id": "hs34367",
    "t": "Tau ECE",
    "i": "hs34367",
    "n": "Tau ECE",
    "a": "Tau\nManu'a District",
    "l": "Pago Pago AS 96799",
    "p": "6846773188",
    "cs": [
      3,
      5,
      9
    ],
    "lt": 14.319506,
    "lg": -170.750246,
    "f": 14
  },
  {
    "id": "hs34368",
    "t": "Leone ECE",
    "i": "hs34368",
    "n": "Leone ECE",
    "a": "Leone\nFofo",
    "l": "Pago Pago AS 96799",
    "p": "6846887292",
    "cs": [
      3,
      5,
      9
    ],
    "lt": 14.319506,
    "lg": -170.750246,
    "f": 14
  },
  {
    "id": "hs34369",
    "t": "Fagasa ECE",
    "i": "hs34369",
    "n": "Fagasa ECE",
    "a": "Fagasa\nFagasa-Leatele ECE, American Samoa",
    "l": "Pago Pago AS 96799",
    "p": "6846444447",
    "cs": [
      3,
      5,
      9
    ],
    "lt": 14.319506,
    "lg": -170.750246,
    "f": 14
  },
  {
    "id": "hs34371",
    "t": "Olosega-Manu'a",
    "i": "hs34371",
    "n": "Olosega-Manu'a",
    "a": "Sili\nManu'a District",
    "l": "Olosega AS 96799",
    "p": "6846551206",
    "cs": [
      3,
      5,
      9
    ],
    "lt": 14.319506,
    "lg": -170.750246,
    "f": 14
  },
  {
    "id": "hs34373",
    "t": "Laulii ECE",
    "i": "hs34373",
    "n": "Laulii ECE",
    "a": "Laulii\nLauniusaelua",
    "l": "Pago Pago AS 96799",
    "p": "6846445653",
    "cs": [
      3,
      5,
      9
    ],
    "lt": 14.319506,
    "lg": -170.750246,
    "f": 14
  },
  {
    "id": "hs34374",
    "t": "Aoa ECE",
    "i": "hs34374",
    "n": "Aoa ECE",
    "a": "Aoa\nAmouli",
    "l": "Pago Pago AS 96799",
    "p": "6846220119",
    "cs": [
      3,
      5,
      9
    ],
    "lt": 14.319506,
    "lg": -170.750246,
    "f": 14
  },
  {
    "id": "hs34375",
    "t": "Vatia ECE",
    "i": "hs34375",
    "n": "Vatia ECE",
    "a": "Vatia 1\nNorth",
    "l": "Pago Pago AS 96799",
    "p": "6846444992",
    "cs": [
      3,
      5,
      9
    ],
    "lt": 14.319506,
    "lg": -170.750246,
    "f": 14
  },
  {
    "id": "hs34377",
    "t": "Fagaitua ECE",
    "i": "hs34377",
    "n": "Fagaitua ECE",
    "a": "Fagaitua\nSua",
    "l": "Pago Pago AS 96799",
    "p": "6846227552",
    "cs": [
      3,
      5,
      9
    ],
    "lt": 14.319506,
    "lg": -170.750246,
    "f": 14
  },
  {
    "id": "hs34378",
    "t": "Afono ECE",
    "i": "hs34378",
    "n": "Afono ECE",
    "a": "Afonotele\nSua Ma Le Vaifanua",
    "l": "Pago Pago AS 96799",
    "p": "6846441525",
    "cs": [
      3,
      5,
      9
    ],
    "lt": 14.319506,
    "lg": -170.750246,
    "f": 14
  },
  {
    "id": "hs34380",
    "t": "Pava'ia'i",
    "i": "hs34380",
    "n": "Pava'ia'i",
    "a": "Pavaiai\nTualauta",
    "l": "Pago Pago AS 96799",
    "p": "6846992693",
    "cs": [
      3,
      5,
      9
    ],
    "lt": 14.319506,
    "lg": -170.750246,
    "f": 14
  },
  {
    "id": "hs34381",
    "t": "Matafao",
    "i": "hs34381",
    "n": "Matafao",
    "a": "Matafao\nFagaalu, American Samoa",
    "l": "Pago Pago AS 96799",
    "p": "6846332401",
    "cs": [
      3,
      5,
      9
    ],
    "lt": 14.319506,
    "lg": -170.750246,
    "f": 14
  },
  {
    "id": "hs34382",
    "t": "Aua  ECE",
    "i": "hs34382",
    "n": "Aua  ECE",
    "a": "Aua, Eastern, American Samoa\nMaoputasi",
    "l": "Pago Pago AS 96799",
    "p": "6846444269",
    "cs": [
      3,
      5,
      9
    ],
    "lt": 14.319506,
    "lg": -170.750246,
    "f": 14
  },
  {
    "id": "hs34383",
    "t": "Matatula ECE",
    "i": "hs34383",
    "n": "Matatula ECE",
    "a": "Saole\nEastern District",
    "l": "Pago Pago AS 96799",
    "p": "6846227422",
    "cs": [
      3,
      5,
      9
    ],
    "lt": 14.319506,
    "lg": -170.750246,
    "f": 14
  },
  {
    "id": "lAS0001",
    "t": "FELETI BARSTOW PUBLIC LIBRARY",
    "i": "lAS0001",
    "n": "FELETI BARSTOW PUBLIC LIBRARY",
    "a": "997687 UTULEI RD",
    "l": "PAGO PAGO AS 96799",
    "p": "6846335816",
    "cs": [
      3,
      5
    ],
    "lt": 14.319506,
    "lg": -170.750246,
    "f": 14
  },
  {
    "id": "ssa025",
    "t": "PAGO PAGO AM SAMOA  Social Security Administration Office",
    "i": "ssa025",
    "n": "PAGO PAGO AM SAMOA  Social Security Administration Office",
    "a": "3RD FLR SUITE 302",
    "l": "PAGO PAGO AS 96799",
    "p": "8007721213",
    "cs": [
      11,
      15
    ],
    "lt": 14.319506,
    "lg": -170.750246,
    "f": 14
  },
  {
    "id": "rc4009",
    "t": "Rose Atoll National Wildlife Refuge",
    "u": "",
    "tx": "Rose Atoll National Wildlife Refuge, 14 degrees south of the equator and about 2,500 miles south of Hawaii, is at the east end of the Samoan archipelago, 180 miles east of Pago Pago, American Samoa. It is the smallest atoll in the world with about 20 acres of land and 1,600 acres of lagoon. The square reef protects two small, emergent islands. Rose Island, the larger of the two, is low, sandy, and thickly vegetated with shrubs, vines, and trees. It is an important nesting area for the threatened <a href=\"http://www.fws.gov/pacific/pacificislands/wesa/grnturtindex.html\" rel=\"nofollow\">green sea turtle</a> and endangered <a href=\"http://www.fws.gov/pacific/pacificislands/wesa/hawksturtindex.html\" rel=\"nofollow\">hawksbill sea turtle</a>.\n\n\n\nRose Atoll is part of the Pacific Remote Islands National Wildlife Refuge Complex. The office is in Honolulu.",
    "i": "rc4009",
    "cs": [
      7
    ],
    "lt": 14.51669979,
    "lg": -168.1499939,
    "f": 14
  },
  {
    "id": "rc210642",
    "t": "Manila American Cemetery And Memorial, Philippines",
    "i": "rc210642",
    "cs": [
      7
    ],
    "lt": 14.544,
    "lg": 121.0382,
    "f": 14
  },
  {
    "id": "acl17",
    "t": "ACLU of Louisiana",
    "i": "acl17",
    "n": "ACLU of Louisiana",
    "p": "5045220617",
    "a": "P.O. Box 56157",
    "l": "New Orleans LA 70156",
    "u": "https://www.aclu.org/affiliate/louisiana",
    "lt": "14.97148",
    "lg": "-44.982685",
    "cs": [
      11
    ],
    "f": 14
  }
]