[
  {
    "id": "hs46210",
    "t": "Tinian Head Start Center",
    "i": "hs46210",
    "n": "Tinian Head Start Center",
    "a": "San Jose Village",
    "l": "Tinian MP 96952",
    "p": "6704339253",
    "cs": [
      3,
      5,
      9
    ],
    "lt": 15.01006,
    "lg": 145.631189,
    "f": 15
  },
  {
    "id": "jcl117",
    "t": "Crossroads Career Network - Celebration Church",
    "i": "jcl117",
    "n": "Crossroads Career Network - Celebration Church",
    "l": "Jacksonville FL 32255",
    "p": "9047371121",
    "u": "http://www.celebration.org/",
    "lt": "15.16609",
    "lg": "-40.827825",
    "cs": [
      6
    ],
    "f": 15
  },
  {
    "id": "hc4581",
    "t": "Kagman Community Health Center",
    "i": "hc4581",
    "n": "Kagman Community Health Center",
    "a": "1 Lemmai Way Buildings A &Amp; B Kagman",
    "l": "Saipan MP 96950",
    "p": "6702565240",
    "u": "www.kagmanchc.org",
    "cs": [
      10
    ],
    "lt": 15.186892,
    "lg": 145.754437,
    "f": 15
  },
  {
    "id": "hs46203",
    "t": "Dan Dan Head Start Center",
    "i": "hs46203",
    "n": "Dan Dan Head Start Center",
    "a": "Dandan Rd.\nDandan",
    "l": "Saipan MP 96950",
    "p": "6702888820",
    "cs": [
      3,
      5,
      9
    ],
    "lt": 15.186892,
    "lg": 145.754437,
    "f": 15
  },
  {
    "id": "hs46204",
    "t": "Oleai Head Start Center",
    "i": "hs46204",
    "n": "Oleai Head Start Center",
    "a": "Oleai St\nOleai",
    "l": "Saipan MP 96950",
    "p": "6702345692",
    "cs": [
      3,
      5,
      9
    ],
    "lt": 15.186892,
    "lg": 145.754437,
    "f": 15
  },
  {
    "id": "hs46205",
    "t": "Chalan Kanoa Head Start Center",
    "i": "hs46205",
    "n": "Chalan Kanoa Head Start Center",
    "a": "Texas Rd\nChalan Kanoa",
    "l": "Saipan MP 96950",
    "p": "6702345204",
    "cs": [
      3,
      5,
      9
    ],
    "lt": 15.186892,
    "lg": 145.754437,
    "f": 15
  },
  {
    "id": "hs46206",
    "t": "San Antonio Head Start Center",
    "i": "hs46206",
    "n": "San Antonio Head Start Center",
    "a": "San Antonio\nKachu Ave.",
    "l": "Saipan MP 96950",
    "p": "6702346157",
    "cs": [
      3,
      5,
      9
    ],
    "lt": 15.186892,
    "lg": 145.754437,
    "f": 15
  },
  {
    "id": "hs46207",
    "t": "Kagman Head Start Center",
    "i": "hs46207",
    "n": "Kagman Head Start Center",
    "a": "Chacha Rd\nKagman",
    "l": "Saipan MP 96950",
    "p": "6702563751",
    "cs": [
      3,
      5,
      9
    ],
    "lt": 15.186892,
    "lg": 145.754437,
    "f": 15
  },
  {
    "id": "hs46208",
    "t": "Joaquina Mareham Rabauliman Head Start Center",
    "i": "hs46208",
    "n": "Joaquina Mareham Rabauliman Head Start Center",
    "a": "Judge Way\nGarapan",
    "l": "Saipan MP 96950",
    "p": "6706641087",
    "cs": [
      3,
      5,
      9
    ],
    "lt": 15.186892,
    "lg": 145.754437,
    "f": 15
  },
  {
    "id": "hs46211",
    "t": "Tanapag Head Start Center",
    "i": "hs46211",
    "n": "Tanapag Head Start Center",
    "a": "Chamolinian Drive, Tanapag\nTanapag",
    "l": "Saipan MP 96950",
    "p": "6703221422",
    "cs": [
      3,
      5,
      9
    ],
    "lt": 15.186892,
    "lg": 145.754437,
    "f": 15
  },
  {
    "id": "hs58016",
    "t": "Chalan Kanoa Early Head Start Center",
    "i": "hs58016",
    "n": "Chalan Kanoa Early Head Start Center",
    "a": "Chalan Kanoa",
    "l": "Saipan MP 96950",
    "p": "6706643761",
    "cs": [
      3,
      5,
      9
    ],
    "lt": 15.186892,
    "lg": 145.754437,
    "f": 15
  },
  {
    "id": "hs58017",
    "t": "Northern Marianas International School- Child Care Partnership Center",
    "i": "hs58017",
    "n": "Northern Marianas International School- Child Care Partnership Center",
    "a": "Nauru Loop\nSusupe",
    "l": "Saipan MP 96950",
    "p": "6706643761",
    "cs": [
      3,
      5,
      9
    ],
    "lt": 15.186892,
    "lg": 145.754437,
    "f": 15
  },
  {
    "id": "hs58021",
    "t": "Dandan Early Head Start Center",
    "i": "hs58021",
    "n": "Dandan Early Head Start Center",
    "a": "Dandan",
    "l": "Saipan MP 96950",
    "p": "6706643761",
    "cs": [
      3,
      5,
      9
    ],
    "lt": 15.186892,
    "lg": 145.754437,
    "f": 15
  },
  {
    "id": "hs86397",
    "t": "Kagman Early Head Start",
    "i": "hs86397",
    "n": "Kagman Early Head Start",
    "a": "Bilembines Street, Granada Drive\nKagman",
    "l": "Saipan MP 96950",
    "p": "6702565633",
    "cs": [
      3,
      5,
      9
    ],
    "lt": 15.186892,
    "lg": 145.754437,
    "f": 15
  },
  {
    "id": "sen21601",
    "t": "CNMI Office on Aging",
    "i": "sen21601",
    "n": "CNMI Office on Aging",
    "a": "Garapan Central Park",
    "l": "Saipan MP 96950",
    "p": "6702331320",
    "cs": [
      15
    ],
    "lt": 15.186892,
    "lg": 145.754437,
    "f": 15
  },
  {
    "id": "sen621255",
    "t": "CNMI Aging and Disability Resource Center",
    "i": "sen621255",
    "n": "CNMI Aging and Disability Resource Center",
    "a": "P. O. Box 502178 China Town",
    "l": "Saipan MP 96950",
    "p": "6706642598",
    "cs": [
      15
    ],
    "lt": 15.186892,
    "lg": 145.754437,
    "f": 15
  },
  {
    "id": "sen621833",
    "t": "Territory Wide",
    "i": "sen621833",
    "n": "Territory Wide",
    "a": "P. O. Box 502178 China Town",
    "l": "Saipan MP 96950",
    "p": "6706642598",
    "cs": [
      15
    ],
    "lt": 15.186892,
    "lg": 145.754437,
    "f": 15
  },
  {
    "id": "ssaE02",
    "t": "SAIPAN MP  Social Security Administration Office",
    "i": "ssaE02",
    "n": "SAIPAN MP  Social Security Administration Office",
    "a": "MARINA HGT BUSINESS PK",
    "l": "SAIPAN MP 96950",
    "p": "8007721213",
    "cs": [
      11,
      15
    ],
    "lt": 15.186892,
    "lg": 145.754437,
    "f": 15
  },
  {
    "id": "rc2563",
    "t": "American Memorial Park",
    "u": "",
    "tx": "American Memorial Park honors the American and Marianas people who gave their lives during the Marianas Campaign of World War II. At the park, memorials stand in tribute to the courage and sacrifice of the US Servicemen and Chamorro and Carolinian civilians who were killed in the battles between the United States and Japan that took place on Saipan, Tinian, and the Philippine Sea in 1944.",
    "i": "rc2563",
    "cs": [
      7
    ],
    "lt": 15.21680033,
    "lg": 145.7231096,
    "f": 15
  },
  {
    "id": "yc3",
    "t": "Mobile Youth Council",
    "i": "yc3",
    "n": "Mobile Youth Council",
    "l": "Mobile AL 36670",
    "p": "2516332115",
    "lt": "15.34718",
    "lg": "-44.021525",
    "cs": [
      6,
      3
    ],
    "f": 15
  },
  {
    "id": "rc13546",
    "t": "Mariana Trench Marine National Monument",
    "u": "",
    "tx": "\"On January 6, 2009, President George W. Bush established the Marianas Trench Marine National Monument under the authority of the Antiquities Act of 1906.  The Monument is managed by the Department of the Interior through the U.S. Fish and Wildlife Service, while consulting with the National Oceanic and Atmospheric Administration, the Commonwealth of Northern Mariana Islands, the Department of Defense, and the US Coast Guard.  The Monument incorporates approximately 95,216 square miles within three units in the Mariana Archipelago (see map).  The Mariana Trench Unit is almost 1,100 miles long and 44 miles wide and includes only the bottom lands, features, and resources, but not the overlying water column or its resources.  The Volcanic Unit consists of the bottom lands, features, and resources in roughly 2 mile diameter circles, around 21 undersea mud volcanoes and thermal vents along the Mariana Arc.  The Trench and Volcanic Units are managed as National Wildlife Refuges (Mariana Trench National Wildlife Refuge and Mariana Arc of Fire National Wildlife Refuge, respectfully).  The Islands Unit includes the waters and submerged lands and resources around the three northernmost Mariana Islands, Farallon de Pajaros or Uracas, Maug, and Asuncion, below the mean low water line. The emerged lands of these islands are the jurisdiction of and managed by the Commonwealth of the Northern Mariana Islands.\n<br><br>\nThe Monument designation does not restrict recreational activities in the overlying water column of the Trench and Volcanic Units.  To visit these units using deep sea submersibles or remotely operated vehicles requires a Special Use Permit from the U.S. Fish and Wildlife Service.\n<br><br>\nThe Islands Unit of the Monument is closed to commercial fishing.  The National Oceanic Atmospheric Administration (NOAA) is primarily responsible for managing fishery-related activities, and ensuring that sustenance, recreational, and traditional indigenous fishing are managed as sustainable activities.\"",
    "i": "rc13546",
    "cs": [
      7
    ],
    "lt": 15.492553,
    "lg": 147.293224,
    "f": 15
  }
]