[
  {
    "id": "acl23",
    "t": "ACLU of Mississippi",
    "i": "acl23",
    "n": "ACLU of Mississippi",
    "p": "6013543408",
    "a": "P.O. Box 2242",
    "l": "Jackson MS 39225",
    "u": "https://www.aclu.org/affiliate/mississippi",
    "lt": "16.170765",
    "lg": "-45.16088",
    "cs": [
      11
    ],
    "f": 16
  },
  {
    "id": "yc439",
    "t": "Pee Dee Workforce Investment Board Youth Council",
    "i": "yc439",
    "n": "Pee Dee Workforce Investment Board Youth Council",
    "l": "Florence SC 29502",
    "p": "8436693138",
    "lt": "16.42731",
    "lg": "-39.987405",
    "cs": [
      6,
      3
    ],
    "f": 16
  },
  {
    "id": "jcl550",
    "t": "CareerLink Network - CLN Organization",
    "i": "jcl550",
    "n": "CareerLink Network - CLN Organization",
    "l": "Flowermound TX 75027",
    "p": "9725398093",
    "u": "http://mysite.verizon.net/resoe1yq/clnorganization/id3.html",
    "lt": "16.551585",
    "lg": "-48.335275",
    "cs": [
      6
    ],
    "f": 16
  },
  {
    "id": "acl3",
    "t": "ACLU of Arizona",
    "i": "acl3",
    "n": "ACLU of Arizona",
    "p": "6026501854",
    "a": "P.O. Box 17148",
    "l": "Phoenix AZ 85011",
    "u": "https://www.aclu.org/affiliate/arizona",
    "lt": "16.72419",
    "lg": "-56.03702",
    "cs": [
      11
    ],
    "f": 16
  },
  {
    "id": "rc1508",
    "t": "Johnston Atoll National Wildlife Refuge",
    "u": "",
    "tx": "Johnston Atoll National Wildlife Refuge is located in the central Pacific Ocean, 717 nautical miles west-southwest of Honolulu. The refuge is managed for 14 species of breeding sea birds and 5 species of wintering shorebirds, and for its coral reef and diverse marine organisms, including the threatened green sea turtle. \n\n\n\nThe atoll comprises four small islands (696 acres), which constitute the only land area in over 800,000 square miles of ocean. The emergent land associated with this refuge provides critical, rat-free habitat for central Pacific sea bird populations; its coral reef ecosystem is an important marine resource. \n\n\n\nThe refuge was created by Executive Order 4467 in 1926; there has been a military presence on the atoll since 1934. It served as a refueling point for U.S. aircraft and submarines in World War II and as a base for airlift operations during the Korean War. The U.S. Air Force is the current host management agency and has operational control of the atoll. \n\n\n\nThe infrastructure has grown to support the workforces necessary for various military missions; approximately 1,300 people live and work at Johnston Atoll. The military mission is almost complete, numerous closure and cleanup issues are being discussed, and the atoll will ultimately be returned to the U.S. Fish and Wildlife Service.\"\n\n\n\n\nThe atoll comprises four small islands (696 acres), which constitute the only land area in over 800,000 square miles of ocean. The emergent land associated with this refuge provides critical, rat-free habitat for central Pacific sea bird populations; its coral reef ecosystem is an important marine resource. \n\n\n\nThe refuge was created by Executive Order 4467 in 1926; there has been a military presence on the atoll since 1934. It served as a refueling point for U.S. aircraft and submarines in World War II and as a base for airlift operations during the Korean War. The U.S. Air Force is the current host management agency and has operational control of the atoll. \n\n\n\nThe infrastructure has grown to support the workforces necessary for various military missions; approximately 1,300 people live and work at Johnston Atoll. The military mission is almost complete, numerous closure and cleanup issues are being discussed, and the atoll will ultimately be returned to the U.S. Fish and Wildlife Service.",
    "i": "rc1508",
    "cs": [
      7
    ],
    "lt": 16.732104,
    "lg": -169.530984,
    "f": 16
  },
  {
    "id": "yc438",
    "t": "Midlands Workforce Development Board Youth Council",
    "i": "yc438",
    "n": "Midlands Workforce Development Board Youth Council",
    "l": "Columbia SC 29250",
    "p": "8032567237",
    "lt": "16.78021",
    "lg": "-40.859775",
    "cs": [
      6,
      3
    ],
    "f": 16
  },
  {
    "id": "yc440",
    "t": "Santee Lynches Regional Council of Governments Youth Council",
    "i": "yc440",
    "n": "Santee Lynches Regional Council of Governments Youth Council",
    "l": "Sumter SC 29151",
    "p": "8037757381",
    "lt": "16.78021",
    "lg": "-40.859775",
    "cs": [
      6,
      3
    ],
    "f": 16
  },
  {
    "id": "jcl36",
    "t": "Experience Unlimited - Anaheim Workforce Services",
    "i": "jcl36",
    "n": "Experience Unlimited - Anaheim Workforce Services",
    "l": "Anaheim CA 98206",
    "p": "7145182365",
    "u": "http://www.edd.ca.gov/jobs_and_training/Experience_Unlimited_Local_Information.htm",
    "lt": "16.917645",
    "lg": "-58.95725",
    "cs": [
      6
    ],
    "f": 16
  }
]