[
  {
    "id": "rc13977",
    "t": "Puʻukoholā Heiau National Historic Site",
    "u": "",
    "tx": "How many places in America can you walk in the footsteps of a king? Where else has a stranded sailor risen up to become a great chief over an entire island? Where else can you experience the culminating event of a people, foretold from centuries past? Where else can you stand on a beach and watch as sharks pass over a submerged temple? Experience all this and much more – only at Pu'ukoholā Heiau!",
    "i": "rc13977",
    "cs": [
      7
    ],
    "lt": 20.027722,
    "lg": -155.821163,
    "f": 20
  },
  {
    "id": 830398324,
    "cs": [
      1
    ],
    "a": "52 AKEA PLACE",
    "l": "KULA HI 96790",
    "lt": 20.685422,
    "lg": -156.305383,
    "tx": "THE ORGANIZATION'S MISSION IS TO COORDINATE, PROMOTE, AND PROVIDE QUALITY SYMPHONIC MUSIC TO MAUI RESIDENTS AND VISITORS.",
    "u": "www.mauipops.org",
    "t": "MAUI POPS ORCHESTRA INC",
    "f": 20
  },
  {
    "id": "rc552218",
    "t": "Campsite: Kapalaoa Cabin",
    "lt": 20.7064897240001,
    "lg": -156.184027589,
    "i": "rc552218",
    "cs": [
      7
    ],
    "f": 20
  },
  {
    "id": "rc2751",
    "t": "Haleakalā National Park",
    "u": "",
    "tx": "This special place vibrates with stories of ancient and modern Hawaiian culture and protects the bond between the land and its people. The park also cares for endangered species, some of which exist nowhere else. Come visit this special place - renew your spirit amid stark volcanic landscapes and sub-tropical rain forest with an unforgettable hike through the backcountry.",
    "i": "rc2751",
    "cs": [
      7
    ],
    "lt": 20.70693,
    "lg": -156.159177,
    "f": 20
  },
  {
    "id": 205403498,
    "cs": [
      6,
      16
    ],
    "a": "PO Box 959-134",
    "l": "Kihei HI 96753",
    "lt": 20.711955,
    "lg": -156.438498,
    "tx": "The Desire of All Nations spreads the Gospel of Jesus establishes churches provides leadership pastoral training reaches out to orphans troubled youth offers Christian counseling assists in relief efforts",
    "u": "www.thedesireofallnations.com",
    "t": "DESIRE OF ALL NATIONS",
    "f": 20
  },
  {
    "id": 472509441,
    "cs": [
      1,
      16
    ],
    "a": "3136 KIKIHI STREET",
    "l": "KIHEI HI 96753",
    "lt": 20.711955,
    "lg": -156.438498,
    "tx": "THE MISSION OF THE MAUI NUI MARINE RESOURCE COUNCIL MNMRC IS TO PRESERVE AND PROTECT MAUI NUIS CORAL REEFS AND ITS INHABITANTS OUR VISION THE COASTAL WATERS OF MAUI NUI ARE CLEAN CORAL REEFS ARE HEALTHY AND NATIVE FISH ARE ABUNDANT",
    "u": "mauireefs.org",
    "t": "MAUI NUI MARINE RESOURCE COUNCIL INC",
    "f": 20
  },
  {
    "id": "rc258866",
    "t": "Haleakalā Visitor Center",
    "i": "rc258866",
    "cs": [
      7
    ],
    "lt": 20.715117,
    "lg": -156.249859,
    "f": 20
  },
  {
    "id": "rc10126664",
    "t": "Campsite: Palikū 5 (Group)",
    "lt": 20.717533475,
    "lg": -156.142745067,
    "i": "rc10126664",
    "cs": [
      7
    ],
    "f": 20
  },
  {
    "id": "rc10126661",
    "t": "Campsite: Palikū 4",
    "lt": 20.717597245,
    "lg": -156.142412894,
    "i": "rc10126661",
    "cs": [
      7
    ],
    "f": 20
  },
  {
    "id": "rc10126662",
    "t": "Campsite: Palikū 2",
    "lt": 20.7177571440001,
    "lg": -156.142489703,
    "i": "rc10126662",
    "cs": [
      7
    ],
    "f": 20
  },
  {
    "id": "rc10126659",
    "t": "Campsite: Palikū 1",
    "lt": 20.717823454,
    "lg": -156.142353997,
    "i": "rc10126659",
    "cs": [
      7
    ],
    "f": 20
  },
  {
    "id": "rc10126660",
    "t": "Campsite: Palikū 3",
    "lt": 20.717865648,
    "lg": -156.142769813,
    "i": "rc10126660",
    "cs": [
      7
    ],
    "f": 20
  },
  {
    "id": "rc552219",
    "t": "Campsite: Paliku Cabin",
    "lt": 20.7179178110001,
    "lg": -156.142021671,
    "i": "rc552219",
    "cs": [
      7
    ],
    "f": 20
  },
  {
    "id": "rc10119509",
    "t": "Campsite: Hōlua 4",
    "lt": 20.739327514,
    "lg": -156.218714528,
    "i": "rc10119509",
    "cs": [
      7
    ],
    "f": 20
  },
  {
    "id": "rc10119507",
    "t": "Campsite: Hōlua 2",
    "lt": 20.7393745150001,
    "lg": -156.218490528,
    "i": "rc10119507",
    "cs": [
      7
    ],
    "f": 20
  },
  {
    "id": "rc10119508",
    "t": "Campsite: Hōlua 3",
    "lt": 20.7394495140001,
    "lg": -156.218731528,
    "i": "rc10119508",
    "cs": [
      7
    ],
    "f": 20
  },
  {
    "id": "rc10119510",
    "t": "Campsite: Hōlua 5 (Group)",
    "lt": 20.7395805150001,
    "lg": -156.218856528,
    "i": "rc10119510",
    "cs": [
      7
    ],
    "f": 20
  },
  {
    "id": "rc10119506",
    "t": "Campsite: Hōlua 1",
    "lt": 20.7397085150001,
    "lg": -156.218381527,
    "i": "rc10119506",
    "cs": [
      7
    ],
    "f": 20
  },
  {
    "id": "rc10119505",
    "t": "Haleakala National Park (Wilderness Tent Permits)",
    "i": "rc10119505",
    "cs": [
      7
    ],
    "lt": 20.739881,
    "lg": -156.218414,
    "f": 20
  },
  {
    "id": "rc552217",
    "t": "Campsite: Holua Cabin",
    "lt": 20.7401102310001,
    "lg": -156.218716718,
    "i": "rc552217",
    "cs": [
      7
    ],
    "f": 20
  },
  {
    "id": "rc258865",
    "t": "Headquarters Visitor Center",
    "i": "rc258865",
    "cs": [
      7
    ],
    "lt": 20.759476,
    "lg": -156.246784,
    "f": 20
  },
  {
    "id": "rc3104",
    "t": "Hawaiian Islands Humpback Whale National Marine Sanctuary",
    "u": "",
    "tx": "No one knows exactly when humpback whales first began wintering in the warm, shallow waters around the Hawaiian Islands. Narrative reports from whalers document the appearance of these majestic giants in Hawaii in the 1840s, but little evidence substantiates an earlier presence. But arrive they did, and today the waters around the main Hawaiian Islands of Kauai, Oahu, Hawaii, Maui, Molokai, Lanai and Kaho'olawe constitute one of the world's most important North Pacific humpback whale (Megaptera novaeangliae) habitats and the only place in the U.S. where humpbacks reproduce. Scientists estimate that two-thirds of the entire North Pacific humpback whale population (approximately 10,000 whales) migrate to Hawaiian waters to breed, calve and nurse their young.\n\nThe Hawaiian Islands Humpback Whale National Marine Sanctuary also provides opportunities for surfing, diving and snorkeling.",
    "i": "rc3104",
    "cs": [
      7
    ],
    "lt": 20.76421,
    "lg": -156.458477,
    "f": 20
  },
  {
    "id": "rc3967",
    "t": "Kakahaia National Wildlife Refuge",
    "u": "",
    "tx": "Kakahaia Refuge is a coastal freshwater pond, originally used as an artificial fish pond. This 44-acre refuge is situated on the south coast of Moloka'i. Established in 1977, it provides habitat for the endangered 'alae ke'oke'o (<a href=\"http://www.fws.gov/pacific/pacificislands/wesa/coothi.html\" rel=\"nofollow\">Hawaiian coot</a>) and small numbers of 'ae'o (<a href=\"http://www.fws.gov/pacific/pacificislands/wesa/aeo.html\" rel=\"nofollow\">Hawaiian stilt</a>), migratory waterfowl, and shorebirds. \n\n\n\nNorthern pintails are common in winter months; and the Pacific golden plover is the most common shorebird. The native black-crowned night heron feeds on fish and other small vertebrates along the shoreline. \n\n\n\nKakahaia is primarily a natural, spring-fed habitat. However, in 1983, an additional impoundment was constructed to increase shallow water habitat for the endangered stilt. In 1998 and 1999, this \"New Pond\" was cleared of invasive plants to open up habitat for the endangered stilt and coot, as well as wintering birds. State Route 450 bisects the refuge. The 2 acres seaward of the highway are under special use permit to the County of Maui for use as a county park open to picnicking and shoreline fishing.",
    "i": "rc3967",
    "cs": [
      7
    ],
    "lt": 20.793806,
    "lg": -156.467195,
    "f": 20
  },
  {
    "id": "rc1449",
    "t": "Kealia Pond National Wildlife Refuge",
    "u": "",
    "tx": "Kealia Pond National Wildlife Refuge is one of the few natural wetlands remaining in the Hawaiian Islands. Located along the south central coast of the island of Maui between the towns of Kihei and Ma'alaea, this 691-acre wetland is home to the endangered <a href=\"http://www.fws.gov/pacific/pacificislands/wesa/coothi.html\" rel=\"nofollow\">Hawaiian coot</a> (ae'o) and <a href=\"http://www.fws.gov/pacific/pacificislands/wesa/coothi.html\" rel=\"nofollow\">Hawaiian coot</a> ('alae ke oke'o).  The refuge is adjacent to Kealia Beach, which is a nesting ground for the endangered hawksbill turtle.\n\n\n\nKealia Pond serves as a settling basin a 56-square mile watershed that results in seasonal intermittent flooding during winter months and dryer conditions during late summer months. This creates open water (200 acres) and shallow mud flat areas interspersed with vegetation, which provide suitable resting, feeding, and nesting habitat for endangered water birds. During certain times of the year, the refuge supports at least half of the Hawaiian stilt population.\n\n\n\nThe pond also supports a diverse assemblage of migratory birds from late summer (August) to early spring (April). It is one of the most important areas in the state for wintering migratory waterfowl. Migratory shorebirds also congregate here to take advantage of the food resources along the water's edge. As water recedes, fish are crowded into the remaining water, making them easy prey for 'auku'u (black-crowned night herons).\n\n\n\nApproximately 2,700 people visit the refuge each year to engage in various wildlife-oriented activities, including bird watching, photography, environmental education, habitat restoration projects that involve removal of exotic species, and outplanting with Hawaii's native vegetation.",
    "i": "rc1449",
    "cs": [
      7
    ],
    "lt": 20.7949134,
    "lg": -156.46632,
    "f": 20
  },
  {
    "id": 822863418,
    "cs": [
      3,
      10
    ],
    "a": "C/O ZACHARY MCNISH",
    "l": "MAKAWAO HI 96768",
    "lt": 20.832264,
    "lg": -156.297856,
    "tx": "MILESTONES WILL APPLY OUR DIVERSE PROFESSIONAL EXPERTISE, AND COMMUNITY RELATIONSHIPS TO IMPROVE CARE FOR PEOPLE WITH NEUROLOGIC DISORDERS, REALIZING VALUE IN ALL CHILDREN AND FAMILIES. WE WILL EMBRACE THE JOURNEY OF TRANSFORMATION WITH OUR PATIENTS AND THEIR FAMILIES, AND IN AN EVER- CHANGING HEALTH CARE ENVIRONMENT THAT PRESENTS NEW CHALLENGES AND OPPORTUNITIES.",
    "u": "www.milestoneshawaii.org",
    "t": "MILESTONES",
    "f": 20
  },
  {
    "id": 912144632,
    "cs": [
      16,
      5
    ],
    "a": "PO BOX 243",
    "l": "MAKAWAO HI 96768",
    "lt": 20.832264,
    "lg": -156.297856,
    "tx": "WHALE TRUST SUPPORTS AND CONDUCTS SCIENTIFIC RESEARCH, MARINE EDUCATION, AND CONSERVATION PROGRAMS ON MARINE MAMMALS AND THEIR ENVIRONMENT.",
    "u": "www.whaletrust.org",
    "t": "WHALE TRUST",
    "f": 20
  },
  {
    "id": 261329156,
    "cs": [
      1,
      42
    ],
    "a": "PO BOX 631577",
    "l": "LANAI CITY HI 96763",
    "lt": 20.836482,
    "lg": -156.927377,
    "tx": "PROVIDE SUSTENANCE FOSTER HOMES SHELTER ADOPTIONS VETERINARY CARE SPAYNEUTER SERVICES AND HUMANE EDUCATION",
    "u": "www.lanaianimalrescue.org",
    "t": "LANAI CAT SANCTUARY",
    "f": 20
  },
  {
    "id": "165058279",
    "t": "HALE MAHAOLU HOMEOWNERSHIP/HOUSING COUNSELING",
    "u": "http://www.halemahaolu.org",
    "tx": "Mortgage Delinquency and Default Resolution Counseling",
    "lt": 20.872716,
    "lg": -156.477095,
    "a": "615 W Papa Ave",
    "l": "Kahului HI 96732",
    "st": "HI",
    "cs": [
      1,
      12
    ],
    "ds": [],
    "f": 20
  },
  {
    "id": "80480",
    "t": "HALE MAHAOLU HOMEOWNERSHIP/HOUSING COUNSELING",
    "a": "95 Mahalani Street, Suite #28-2A",
    "l": "Wailuku 96793",
    "lt": "20.887035",
    "lg": "-156.487649",
    "u": "http://www.halemahaolu.org",
    "cs": [
      1
    ],
    "f": 20
  },
  {
    "id": "80976",
    "t": "LEGAL AID SOCIETY OF HAWAII - Wailuku Branch",
    "a": "24 N. Church street",
    "l": "wailuku 96793",
    "lt": "20.887739",
    "lg": "-156.502806",
    "u": "http://www.legalaidhawaii.org",
    "cs": [
      1
    ],
    "f": 20
  },
  {
    "id": "82371",
    "t": "HAWAIIAN COMMUNITY ASSETS, INC. - WAILUKU BRANCH",
    "a": "24 N Church St",
    "l": "Wailuku 96793",
    "lt": "20.888112",
    "lg": "-156.503044",
    "u": "http://www.hawaiiancommunity.net",
    "cs": [
      1
    ],
    "f": 20
  },
  {
    "id": 464534372,
    "cs": [
      5
    ],
    "a": "PO Box 99",
    "l": "Wailuku HI 96793",
    "lt": 20.895445,
    "lg": -156.530122,
    "tx": "HFUU supports the interests of family farms through education legislation and cooperation",
    "u": "www.hfuuhi.org",
    "t": "HAWAII FARMERS UNION UNITED",
    "f": 20
  },
  {
    "id": 510548338,
    "cs": [
      12,
      5
    ],
    "a": "95 MAHALANI STREET SUITE 8",
    "l": "WAILUKU HI 96793",
    "lt": 20.895445,
    "lg": -156.530122,
    "tx": "MISSION THE MISSION OF THE PACIFIC CANCER FOUNDATION IS TO PROVIDE ACCESS KNOWLEDGE AND SUPPORT TO ALL THOSE AFFECTED BY CANCER IN MAUI COUNTY WE DO THIS BY PROVIDING FREE SUPPORT SERVICES TO MAUIS CANCER COMMUNITY PURPOSE THE PACIFIC CANCER FOUNDATION IS AN INDEPENDENT  C NOTFORPROFIT ORGANIZATION CREATED EXCLUSIVELY FOR CHARITABLE AND EDUCATIONAL PURPOSES THROUGH THE IMPLEMENTATION OF VARIOUS PROGRAMS THE FOUNDATION GIVES MEANINGFUL ASSISTANCE TO CANCER PATIENTS AND THEIR FAMILIES THE FOUNDATION WORKS TO FOSTER PUBLIC AWARENESS OF THE NEEDS OF CANCER PATIENTS THE FOUNDATION SERVICES THE COMMUNITY BY PROVIDING A CONNECTION BETWEEN THE CANCER PATIENT SURVIVOR AND CAREGIVER AND THE RESOURCES THEY NEED WHETHER THEY BE SOCIAL FINANCIAL MENTAL SPIRITUAL OR PHYSICAL THE FOUNDATION SUPPORTS CARE THAT IMPROVES THE QUALITY OF LIFE FOR CANCER PATIENTS AND SURVIVORS HISTORY THE PACIFIC CANCER FOUNDATION WAS CONCEIVED IN  BY CONCERNED HEALTH CARE PROVIDERS AND CANCE",
    "u": "pacificcancerfoundation.org",
    "t": "PACIFIC CANCER FOUNDATION",
    "f": 20
  },
  {
    "id": 943278838,
    "cs": [
      1,
      5
    ],
    "a": "970 LOWER MAIN STREET",
    "l": "WAILUKU HI 96793",
    "lt": 20.895445,
    "lg": -156.530122,
    "tx": "TO BUILD DECENT HOUSING AND TO RENOVATE SUBSTANDARD HOUSING ON MAUI IN PARTNERSHIP WITH COMMUNITY VOLUNTEERS AND POTENTIAL HOMEOWNERS SO THAT HOMELESSNESS AND SUBSTANDARD HOUSING IS ELIMINATED ON MAUI.",
    "u": "habitat-maui.org",
    "t": "HABITAT FOR HUMANITY MAUI INC",
    "f": 20
  },
  {
    "id": "90276",
    "t": "HABITAT FOR HUMANITY MAUI, INC",
    "a": "1162 Lower Main St",
    "l": "Wailuku 96793-2039",
    "lt": "20.897878",
    "lg": "-156.490729",
    "u": "http://habitat-maui.org",
    "cs": [
      1
    ],
    "f": 20
  },
  {
    "id": "165062947",
    "t": "HABITAT FOR HUMANITY MAUI, INC",
    "u": "www.habitat-maui.org",
    "tx": "Pre-purchase Homebuyer Education Workshops",
    "lt": 20.9003,
    "lg": -156.488736,
    "a": "970 Lower Main St",
    "l": "Wailuku HI 96793",
    "st": "HI",
    "cs": [
      1,
      12
    ],
    "ds": [],
    "f": 20
  },
  {
    "id": "165060133",
    "t": "HAWAIIAN COMMUNITY ASSETS, INC. - WAILUKU BRANCH",
    "u": "http://www.hawaiiancommunity.net",
    "tx": "Mortgage Delinquency and Default Resolution Counseling",
    "lt": 20.908691,
    "lg": -156.492478,
    "a": "655 Kaumualii St Ste 3",
    "l": "Wailuku HI 96793",
    "st": "HI",
    "cs": [
      1,
      12
    ],
    "ds": [],
    "f": 20
  },
  {
    "id": "14011008",
    "n": "717 B MAKAALA DR",
    "a": "717 B MAKAALA DR",
    "lt": 20.910702,
    "lg": -156.492707,
    "t": "717 B MAKAALA DR",
    "l": "Kahului HI 96732",
    "st": "HI",
    "cs": [
      1
    ],
    "ds": [],
    "f": 20
  }
]