[
  {
    "id": "rc258730",
    "t": "Florida Keys Eco-Discovery Center",
    "i": "rc258730",
    "cs": [
      7
    ],
    "lt": 24.55075,
    "lg": -81.806578,
    "f": 24
  },
  {
    "id": "rc3075",
    "t": "Florida Keys National Marine Sanctuary",
    "u": "",
    "tx": "Florida Keys National Marine Sanctuary supports one of the most diverse assemblages of underwater plants and animals in North America. Although best\nknown for is coral reefs, the shallow nearshore waters contain interconnecting and interdependent marine habitats that include fringing mangroves, seagrass meadows, hardbottom regions, patch reefs, and bank reefs. This complex marine ecosystem is the foundation for the tourism and commercial fishing based economies that are so important to Florida.\n\nVisitors to the Florida Keys National Marine Sanctuary can enjoy diving, snorkeling and kayaking.",
    "i": "rc3075",
    "cs": [
      7
    ],
    "lt": 24.5508646,
    "lg": -81.8062546,
    "f": 24
  },
  {
    "id": 205145219,
    "cs": [
      11,
      12
    ],
    "a": "1604 N ROOSEVELT BLVD",
    "l": "KEYWEST FL 33040",
    "lt": 24.560908,
    "lg": -81.889478,
    "tx": "TO SUPPORT OFFICERS OF KEY WEST POLICE DEPARTMENT AND THEIR IMMEDIATE FAMILIES IN TIMES OF EXTREME NEED WHEN NO OTHER RESOURCES ARE AVAILABLE",
    "t": "KEY WEST POLICE DEPT LOVE FUND INC",
    "f": 24
  },
  {
    "id": 271732693,
    "cs": [
      1,
      6
    ],
    "a": "C/O W KNIGHT 1200 4TH ST BOX 580",
    "l": "KEY WEST FL 33040",
    "lt": 24.560908,
    "lg": -81.889478,
    "tx": "MTI INTEGRATED BUSINESS DEVELOPMENT INCS MISSION IS TO PROVIDE CONTINUED ON SCHEDULE O CONTINUED FROM PAGE HOUSING INTERNSHIPS AND EMPLOYMENT OPPORTUNITIES FOR VETERANS WITH BARRIERS",
    "u": "n/a",
    "t": "MTI INTEGRATED BUSINESS DEVELOPMENT INC",
    "f": 24
  },
  {
    "id": 591869382,
    "cs": [
      42
    ],
    "a": "3422 Duck Ave",
    "l": "Key West FL 33040",
    "lt": 24.560908,
    "lg": -81.889478,
    "tx": "Service and information to members concerning real estate",
    "u": "www.keywestrealtors.org",
    "t": "KEY WEST ASSOCIATION OF REALTORS",
    "f": 24
  },
  {
    "id": 596152300,
    "cs": [
      5,
      42
    ],
    "a": "1107 KEY PLAZA BOX 294",
    "l": "KEY WEST FL 33040",
    "lt": 24.560908,
    "lg": -81.889478,
    "tx": "To provide service to others to promote high ethical standards and to advance understanding goodwill and peace through fellowship of business professional and community leaders",
    "u": "www.keywestrotary.com",
    "t": "ROTARY CLUB OF KEY WEST FLORIDA INC",
    "f": 24
  },
  {
    "id": 596173174,
    "cs": [
      5,
      1
    ],
    "a": "5901 COLLEGE ROAD",
    "l": "KEY WEST FL 33040",
    "lt": 24.560908,
    "lg": -81.889478,
    "tx": "FINANCIAL AND OTHER SUPPORT TO FURTHER THE MISSION AND GOALS OF FLORIDA KEYS COMMUNITY COLLEGE",
    "u": "www.fkcc.edu",
    "t": "FLORIDA KEYS EDUCATIONAL FOUNDATION INC",
    "f": 24
  },
  {
    "id": 650648968,
    "cs": [
      3,
      5
    ],
    "a": "300 Southard St Suite 201",
    "l": "Key West FL 33040",
    "lt": 24.560908,
    "lg": -81.889478,
    "tx": "Making Key West and the Florida Keys a better place to live now and in the future by encouraging philanthropy and matching these acts of caring to the community needs",
    "u": "www.cffk.org",
    "t": "COMMUNITY FOUNDATION OF THE FLORIDA KEYS",
    "f": 24
  },
  {
    "id": 650891564,
    "cs": [
      11,
      10
    ],
    "a": "5711 College Road",
    "l": "Key West FL 33040",
    "lt": 24.560908,
    "lg": -81.889478,
    "tx": "Promoting the humane treatment of all animals through compassionate care adoption education population control and humane law enforcement Activities include animal control low cost spay  neuter clinic adoption education care for animals when owners are in distress",
    "u": "www.fkspca.org",
    "t": "FLORIDA KEYS SOCIETY FOR THE PREVENTION OF CRUELTY TO ANIMALS INC",
    "f": 24
  },
  {
    "id": 650951120,
    "cs": [
      1,
      3
    ],
    "a": "5450 Mac Donald Avenue 4",
    "l": "Key West FL 33040",
    "lt": 24.560908,
    "lg": -81.889478,
    "tx": "The mission of Samuels House Inc is to provide housing in a nurturing environment for homeless women women with children men with children and intact families and to provide them with care coordination beneficial to their physical mental emotional and spiritual wellbeing",
    "u": "samuelshouse.org",
    "t": "SAMUELS HOUSE INC",
    "f": 24
  },
  {
    "id": 752979668,
    "cs": [
      1
    ],
    "a": "201 FRONT STREET 107",
    "l": "KEY WEST FL 33040",
    "lt": 24.560908,
    "lg": -81.889478,
    "tx": "To protect and preserve the building and grounds of the state historic site known as the harry s. truman little white house in key west, florida.",
    "u": "trumanlittlewhitehouse.com",
    "t": "KEY WEST HARRY S TRUMAN FOUNDATION INC",
    "f": 24
  },
  {
    "id": "rc258728",
    "t": "Garden Key Campground",
    "i": "rc258728",
    "cs": [
      7
    ],
    "lt": 24.627011,
    "lg": -82.873406,
    "f": 24
  },
  {
    "id": "rc258729",
    "t": "Garden Key Visitor Center",
    "i": "rc258729",
    "cs": [
      7
    ],
    "lt": 24.627896,
    "lg": -82.872646,
    "f": 24
  },
  {
    "id": "rc2665",
    "t": "Dry Tortugas National Park",
    "u": "",
    "tx": "Almost 70 miles (113 km) west of Key West lies the remote Dry Tortugas National Park. This 100-square mile park is mostly open water with seven small islands.  Accessible only by boat or seaplane, the park is known the world over as the home of magnificent Fort Jefferson, picturesque blue waters, superlative coral reefs and marine life, and the vast assortment of bird life that frequents the area.",
    "i": "rc2665",
    "cs": [
      7
    ],
    "lt": 24.628741,
    "lg": -82.87319,
    "f": 24
  },
  {
    "id": "rc12801",
    "t": "Florida Keys Wilderness",
    "u": "",
    "tx": "<p><br>The Florida Keys Wilderness now contains a total of 6,197 acres and is managed by the Fish & Wildlife Service's <a href=\"http://www.fws.gov/nationalkeydeer/\" rel=\"nofollow\">National Key Deer Refuge</a>. All of the Wilderness is in the state of Florida. In 1975 the Florida Keys Wilderness became part of the now over 110 million acre National Wilderness Preservation System. \n<p>The wilderness area of the Florida Keys consists of many islands off shore of the main chain of Keys that are bisected by US 1. These islands are administered by the US Fish and Wildlife Service as part of National Key Deer Refuge and Key West and Great White Heron National Wildlife Refuges. They protect a seemingly endless expanse of sea, sky, and islands between the Gulf of Mexico and the Atlantic Ocean south of Florida's southern mainland coast. Although beaches exist on some of the islands, tangles of mangroves make access to most islands difficult. The Wilderness area consists of all the Marquesas Keys; Mooney Harbor Key; all the Gull Keys; Boca Crande Key; Woman Key; Man Key; Little Mullet Key; Big Mullet Key; Cottrell Key; Archer Key; Mule Key; Barracouta Keys; Joe Ingram Key; Crawfish Key; Sand Key; Rock Key; Eastern Dry Rocks; all the keys west of Key West; Crane Key; Little Swash Keys; Upper Harbor Key; Big Spanish Key; Little Spanish Key; Crawl Key; Little Pine Key Mangrove; Water Key Mangroves; Water Key; Little Pine Key; Horseshoe Keys; West Bahia Honda Key; Mayo Key; Annette Key; Howe Key; Water Keys islands in Sections 14, 15, 23, and 26; Cutoe Key islands in Sections 19, 20, and 21; Johnson Keys islands in Sections 19, 29, 30, and 32; and parts of Raccoon Key. \n<p>Access to those islands (above mean high tide) are permitted only with a special use permit, however, you are welcome to use the surrounding waters for boating, fishing and other permitted recreational purposes. Some islands have special buffer zones, and some have regulations regarding use of motors, and speed zones.",
    "i": "rc12801",
    "cs": [
      7
    ],
    "lt": 24.690496,
    "lg": -81.381503,
    "f": 24
  },
  {
    "id": "rc1409",
    "t": "Great White Heron National Wildlife Refuge",
    "u": "",
    "tx": "Great White Heron National Wildlife Refuge was established in 1938 as a haven for great white herons, migratory birds, and other wildlife.  The refuge is located in the lower Florida Keys and consists of almost 200,000 acres of open water and islands that are north of the primary Keys from Marathon to Key West.  The islands account for approximately 7,600 acres and are primarily mangroves with some of the larger islands containing pine rockland and tropical hardwood hammock habitats.  This vast wilderness area, known locally as the backcountry,э? provides critical nesting, feeding, and resting areas for more than 250 species of birds.\n\n\n\nGreat white herons are a white color-phase of great blue herons and are only found in the Florida Keys.  The refuge was created to protect great white herons from extinction since the population was decimated by the demand for feathered hats.  Protection of great white herons was successful, and these magnificent powder-white birds can be observed feeding on tidal-flats around hundreds of backcountry islands each dawn and dusk.\n\n\n\nThree species of sea turtles rely on the backcountry for feeding and nesting.  Endangered Green sea turtles and threatened Loggerhead sea turtles are the two documented species that successfully nest in the refuge.  Hawksbill sea turtles are known to feed in seagrass beds throughout the refuge, but nesting has not been observed.",
    "i": "rc1409",
    "cs": [
      7
    ],
    "lt": 24.690496,
    "lg": -81.381503,
    "f": 24
  },
  {
    "id": "rc1453",
    "t": "Key West National Wildlife Refuge",
    "u": "",
    "tx": "Key West National Wildlife Refuge was established in 1908 by President Theodore Roosevelt as a preserve and breeding ground for native birds and other wildlife.  This refuge was the first established in the Florida Keys and one of the earliest refuges in the United States.  The refuge encompasses more than 200,000 acres with only 2,000 acres of land.  The area is home to more than 250 species of birds and is important for sea turtle nesting.  The islands are predominately mangrove with a few beaches and salt ponds.",
    "i": "rc1453",
    "cs": [
      7
    ],
    "lt": 24.690496,
    "lg": -81.381503,
    "f": 24
  },
  {
    "id": "rc1533",
    "t": "National Key Deer Refuge",
    "u": "",
    "tx": "The National Key Deer Refuge was established in 1957 to protect and preserve Key deer and other wildlife resources in the Florida Keys.  The refuge is located in the lower Florida Keys and currently consists of approximately 9,200 acres of land that includes pine rockland forests, tropical hardwood hammocks, freshwater wetlands, salt marsh wetlands, and mangrove forests.  These natural communities are critical habitat for hundreds of endemic and migratory species including 17 federally-listed species such as Key deer, lower Keys marsh rabbit, and silver rice rat.\n",
    "i": "rc1533",
    "cs": [
      7
    ],
    "lt": 24.695521,
    "lg": -81.370772,
    "f": 24
  },
  {
    "id": 471194961,
    "cs": [
      10,
      3
    ],
    "a": "3333 OVERSEAS HIGHWAY",
    "l": "MARATHON FL 33050",
    "lt": 24.747487,
    "lg": -81.010326,
    "tx": "TO DEVELOP AND PROMOTE HEALTH CARE PREPAREDNESS RESPONSE AND RECOVERY CAPABILITIES TO HAZARDS AND DISASTERS IN MONROE COUNTY FLORIDA",
    "u": "keyshrc.org",
    "t": "KEYS HEALTH READY COALITION INC",
    "f": 24
  },
  {
    "id": 591164934,
    "cs": [
      7
    ],
    "a": "825 33RD STREET",
    "l": "MARATHON FL 33050",
    "lt": 24.747487,
    "lg": -81.010326,
    "tx": "TO BIND ITS MEMBERS TOGETHER BY A COMMON OBJECTIVE DIRECTED AT PROMOTING SAFE AND RESPONSIBLE PLEASURE AND RECREATION THAT CAN BE EXPERIENCED THROUGH SAFE YACHTING",
    "t": "MARATHON YACHT CLUB INC",
    "f": 24
  },
  {
    "id": 650196267,
    "cs": [
      11,
      6
    ],
    "a": "PO BOX 501404",
    "l": "MARATHON FL 33050",
    "lt": 24.747487,
    "lg": -81.010326,
    "tx": "ENCOURAGE LAWS THAT PROTECT THE FISHING INDUSTRY OF SOUTH FLORIDA WHILE IMPROVING ITS SUSTAINABILITY ADVANCE THE SCIENCE OF FISHING THROUGH COOPERATIVE RESEARCH PARTNER WITH ALL OTHER COMMUNITY ASSOCIATIONS WORKING TOWARD SUSTAINING THE FISHING COMMUNITY WORK WITH THE COUNTY STATE AND FEDERAL AGENCIES TO MINIMIZE THE NEGATIVE IMPACT OF REGULATIONS ON FISHERMEN WHILE IMPROVING CONSERVATION OF MARINE RESOURCES",
    "t": "MONROE COUNTY COMMERCIAL FISHERMAN INC DBA FL KEYS COMMERICAL FISHERMENS ASSOC",
    "f": 24
  },
  {
    "id": 650306516,
    "cs": [
      16,
      3
    ],
    "a": "2396 OVERSEAS HIGHWAY",
    "l": "MARATHON FL 33050",
    "lt": 24.747487,
    "lg": -81.010326,
    "tx": "CARE FOR WILDLIFE IN THE FLORIDA KEYS",
    "u": "n/a",
    "t": "HIDDEN HARBOR MARINE ENVIRONMENTAL PROJECT INC",
    "f": 24
  },
  {
    "id": 650896857,
    "cs": [
      5,
      7
    ],
    "a": "380 E SEAVIEW DRIVE",
    "l": "DUCK KEY FL 33050",
    "lt": 24.747487,
    "lg": -81.010326,
    "tx": "MAINTAIN AND OPERATE A RECREATIONAL CLUB FOR COMMUNITY MEMBERS ONLY",
    "u": "n/a",
    "t": "CLUB DUCK KEY INC",
    "f": 24
  },
  {
    "id": 264270708,
    "cs": [
      7
    ],
    "a": "87431 OLD HIGHWAY",
    "l": "ISLAMORADA FL 33036",
    "lt": 24.893835,
    "lg": -80.710993,
    "tx": "TO PROMOTE AND DISSEMINATE GREEN TECHNOLOGY WHICH IS THE APPLICATION OF THE ENVIRONMENTAL SCIENCE TO CONSERVE THE NATURAL ENVIRONMENT AND RESOURCES AND TO CURB THE NEGATIVE IMPACTS OF HUMAN INVOLVEMENT",
    "u": "n/a",
    "t": "CENTER FOR GREEN STUDIES INC",
    "f": 24
  },
  {
    "id": 593814758,
    "cs": [
      5
    ],
    "a": "111 INDIAN MOUND TRAIL",
    "l": "ISLAMORADA FL 33036",
    "lt": 24.893835,
    "lg": -80.710993,
    "tx": "PROVIDE THEATRICAL AND MUSICAL PROGRAMS FOR THE LOCAL COMMUNITY AND NET GRANTS ARE MADE TO LOCAL STUDENTS TO PURSUE THEIR DEVELOPMENT THROUGH HIGHER EDUCATION",
    "u": "n/a",
    "t": "ISLAMORADA COMMUNITY ENTERTAINMENT INC",
    "f": 24
  }
]