[
  {
    "id": 920047849,
    "cs": [
      42
    ],
    "a": "PO BOX 259",
    "l": "KING SALMON AK 99613",
    "lt": 59.010266,
    "lg": -155.90178,
    "tx": "THE COOPERATIVE PROVIDES TELECOMMUNICATIONS SERVICES TO ITS MEMBERS",
    "u": "www.bristolbay.com",
    "t": "BRISTOL BAY TELEPHONE COOPERATIVE INC",
    "f": 59
  },
  {
    "id": "rc12838",
    "t": "Togiak Wilderness",
    "u": "",
    "tx": "<p><br>The Togiak Wilderness now contains a total of 2,274,066 acres and is managed by the Fish & Wildlife Service's a, href=\"http://www.fws.gov/refuge/togiak/\">Togiak National Wildlife Refuge</a>. All of the Wilderness is in the state of Alaska. In 1980 the Togiak Wilderness became part of the now over 110 million acre National Wilderness Preservation System.\n<p>At 4.2 million acres, Togiak National Wildlife Refuge covers about the same amount of land as Connecticut and Rhode Island combined, a region important to Eskimo and Native American hunter-gatherers for more than 5,000 years. Over half of the refuge, the northern section, has been designated Wilderness. To the north of Togiak Wilderness stretches the vast Yukon Delta National Wildlife Refuge. Three major river systems, comprising over 1,500 miles of water, lie within Togiak Refuge (Togiak, Kanektok, and Goodnews). More than one million salmon return to these waters each year to spawn. Fishing draws many visitors to Togiak, both humans and brown bears. Floaters often run the rivers, fishing along the way for salmon, trout, char, grayling, and pike. The Togiak River flows wide and easily. The Kanektok and Goodnews are faster, more twisted rivers with a greater variety of fish. None of the rivers contain white water. \n<p>The Ahklun Mountains encompass about 80 percent of Togiak National Wildlife Refuge and give way to tundra and coastal plains at lower elevations. The mountains of the Wilderness hide many large lakes. Sea cliffs provide nesting places for approximately one million marine birds, including murres, puffins, auklets, kittiwakes, and cormorants. Beaches provide haul-outs for walrus, sea lions, and harbor seals. Seven species of whales have been identified cruising the coastline during migratory seasons. \n\n<p>You'll find no trails, just millions of mosquitoes in summer, severe winters, few trees, and fewer fellow humans.",
    "i": "rc12838",
    "cs": [
      7
    ],
    "lt": 59.039722,
    "lg": -158.4575,
    "f": 59
  },
  {
    "id": "rc1645",
    "t": "Togiak National Wildlife Refuge",
    "u": "",
    "tx": "Dominated by the Ahklun Mountains in the north and the cold waters of Bristol Bay to the south, Togiak National Wildlife Refuge confronts the traveler with a kaleidoscope of landscapes. The natural forces that have shaped this land range from the violent and powerful to the geologically patient. Earthquakes and volcanoes filled the former role, and their marks can still be found, but it was the gradual advance and retreat of glacial ice that carved many of the physical features of this refuge.\n\n\n\nAnd what a wealth of biological diversity these carved and crumpled lands support! The refuge is home to 48 mammal species, 31 of which are terrestrial and 17 marine. More than 150,000 caribou from two herds, the Nushagak Peninsula and the Mulchatna, make use of refuge lands, which they share with wolves, moose, brown and black bears, wolverines, red foxes, marmots, beavers, and porcupines, among other land mammals. Seals, sea lions, walrus and whales are found at various times of year along the refuge's 600 miles of coastline.\n\n\n\nSome 201 species of birds have been sighted on Togiak Refuge. Threatened species can occasionally be found here, including Steller's and spectacled eiders. Several arctic goose species frequent the refuge, along with murres, peregrine falcons, dowitchers, Lapland longspurs and a rich variety of other seabirds, waterfowl, shorebirds, songbirds and raptors. Refuge staff and volunteers have also documented more than 500 species of plants, demonstrating a high degree of biodiversity for a sub-arctic area.",
    "i": "rc1645",
    "cs": [
      7
    ],
    "lt": 59.03979874,
    "lg": -158.4530029,
    "f": 59
  },
  {
    "id": "rc2557",
    "t": "Alagnak Wild River",
    "u": "",
    "tx": "The headwaters of Alagnak Wild River lie within the rugged Aleutian Range of neighboring Katmai National Park and Preserve. Meandering west towards Bristol Bay and the Bering Sea, the Alagnak traverses the beautiful Alaska Peninsula, providing an unparalleled opportunity to experience the unique wilderness, wildlife, and cultural heritage of southwest Alaska.",
    "i": "rc2557",
    "cs": [
      7
    ],
    "lt": 59.05180188,
    "lg": -156.112002,
    "f": 59
  },
  {
    "id": 331069246,
    "cs": [
      1
    ],
    "a": "HC 60 BOX 2008",
    "l": "HAINES AK 99827",
    "lt": 59.098771,
    "lg": -135.576936,
    "tx": "THE MISSION OF THE TAKSHANUK WATERSHED COUNCIL IS TO PROVIDE STEWARDSHIP OF THE CHILKAT CHILKOOT AND FEREBEE RIVER SYSTEMS",
    "u": "takshanuk.org",
    "t": "TAKSHANUK WATERSHED COUNCIL",
    "f": 59
  },
  {
    "id": 920068956,
    "cs": [
      12
    ],
    "a": "PO BOX 1109",
    "l": "HAINES AK 99827",
    "lt": 59.098771,
    "lg": -135.576936,
    "tx": "THE STATION'S PURPOSE IS TO PROVIDE RADIO COVERAGE TO HAINES, SKAGWAY AND KLUKWAN, ALASKA, WITH NO COMMERCIAL ADVERTISING, FOR THE PUBLIC BENEFIT.",
    "u": "www.khns.org",
    "t": "LYNN CANAL BROADCASTING",
    "f": 59
  },
  {
    "id": "rc233093",
    "t": "ALSEK RIVER CABIN",
    "i": "rc233093",
    "cs": [
      7
    ],
    "lt": 59.199276,
    "lg": -138.451058,
    "f": 59
  },
  {
    "id": "rc87750",
    "t": "Campsite: Y07",
    "lt": 59.2016666667001,
    "lg": -138.451111111,
    "i": "rc87750",
    "cs": [
      7
    ],
    "f": 59
  },
  {
    "id": "rc233091",
    "t": "TANIS MESA NORTH CABIN",
    "i": "rc233091",
    "cs": [
      7
    ],
    "lt": 59.247076,
    "lg": -138.50308,
    "f": 59
  },
  {
    "id": "rc233092",
    "t": "TANIS MESA SOUTH CABIN",
    "i": "rc233092",
    "cs": [
      7
    ],
    "lt": 59.247076,
    "lg": -138.50308,
    "f": 59
  },
  {
    "id": "rc62821",
    "t": "Campsite: Y06N",
    "lt": 59.2483333333001,
    "lg": -138.502777778,
    "i": "rc62821",
    "cs": [
      7
    ],
    "f": 59
  },
  {
    "id": "rc87957",
    "t": "Campsite: Y06S",
    "lt": 59.2483333333001,
    "lg": -138.502777778,
    "i": "rc87957",
    "cs": [
      7
    ],
    "f": 59
  },
  {
    "id": "rc67998",
    "t": "Campsite: Y11",
    "lt": 59.2972222222001,
    "lg": -139.085833333,
    "i": "rc67998",
    "cs": [
      7
    ],
    "f": 59
  },
  {
    "id": "rc233095",
    "t": "ITALIO RIVER CABIN",
    "i": "rc233095",
    "cs": [
      7
    ],
    "lt": 59.318894,
    "lg": -139.154103,
    "f": 59
  },
  {
    "id": "rc233094",
    "t": "MIDDLE DANGEROUS RIVER CABIN",
    "i": "rc233094",
    "cs": [
      7
    ],
    "lt": 59.412902,
    "lg": -139.111458,
    "f": 59
  },
  {
    "id": "rc67841",
    "t": "Campsite: Y09",
    "lt": 59.4133333333,
    "lg": -139.093888889,
    "i": "rc67841",
    "cs": [
      7
    ],
    "f": 59
  },
  {
    "id": "rc258962",
    "t": "Klondike Gold Rush National Historical Park Visitor Center",
    "i": "rc258962",
    "cs": [
      7
    ],
    "lt": 59.453486,
    "lg": -135.318493,
    "f": 59
  },
  {
    "id": "rc274289",
    "t": "The Chilkoot Trail Center",
    "i": "rc274289",
    "cs": [
      7
    ],
    "lt": 59.455467,
    "lg": -135.314728,
    "f": 59
  },
  {
    "id": "465251124",
    "t": "ECO PRESBYTERY OF THE NORTHWEST ALASKA",
    "cs": [
      43,
      42
    ],
    "a": "450 MAIN STREET",
    "l": "SKAGWAY AK 99840",
    "lt": 59.4566,
    "lg": -135.31842,
    "f": 59
  },
  {
    "id": "rc251937",
    "t": "Klondike Gold Rush National Historical Park Tours",
    "i": "rc251937",
    "cs": [
      7
    ],
    "lt": 59.4583333,
    "lg": -135.3138889,
    "f": 59
  },
  {
    "id": "rc65249",
    "t": "Campsite: J13",
    "lt": 59.5013888889,
    "lg": -135.226388889,
    "i": "rc65249",
    "cs": [
      7
    ],
    "f": 59
  },
  {
    "id": "rc232946",
    "t": "DENVER CABOOSE CABIN",
    "i": "rc232946",
    "cs": [
      7
    ],
    "lt": 59.5013889,
    "lg": -135.2263889,
    "f": 59
  },
  {
    "id": "rc258957",
    "t": "Dyea Campground",
    "i": "rc258957",
    "cs": [
      7
    ],
    "lt": 59.50725,
    "lg": -135.350498,
    "f": 59
  },
  {
    "id": 201524956,
    "cs": [
      5,
      7
    ],
    "a": "PO BOX 1566",
    "l": "HOMER AK 99603",
    "lt": 59.538519,
    "lg": -151.186927,
    "tx": "LOCAL AREA GOVERNMENT ADVOCATE RUN AND MAINTAIN LOCAL SCHOOL AND WATER  WASTE WATER TREATMENT FACILITY",
    "u": "n/a",
    "t": "VOZNESENKA COMMUNITY COUNCIL INC",
    "f": 59
  },
  {
    "id": 202580288,
    "cs": [
      6,
      42
    ],
    "a": "PO BOX 959",
    "l": "HOMER AK 99603",
    "lt": 59.538519,
    "lg": -151.186927,
    "tx": "CHRISTIAN MISSIONARY SERVICE AND TRAINING",
    "u": "ywamalaska.com",
    "t": "YWAM - ARCTIC MERCY INC",
    "f": 59
  },
  {
    "id": 462829828,
    "cs": [
      7,
      1
    ],
    "a": "PO Box 698",
    "l": "Homer AK 99603",
    "lt": 59.538519,
    "lg": -151.186927,
    "tx": "The mission of SAH Soccer Inc is to provide quality youth soccer programs where everyone builds positive character through participation in a fun family environment",
    "u": "www.homersoccer.com",
    "t": "SAH SOCCER INC DBA SOCCER ASSOCIATION OF HOMER",
    "f": 59
  },
  {
    "id": 463972889,
    "cs": [
      5
    ],
    "a": "PO BOX 3005",
    "l": "HOMER AK 99603",
    "lt": 59.538519,
    "lg": -151.186927,
    "tx": "OPERATE THE WATER FACILITY FOR THE COMMUNITY",
    "t": "VOZ WATER UTILITY INC",
    "f": 59
  },
  {
    "id": 920072562,
    "cs": [
      42,
      3
    ],
    "a": "3948 Ben Walters Lane",
    "l": "Homer AK 99603",
    "lt": 59.538519,
    "lg": -151.186927,
    "tx": "Mental health counseling, evaluation, consultation and crisis mental health services for adults and children.",
    "u": "http://spbhs.org",
    "t": "SOUTH PENINSULA BEHAVIORAL HEALTH SERVICES INC",
    "f": 59
  },
  {
    "id": 920080286,
    "cs": [
      1,
      3
    ],
    "a": "3776 LAKE STREET",
    "l": "HOMER AK 99603",
    "lt": 59.538519,
    "lg": -151.186927,
    "tx": "SOUTH PENINSULA HAVEN HOUSE SUPPORTS AND EMPOWERS INDIVIDUALS AND FAMILIES IMPACTED BY DOMESTIC VIOLENCE, SEXUAL ASSAULT, AND CHILD ABUSE BY ADVOCATING FOR JUSTICE AND PROVIDING SAFE SHELTER, CRISIS INTERVENTION, PREVENTION, AND VICTIM ADVOCACY.",
    "u": "www.havenhousealaska.org",
    "t": "SOUTH PENINSULA HAVEN HOUSE INC",
    "f": 59
  },
  {
    "id": "rc232938",
    "t": "LAUGHTON GLACIER CABIN",
    "i": "rc232938",
    "cs": [
      7
    ],
    "lt": 59.5447222,
    "lg": -135.0883333,
    "f": 59
  },
  {
    "id": "rc65125",
    "t": "Campsite: J01",
    "lt": 59.5447222222,
    "lg": -135.088333333,
    "i": "rc65125",
    "cs": [
      7
    ],
    "f": 59
  },
  {
    "id": "rc10117784",
    "t": "Yakutat",
    "i": "rc10117784",
    "cs": [
      7
    ],
    "lt": 59.548867,
    "lg": -139.728774,
    "f": 59
  },
  {
    "id": "rc89309",
    "t": "Campsite: Y02S",
    "lt": 59.5541749999999,
    "lg": -139.512716667,
    "i": "rc89309",
    "cs": [
      7
    ],
    "f": 59
  },
  {
    "id": "rc233090",
    "t": "RAVEN CABIN",
    "i": "rc233090",
    "cs": [
      7
    ],
    "lt": 59.554198,
    "lg": -139.512706,
    "f": 59
  },
  {
    "id": "rc87387",
    "t": "Campsite: Y02N",
    "lt": 59.5562638889,
    "lg": -139.512263889,
    "i": "rc87387",
    "cs": [
      7
    ],
    "f": 59
  },
  {
    "id": "rc233089",
    "t": "EAGLE CABIN",
    "i": "rc233089",
    "cs": [
      7
    ],
    "lt": 59.556361,
    "lg": -139.512416,
    "f": 59
  },
  {
    "id": "rc258958",
    "t": "Finnegan's Point",
    "i": "rc258958",
    "cs": [
      7
    ],
    "lt": 59.575423,
    "lg": -135.334877,
    "f": 59
  },
  {
    "id": "rc258959",
    "t": "Canyon City",
    "i": "rc258959",
    "cs": [
      7
    ],
    "lt": 59.607562,
    "lg": -135.324667,
    "f": 59
  },
  {
    "id": "rc2792",
    "t": "Klondike Gold Rush National Historical Park",
    "u": "",
    "tx": "Headlines screamed \"Gold!\" The dream of a better life catapulted thousands of people to Alaska and the Yukon Territory. Their journey shaped them, and changed the people they encountered and the north forever. Today, the park remembers the trails, boomtowns, and stories of the Klondike Gold Rush.",
    "i": "rc2792",
    "cs": [
      7
    ],
    "lt": 59.610424,
    "lg": -135.261853,
    "f": 59
  },
  {
    "id": "rc87114",
    "t": "Campsite: Y01",
    "lt": 59.63,
    "lg": -139.395833333,
    "i": "rc87114",
    "cs": [
      7
    ],
    "f": 59
  },
  {
    "id": "rc3090",
    "t": "Kachemak Bay National Estuarine Research Reserve",
    "u": "",
    "tx": "Kachemak Bay National Estuarine Research Reserve (KBNERR) is located in South Central Alaska, five hours southwest of Anchorage.  At 370 square miles (an area larger than Teton National Park), it is the largest Reserve in the NERR system. The bay, which is flanked by spruce forests, extensive tidal flats, and 15 alpine glaciers, supports an active halibut and salmon sports fishing industry.  The KBNERR office is located within the Islands and Ocean Visitor Center in Homer, population 5,300. KBNERR staff engages in coastal and marine research and year-round education, including public programs and estuary walks. Road access to the bay is limited, and much of the region is only accessible by boat.",
    "i": "rc3090",
    "cs": [
      7
    ],
    "lt": 59.633333,
    "lg": -151.533333,
    "f": 59
  },
  {
    "id": "rc233088",
    "t": "SITUK LAKE CABIN",
    "i": "rc233088",
    "cs": [
      7
    ],
    "lt": 59.637007,
    "lg": -139.381792,
    "f": 59
  },
  {
    "id": "rc258960",
    "t": "Pleasant Camp",
    "i": "rc258960",
    "cs": [
      7
    ],
    "lt": 59.638522,
    "lg": -135.293706,
    "f": 59
  },
  {
    "id": "rc12806",
    "t": "Hazy Islands Wilderness",
    "u": "",
    "tx": "<p><br>The Hazy Islands Wilderness now contains a total of 32 acres and is managed by the Fish & Wildlife Service's <a href=\"http://www.fws.gov/refuge/alaska_maritime/\" rel=\"nofollow\">Alaska Maritime National Wildlife Refuge</a>. All of the Wilderness is in the state of Alaska. In 1970 the Hazy Islands Wilderness became part of the now over 110 million acre National Wilderness Preservation System. \n<p>The former Hazy Islands National Wildlife Refuge, established in 1912, was designated Wilderness in 1970 and incorporated as a subunit into the Alaska Maritime National Wildlife Refuge, Gulf of Alaska Unit, in 1980. Far offshore, beaten by wind and wave, Big Hazy Island and her four smaller sisters stick out of the frigid sea, providing predator-free nesting areas for large populations of common murres, pigeon guillemots, glaucous-winged gulls, horned puffins, and tufted puffins. Brandt's cormorants nest here, one of only two islands they inhabit in Alaska. \n<p>Remote, without anchorages or campsites, beaten by frequent storms under high winds, the rocks called Hazy Islands are seldom seen and human visitation is discouraged to protect the birds and the humans. This is Alaska's smallest Wilderness area.",
    "i": "rc12806",
    "cs": [
      7
    ],
    "lt": 59.641105,
    "lg": -151.540046,
    "f": 59
  },
  {
    "id": "rc12832",
    "t": "Semidi Wilderness",
    "u": "",
    "tx": "<p><br>The Semidi Wilderness now contains a total of 250,000 acres and is managed by the Fish & Wildlife Service's <a href=\"http://www.fws.gov/refuge/alaska_maritime/\" rel=\"nofollow\">Alaska Maritime National Wildlife Refuge</a>. All of the Wilderness is in the state of Alaska. In 1980 the Semidi Wilderness became part of the now over 110 million acre National Wilderness Preservation System. \n<p>Nine major treeless and ragged rock islands, some sided with precipitous cliffs, were combined with many small rocks and islets to form Semidi Islands National Wildlife Refuge in 1932. In 1980 these lands became a subunit of the 715,000-acre Alaska Peninsula Unit of the Alaska Maritime National Wildlife Refuge and a Wilderness area. More than 2.4 million birds, almost half the breeding seabirds of the Alaska Peninsula Unit, nest on the Semidis. Aghiluk Island alone, the largest of the Semidis, is home to more than half a million birds. About 370,000 horned puffins nest in the Semidis along with almost all of the unit's northern fulmars and jaegers, and one million-plus murres. Ancient murrelets and parakeet auklets are among the other species found here. Seabird populations would be even higher, but fox farmers in the 1880s released their animals on some of the larger Semidis, and their descendants consume many eggs and birds annually. \n<p>Semidi Islands Wilderness Area is not great in land mass but includes approximately one-quarter million acres of surrounding seabed, providing at least temporary homes for sea otters, sea lions, seals, porpoises, and whales. Exposed to the stormy Gulf of Alaska, drenched by frequent rains, remote and difficult to reach, lying in poorly charted waters, this region is seen by few humans. The dangerous crossing of an unpredictable stretch of sea is simply too great a risk for most.",
    "i": "rc12832",
    "cs": [
      7
    ],
    "lt": 59.641105,
    "lg": -151.540046,
    "f": 59
  },
  {
    "id": "rc1258",
    "t": "Alaska Maritime National Wildlife Refuge",
    "u": "",
    "tx": "Alaska Maritime National Wildlife Refuge is a place of great distances and greater dramas. Here winds whip through the grasses of rugged, wave-pounded islands; and active volcanoes simmer, venting steam above collars of fog. It is a place of contrasts, where relics of a past war slowly rust in deserted valleys, while, nearby, great forests of kelp team with life. It is, and has long been, a place of refuge, and has seen some of the most dramatic wildlife conservation stories in our nation's history.\n\n\n\nContaining some of the first conservation-unit areas to be established in America, today's Alaska Maritime National Wildlife Refuge includes lands that were formerly parts of ten previously established refuges. Many of these units are still represented among the ten distinct congressionally-designated Wilderness areas included in Alaska Maritime, which range in size from the approximately 1.3 million acre Aleutian Islands Wilderness to the 32 acre Hazy Islands Wilderness. \n\n\t\n\nBecause it is spread out along most of the 47,300 miles of Alaska's coastline, the sheer span of this refuge is difficult to grasp. Its more than 2,500 islands, islets, spires, rocks, reefs, waters and headlands extend from Forrester Island, to the north of Canada's Queen Charlotte Islands deep in the southeast tongue of the state, to the westernmost tip of the Aleutians (and of America!), and north to Cape Lisburne on the Arctic Ocean. Traveling between its farthest-flung points would be the equivalent of taking a trip from Georgia to California.\n\n\n\nNo other maritime National Wildlife Refuge in America is as large or as productive. Alaska Maritime's seashore lands provide nesting habitat for approximately 40 million seabirds, or about 80% of Alaska's nesting seabird population.",
    "i": "rc1258",
    "cs": [
      7
    ],
    "lt": 59.641174,
    "lg": -151.53992,
    "f": 59
  },
  {
    "id": "rc12784",
    "t": "Aleutian Islands Wilderness",
    "u": "",
    "tx": "The United States Congress designated the Aleutian Islands Wilderness in 1980 and it now has a total of 1,300,000 acres. All of this wilderness is located in Alaska and is managed by the Fish and Wildlife Service. Stretching 1,100 miles south and west from the Alaska Peninsula, the Aleutian Islands were set aside by executive order in 1913 as the Aleutian Islands Reservation and in 1940 became the Aleutian Islands National Wildlife Refuge. In 1980, the refuge was re-established as the Aleutian Islands Unit of the 4.8 million acre Alaska Maritime National Wildlife Refuge. The Aleutian Islands consist of more than 200 islands which are actually the peaks of 57 submarine volcanoes (27 of which are considered active) rising from near sea level to more than 9,000 feet. In the Aleutians you'll find the foggiest, rainiest, windiest weather in the United States. Sea kayaking is popular but often dangerous due to violent storms and magnificently rocky shorelines. Many of the larger islands offer open country for backpacking including Attu, Agattu, Kiska, Semisopochnoi, Tanaga, Kanaga, Adak, Kagalaska, Great Sitkin, Atka, Amlia, and Seguam. Visiting the islands, for the persistent, may well rate among the wilderness experiences of a lifetime.",
    "i": "rc12784",
    "cs": [
      7
    ],
    "lt": 59.641174,
    "lg": -151.53992,
    "f": 59
  },
  {
    "id": "920176578",
    "t": "HOMER INDEPENDENT BAPTIST CHURCH",
    "cs": [
      43,
      42
    ],
    "a": "3614 FOREST GLEN DR",
    "l": "HOMER AK 99603",
    "lt": 59.64239,
    "lg": -151.564071,
    "f": 59
  },
  {
    "id": "920074529",
    "t": "FAITH LUTHERAN CHURCH",
    "cs": [
      43,
      42
    ],
    "a": "1000 SOUNDVIEW AVE",
    "l": "HOMER AK 99603",
    "lt": 59.64317,
    "lg": -151.572101,
    "f": 59
  },
  {
    "id": "760706813",
    "t": "REFUGE CHAPEL OF HOMER",
    "cs": [
      43,
      42
    ],
    "a": "397 E PIONEER AV STE 2",
    "l": "HOMER AK 99603",
    "lt": 59.64654,
    "lg": -151.535301,
    "f": 59
  },
  {
    "id": "920156728",
    "t": "BAHAIS OF HOMER",
    "cs": [
      43,
      42
    ],
    "a": "1318 IRIS CT",
    "l": "HOMER AK 99603",
    "lt": 59.64745,
    "lg": -151.509841,
    "f": 59
  },
  {
    "id": "472768261",
    "t": "REGENT LIFE CHURCH",
    "cs": [
      43,
      42
    ],
    "a": "996 HILLFAIR CT",
    "l": "HOMER AK 99603",
    "lt": 59.6478,
    "lg": -151.518001,
    "f": 59
  },
  {
    "id": "920101107",
    "t": "GLACIERVIEW BAPTIST CHURCH",
    "cs": [
      43,
      42
    ],
    "a": "960 E END RD",
    "l": "HOMER AK 99603",
    "lt": 59.65111,
    "lg": -151.519171,
    "f": 59
  },
  {
    "id": "rc258961",
    "t": "Sheep Camp",
    "i": "rc258961",
    "cs": [
      7
    ],
    "lt": 59.659071,
    "lg": -135.267859,
    "f": 59
  },
  {
    "id": "926004559",
    "t": "ALASKA VILLAGE MISSIONS",
    "cs": [
      43,
      42
    ],
    "a": "1295 MISSION RD",
    "l": "HOMER AK 99603",
    "lt": 59.66486,
    "lg": -151.507670999999,
    "f": 59
  },
  {
    "id": "rc232974",
    "t": "SAN JUAN BAY CABIN",
    "i": "rc232974",
    "cs": [
      7
    ],
    "lt": 59.8022222,
    "lg": -147.8863889,
    "f": 59
  },
  {
    "id": "rc66059",
    "t": "Campsite: C10",
    "lt": 59.8022222222,
    "lg": -147.886388889,
    "i": "rc66059",
    "cs": [
      7
    ],
    "f": 59
  },
  {
    "id": "rc2787",
    "t": "Kenai Fjords National Park",
    "u": "",
    "tx": "At the edge of the Kenai Peninsula lies a land where the ice age lingers. Nearly 40 glaciers flow from the Harding Icefield, Kenai Fjords' crowning feature. Wildlife thrives in icy waters and lush forests around this vast expanse of ice. Sugpiaq people relied on these resources to nurture a life entwined with the sea. Today, shrinking glaciers bear witness to the effects of our changing climate.",
    "i": "rc2787",
    "cs": [
      7
    ],
    "lt": 59.81804414,
    "lg": -150.106502,
    "f": 59
  },
  {
    "id": "rc98217",
    "t": "Campsite: HOLGATE CABIN",
    "lt": 59.833768123,
    "lg": -149.769612524,
    "i": "rc98217",
    "cs": [
      7
    ],
    "f": 59
  },
  {
    "id": "rc67466",
    "t": "Campsite: C09",
    "lt": 59.8788888889001,
    "lg": -147.455,
    "i": "rc67466",
    "cs": [
      7
    ],
    "f": 59
  },
  {
    "id": "rc232973",
    "t": "LOG JAM BAY CABIN",
    "i": "rc232973",
    "cs": [
      7
    ],
    "lt": 59.8788889,
    "lg": -147.455,
    "f": 59
  },
  {
    "id": "rc10075404",
    "t": "Campsite: Esker Stream Cabin",
    "lt": 59.8797541320001,
    "lg": -139.774634194,
    "i": "rc10075404",
    "cs": [
      7
    ],
    "f": 59
  },
  {
    "id": "rc251861",
    "t": "Kenai Fjords National Park Cabins",
    "i": "rc251861",
    "cs": [
      7
    ],
    "lt": 59.8868417,
    "lg": -149.656225,
    "f": 59
  },
  {
    "id": "rc98215",
    "t": "Campsite: AIALIK BAY CABIN",
    "lt": 59.8869122340001,
    "lg": -149.656165615,
    "i": "rc98215",
    "cs": [
      7
    ],
    "f": 59
  },
  {
    "id": 510152554,
    "cs": [
      7,
      5
    ],
    "a": "37138 RIDGE ST",
    "l": "ANCHOR POINT AK 99556",
    "lt": 59.899955,
    "lg": -151.570388,
    "tx": "HOMER COUNCIL ON THE ARTS ENVISIONS A FUTURE IN WHICH OUR COMMUNITY MAINTAINS ITS IDENTITY AS ONE OF ALASKAS ART CENTERS HCOA SUPPORTS A DIVERSE MIX OF ARTISTIC EXPRESSION ENSURING THAT ART REMAINS THE CORE OF THE HOMER EXPERIENCE",
    "u": "homerart.org",
    "t": "HOMER COUNCIL ON THE ARTS",
    "f": 59
  },
  {
    "id": 920145884,
    "cs": [
      5
    ],
    "a": "PO BOX 193",
    "l": "ANCHOR POINT AK 99556",
    "lt": 59.899955,
    "lg": -151.570388,
    "tx": "OPERATED WATER UTILITY FOR THE COMMUNITY OF ANCHOR POINT ALASKA",
    "t": "ANCHOR POINT SAFE WATER CORP",
    "f": 59
  },
  {
    "id": "rc62984",
    "t": "Campsite: C12",
    "lt": 59.9141666667001,
    "lg": -147.5,
    "i": "rc62984",
    "cs": [
      7
    ],
    "f": 59
  },
  {
    "id": "rc232976",
    "t": "NELLIE MARTIN RIVER CABIN",
    "i": "rc232976",
    "cs": [
      7
    ],
    "lt": 59.9141667,
    "lg": -147.5,
    "f": 59
  }
]