[
    {
        "i": "gs24",
        "n": "Twitter: http://twitter.com/girlscoutcsaGirl Scouts of Hawai`i",
        "l": "Honolulu Hawaii 96814-4729 96814",
        "p": "8085958400",
        "lt": "21.293143",
        "lg": "-157.848767",
        "u": "http://www.gsewni.org",
        "cs": [
            7
        ]
    },
    {
        "i": "gs97",
        "n": "Girl Scouts of Greater South Texas",
        "l": "Harlingen Texas 78550-4904 78550",
        "p": "9564252388",
        "lt": "26.255523",
        "lg": "-97.667502",
        "u": "http://www.gsgst.org",
        "cs": [
            7
        ]
    },
    {
        "i": "gs20",
        "n": "Girl Scouts of Southeast Florida, Inc.",
        "l": "Girl Scouts of Southeast Florida Inc. Inc.",
        "p": "5614270177",
        "lt": "26.936558",
        "lg": "-80.131851",
        "u": "http://www.gssef.org",
        "cs": [
            7
        ]
    },
    {
        "i": "gs17",
        "n": "Girl Scouts of Citrus Council, Inc.",
        "l": "Girl Scouts of Citrus Council Inc. Inc.",
        "p": "4078964475",
        "lt": "28.555829",
        "lg": "-81.346291",
        "u": "http://www.citrus-gs.org",
        "cs": [
            7
        ]
    },
    {
        "i": "gs100",
        "n": "Girl Scouts of Southwest Texas",
        "l": "San Antonio Texas 78216-2812 78216",
        "p": "2103492404",
        "lt": "29.537264",
        "lg": "-98.487882",
        "u": "http://www.girlscouts-swtx.org",
        "cs": [
            7
        ]
    },
    {
        "i": "gs99",
        "n": "Girl Scouts of San Jacinto Council",
        "l": "Houston Texas 77098-4508 77098",
        "p": "7132920300",
        "lt": "29.734813",
        "lg": "-95.416098",
        "u": "http://www.gssjc.org",
        "cs": [
            7
        ]
    },
    {
        "i": "gs46",
        "n": "Girl Scouts of Louisiana-Pines to the Gulf",
        "l": "Lafayette Louisiana 70508-6140 70508",
        "p": "3379841142",
        "lt": "30.155238",
        "lg": "-92.028225",
        "u": "http://www.gslpg.org/",
        "cs": [
            7
        ]
    },
    {
        "i": "gs18",
        "n": "Girl Scouts of Gateway Council, Inc.",
        "l": "Girl Scouts of Gateway Council Inc. Inc.",
        "p": "9043884653",
        "lt": "30.298806",
        "lg": "-81.72124",
        "u": "http://www.girlscouts-gateway.org",
        "cs": [
            7
        ]
    },
    {
        "i": "gs3",
        "n": "Girl Scouts of Southern Alabama",
        "l": "Mobile Alabama 36608-1522 36608",
        "p": "2513443330",
        "lt": "30.681503",
        "lg": "-88.300213",
        "u": "http://www.girlscoutssa.org",
        "cs": [
            7
        ]
    },
    {
        "i": "gs71",
        "n": "Girl Scouts of the Desert Southwest - Southern New Mexico & West Texas",
        "l": "El Paso Texas 79924-3828 79924",
        "p": "9155669433",
        "lt": "31.902442",
        "lg": "-106.413245",
        "u": "http://www.gsdsw.org",
        "cs": [
            7
        ]
    },
    {
        "i": "gs96",
        "n": "Girl Scouts of the Desert Southwest - Southern New Mexico & West Texas",
        "l": "El Paso Texas 79924-3828 79924",
        "p": "9155669433",
        "lt": "31.902442",
        "lg": "-106.413245",
        "u": "http://www.gsdsw.org",
        "cs": [
            7
        ]
    },
    {
        "i": "gs5",
        "n": "Girl Scouts of Southern Arizona",
        "l": "Tucson Arizona 85711-3506 85711",
        "p": "5203272288",
        "lt": "32.215235",
        "lg": "-110.883394",
        "u": "http://www.girlscoutssoaz.org",
        "cs": [
            7
        ]
    },
    {
        "i": "gs59",
        "n": "Girl Scouts of Greater Mississippi",
        "l": "Jackson Mississippi 39213-7842 39213",
        "p": "6013660607",
        "lt": "32.392757",
        "lg": "-90.23659",
        "u": "http://www.gsgms.org",
        "cs": [
            7
        ]
    },
    {
        "i": "gs101",
        "n": "Girl Scouts of Texas Oklahoma Plains",
        "l": "Fort Worth Texas 76109-4499 76109",
        "p": "8177377272",
        "lt": "32.70065",
        "lg": "-97.386965",
        "u": "http://www.gs-top.org",
        "cs": [
            7
        ]
    },
    {
        "i": "gs85",
        "n": "Girl Scouts of Texas Oklahoma Plains",
        "l": "Fort Worth Texas 76109-4499 76109",
        "p": "8177377272",
        "lt": "32.70065",
        "lg": "-97.386965",
        "u": "http://www.gs-top.org",
        "cs": [
            7
        ]
    },
    {
        "i": "gs10",
        "n": "Girl Scouts of Orange County",
        "l": "Irvine California 92618 rnia",
        "p": "9494618800",
        "u": "http://www.girlscoutsoc.org",
        "lt": "32.747415",
        "lg": "-117.166883",
        "cs": [
            7
        ]
    },
    {
        "i": "gs1",
        "n": "Girl Scouts of Historic Georgia",
        "l": "Lizella Georgia 31052-1710 31052",
        "p": "4789352221",
        "lt": "32.789015",
        "lg": "-83.840075",
        "u": "http://www.gshg.org",
        "cs": [
            7
        ]
    },
    {
        "i": "gs23",
        "n": "Girl Scouts of Historic Georgia",
        "l": "Lizella Georgia 31052-1710 31052",
        "p": "4789352221",
        "lt": "32.789015",
        "lg": "-83.840075",
        "u": "http://www.gshg.org",
        "cs": [
            7
        ]
    },
    {
        "i": "gs91",
        "n": "Girl Scouts of Historic Georgia",
        "l": "Lizella Georgia 31052-1710 31052",
        "p": "4789352221",
        "lt": "32.789015",
        "lg": "-83.840075",
        "u": "http://www.gshg.org",
        "cs": [
            7
        ]
    },
    {
        "i": "gs90",
        "n": "Girl Scouts of Eastern South Carolina",
        "l": "North Charleston South Carolina 29418-2912 29418",
        "p": "8435529910",
        "lt": "32.909523",
        "lg": "-80.094219",
        "u": "http://www.girlscoutsesc.org",
        "cs": [
            7
        ]
    },
    {
        "i": "gs2",
        "n": "Girl Scouts of North-Central Alabama",
        "l": "Birmingham Alabama 35242-8008 35242",
        "p": "2059804750",
        "lt": "33.425247",
        "lg": "-86.672084",
        "u": "http://girlscoutsnca.org",
        "cs": [
            7
        ]
    },
    {
        "i": "gs8",
        "n": "Girl Scouts of Greater Los Angeles",
        "l": "Los Angeles California 90017-4621 90017",
        "p": "2132130150",
        "lt": "34.052913",
        "lg": "-118.26434",
        "u": "http://www.girlscoutsla.org",
        "cs": [
            7
        ]
    },
    {
        "i": "gs11",
        "n": "Girl Scouts of San Gorgonio Council",
        "l": "Redlands California 92374-4533 92374",
        "p": "9093076555",
        "lt": "34.067146",
        "lg": "-117.171885",
        "u": "http://www.gssgc.org",
        "cs": [
            7
        ]
    },
    {
        "i": "gs6",
        "n": "Girl Scouts of California's Central Coast",
        "l": "Ventura California 93003-6220 93003",
        "p": "8056588210",
        "lt": "34.283668",
        "lg": "-119.223196",
        "u": "http://www.girlscoutsccc.org",
        "cs": [
            7
        ]
    },
    {
        "i": "gs94",
        "n": "Girl Scouts of Middle Tennessee, Inc.",
        "l": "Girl Scouts of Middle Tennessee Inc. Inc.",
        "p": "6153830490",
        "lt": "36.106735",
        "lg": "-86.774283",
        "u": "http://gsmidtn.org",
        "cs": [
            7
        ]
    },
    {
        "i": "gs83",
        "n": "Girl Scouts of Eastern Oklahoma",
        "l": "Tulsa Oklahoma 74134-7001 74134",
        "p": "9187492551",
        "lt": "36.109821",
        "lg": "-95.798024",
        "u": "http://www.gseok.org",
        "cs": [
            7
        ]
    },
    {
        "i": "gs13",
        "n": "Girl Scouts of Southern Nevada, Inc.",
        "l": "Girl Scouts of Southern Nevada Inc. Inc.",
        "p": "7023853677",
        "lt": "36.172547",
        "lg": "-115.122234",
        "u": "http://www.girlscoutsnv.org",
        "cs": [
            7
        ]
    },
    {
        "i": "gs66",
        "n": "Girl Scouts of Southern Nevada, Inc.",
        "l": "Girl Scouts of Southern Nevada Inc. Inc.",
        "p": "7023853677",
        "lt": "36.172547",
        "lg": "-115.122234",
        "u": "http://www.girlscoutsnv.org",
        "cs": [
            7
        ]
    },
    {
        "i": "gs7",
        "n": "Girl Scouts of Central California South",
        "l": "Fresno California 93711-3604 93711",
        "p": "5592915078",
        "lt": "36.834289",
        "lg": "-119.83335",
        "u": "http://www.girlscoutsccs.org",
        "cs": [
            7
        ]
    },
    {
        "i": "gs41",
        "n": "Girl Scouts of the Missouri Heartland",
        "l": "Springfield Missouri 65802-6100 65802",
        "p": "4178620004",
        "lt": "37.20745",
        "lg": "-93.354612",
        "u": "http://www.girlscoutsmoheartland.org",
        "cs": [
            7
        ]
    },
    {
        "i": "gs61",
        "n": "Girl Scouts of the Missouri Heartland",
        "l": "Springfield Missouri 65802-6100 65802",
        "p": "4178620004",
        "lt": "37.20745",
        "lg": "-93.354612",
        "u": "http://www.girlscoutsmoheartland.org",
        "cs": [
            7
        ]
    },
    {
        "i": "gs84",
        "n": "Girl Scouts of the Missouri Heartland",
        "l": "Springfield Missouri 65802-6100 65802",
        "p": "4178620004",
        "lt": "37.20745",
        "lg": "-93.354612",
        "u": "http://www.girlscoutsmoheartland.org",
        "cs": [
            7
        ]
    },
    {
        "i": "gs106",
        "n": "Girl Scouts of Virginia Skyline Council, Inc",
        "l": "Girl Scouts of Virginia Skyline Council Inc Inc",
        "p": "5407775100",
        "lt": "37.346523",
        "lg": "-79.95358",
        "u": "http://www.gsvsc.org",
        "cs": [
            7
        ]
    },
    {
        "i": "gs40",
        "n": "Girl Scouts of Kansas Heartland",
        "l": "Wichita Kansas 67218-1700 67218",
        "p": "3166846531",
        "lt": "37.668511",
        "lg": "-97.280418",
        "u": "http://www.kansasgirlscouts.org",
        "cs": [
            7
        ]
    },
    {
        "i": "gs9",
        "n": "Girl Scouts of Northern California",
        "l": "Alameda California 94502-3013 94502",
        "p": "5105628470",
        "lt": "37.737572",
        "lg": "-122.245507",
        "u": "http://www.gsnorcal.org/",
        "cs": [
            7
        ]
    },
    {
        "i": "gs34",
        "n": "Girl Scouts of Southwest Indiana, Inc.",
        "l": "Girl Scouts of Southwest Indiana Inc. Inc.",
        "p": "8124214970",
        "lt": "37.974624",
        "lg": "-87.573265",
        "u": "http://www.girlscouts-gssi.org",
        "cs": [
            7
        ]
    },
    {
        "i": "gs44",
        "n": "Girl Scouts of Kentucky's Wilderness Road Council, Inc.",
        "l": "Girl Scouts of Kentucky's Wilderness Road Council Inc. Inc.",
        "p": "8592932621",
        "lt": "38.060653",
        "lg": "-84.457238",
        "u": "http://www.gskentucky.org",
        "cs": [
            7
        ]
    },
    {
        "i": "gs79",
        "n": "Girl Scouts of Kentucky's Wilderness Road Council, Inc.",
        "l": "Girl Scouts of Kentucky's Wilderness Road Council Inc. Inc.",
        "p": "8592932621",
        "lt": "38.060653",
        "lg": "-84.457238",
        "u": "http://www.gskentucky.org",
        "cs": [
            7
        ]
    },
    {
        "i": "gs29",
        "n": "Girl Scouts of Southern Illinois",
        "l": "Glen Carbon Illinois 62034-3537 62034",
        "p": "6186920692",
        "lt": "38.754871",
        "lg": "-89.972284",
        "u": "http://www.gsofsi.org/",
        "cs": [
            7
        ]
    },
    {
        "i": "gs109",
        "n": "Girl Scouts of Black Diamond Council, Inc",
        "l": "Girl Scouts of Black Diamond Council Inc Inc",
        "p": "3043457722",
        "u": "http://www.bdgsc.org",
        "lt": "38.936238",
        "lg": "-77.059981",
        "cs": [
            7
        ]
    },
    {
        "i": "gs35",
        "n": "Girl Scouts of Western Ohio",
        "l": "Cincinnati Ohio 45242-1804 45242",
        "p": "5134891025",
        "lt": "39.242803",
        "lg": "-84.352996",
        "u": "http://www.gswo.org/",
        "cs": [
            7
        ]
    },
    {
        "i": "gs45",
        "n": "Girl Scouts of Western Ohio",
        "l": "Cincinnati Ohio 45242-1804 45242",
        "p": "5134891025",
        "lt": "39.242803",
        "lg": "-84.352996",
        "u": "http://www.gswo.org/",
        "cs": [
            7
        ]
    },
    {
        "i": "gs82",
        "n": "Girl Scouts of Western Ohio",
        "l": "Cincinnati Ohio 45242-1804 45242",
        "p": "5134891025",
        "lt": "39.242803",
        "lg": "-84.352996",
        "u": "http://www.gswo.org/",
        "cs": [
            7
        ]
    },
    {
        "i": "gs49",
        "n": "Girl Scouts of Central Maryland, Inc",
        "l": "Girl Scouts of Central Maryland Inc Inc",
        "p": "4103589711",
        "lt": "39.345241",
        "lg": "-76.683566",
        "u": "http://www.gscm.org",
        "cs": [
            7
        ]
    },
    {
        "i": "gs12",
        "n": "Girl Scouts of the Sierra Nevada",
        "l": "Reno Nevada 89503-4328 89503",
        "p": "7753220642",
        "lt": "39.54104",
        "lg": "-119.840126",
        "u": "http://www.gssn.org",
        "cs": [
            7
        ]
    },
    {
        "i": "gs65",
        "n": "Girl Scouts of the Sierra Nevada",
        "l": "Reno Nevada 89503-4328 89503",
        "p": "7753220642",
        "lt": "39.54104",
        "lg": "-119.840126",
        "u": "http://www.gssn.org",
        "cs": [
            7
        ]
    },
    {
        "i": "gs105",
        "n": "Girl Scouts of the Chesapeake Bay Council, Inc.",
        "l": "Girl Scouts of the Chesapeake Bay Council Inc. Inc.",
        "p": "3024567150",
        "lt": "39.6182",
        "lg": "-75.729724",
        "u": "http://www.gscb.org",
        "cs": [
            7
        ]
    },
    {
        "i": "gs16",
        "n": "Girl Scouts of the Chesapeake Bay Council, Inc.",
        "l": "Girl Scouts of the Chesapeake Bay Council Inc. Inc.",
        "p": "3024567150",
        "lt": "39.6182",
        "lg": "-75.729724",
        "u": "http://www.gscb.org",
        "cs": [
            7
        ]
    },
    {
        "i": "gs50",
        "n": "Girl Scouts of the Chesapeake Bay Council, Inc.",
        "l": "Girl Scouts of the Chesapeake Bay Council Inc. Inc.",
        "p": "3024567150",
        "lt": "39.6182",
        "lg": "-75.729724",
        "u": "http://www.gscb.org",
        "cs": [
            7
        ]
    },
    {
        "i": "gs14",
        "n": "Girl Scouts of Colorado",
        "l": "Denver Colorado 80209-0407 80209",
        "p": "3037788774",
        "lt": "39.706581",
        "lg": "-104.96575",
        "u": "http://www.girlscoutsofcolorado.org",
        "cs": [
            7
        ]
    },
    {
        "i": "gs25",
        "n": "Girl Scouts of Central Illinois",
        "l": "Springfield Illinois 62703-5918 62703",
        "p": "2175238159",
        "lt": "39.762432",
        "lg": "-89.629838",
        "u": "http://www.getyourgirlpower.org",
        "cs": [
            7
        ]
    },
    {
        "i": "gs68",
        "n": "Girl Scouts of Central & Southern New Jersey",
        "l": "Cherry Hill New Jersey 08034-2621 08034",
        "p": "8567951560",
        "lt": "39.9061",
        "lg": "-75.000375",
        "u": "http://www.gscsnj.org",
        "cs": [
            7
        ]
    },
    {
        "i": "gs87",
        "n": "Girl Scouts of Eastern Pennsylvania",
        "l": "Miquon Pennsylvania 19444-1741 19444",
        "p": "2155644657",
        "lt": "40.087755",
        "lg": "-75.253168",
        "u": "http://www.gsep.org",
        "cs": [
            7
        ]
    },
    {
        "i": "gs69",
        "n": "Girl Scouts of the Jersey Shore, Inc.",
        "l": "Girl Scouts of the Jersey Shore Inc. Inc.",
        "p": "7329385454",
        "lt": "40.204403",
        "lg": "-74.149231",
        "u": "http://www.jerseyshoregirlscouts.org",
        "cs": [
            7
        ]
    },
    {
        "i": "gs88",
        "n": "Girl Scouts of NYPENN Pathways, Inc.",
        "l": "Girl Scouts of NYPENN Pathways Inc. Inc.",
        "p": "3156989400",
        "u": "http://www.gsnypenn.org",
        "lt": "40.456939",
        "lg": "-79.990054",
        "cs": [
            7
        ]
    },
    {
        "i": "gs102",
        "n": "Girl Scouts of Utah",
        "l": "Murray Utah 84107-3101 84107",
        "p": "8012658472",
        "lt": "40.658025",
        "lg": "-111.88445",
        "u": "http://www.gsutah.org",
        "cs": [
            7
        ]
    },
    {
        "i": "gs72",
        "n": "Girl Scouts of New Mexico Trails",
        "l": "Albuquerque New Mexico 87109 xico",
        "p": "5053431040",
        "u": "http://www.nmgirlscouts.org",
        "lt": "40.706027",
        "lg": "-74.008835",
        "cs": [
            7
        ]
    },
    {
        "i": "gs76",
        "n": "Girl Scouts of Suffolk County, Inc",
        "l": "Girl Scouts of Suffolk County Inc Inc",
        "p": "6315436622",
        "lt": "40.840492",
        "lg": "-73.280815",
        "u": "http://www.gssc.us",
        "cs": [
            7
        ]
    },
    {
        "i": "gs77",
        "n": "Girl Scouts of Western New York",
        "p": "7168376400",
        "lt": "40.840492",
        "lg": "-73.280815",
        "u": "http://www.gswny.org",
        "l": "Girl Scouts Carolinas Peaks to Piedmont Inc. Inc.",
        "cs": [
            7
        ]
    },
    {
        "i": "gs70",
        "n": "Girl Scouts of Northern New Jersey",
        "l": "Riverdale New Jersey 07457-1426 07457",
        "p": "9732488200",
        "lt": "40.995995",
        "lg": "-74.315124",
        "u": "http://www.gsnnj.org",
        "cs": [
            7
        ]
    },
    {
        "i": "gs80",
        "n": "Girl Scouts of North East Ohio",
        "l": "Macedonia Ohio 44056-2156 44056",
        "p": "3308649933",
        "lt": "41.314919",
        "lg": "-81.501633",
        "u": "http://www.gsneo.org",
        "cs": [
            7
        ]
    },
    {
        "i": "gs26",
        "n": "Girl Scouts of Eastern Iowa and Western Illinois, Inc.",
        "l": "Girl Scouts of Eastern Iowa and Western Illinois Inc. Inc.",
        "p": "3097880833",
        "lt": "41.5743",
        "lg": "-90.471526",
        "u": "http://www.girlscoutstoday.org",
        "cs": [
            7
        ]
    },
    {
        "i": "gs36",
        "n": "Girl Scouts of Eastern Iowa and Western Illinois, Inc.",
        "l": "Girl Scouts of Eastern Iowa and Western Illinois Inc. Inc.",
        "p": "3097880833",
        "lt": "41.5743",
        "lg": "-90.471526",
        "u": "http://www.girlscoutstoday.org",
        "cs": [
            7
        ]
    },
    {
        "i": "gs37",
        "n": "Girl Scouts of Greater Iowa",
        "l": "Des Moines Iowa 50322-3733 50322",
        "p": "5152782881",
        "lt": "41.634164",
        "lg": "-93.73436",
        "u": "http://www.girlscoutsiowa.org",
        "cs": [
            7
        ]
    },
    {
        "i": "gs64",
        "n": "Girl Scouts of Greater Iowa",
        "l": "Des Moines Iowa 50322-3733 50322",
        "p": "5152782881",
        "lt": "41.634164",
        "lg": "-93.73436",
        "u": "http://www.girlscoutsiowa.org",
        "cs": [
            7
        ]
    },
    {
        "i": "gs53",
        "n": "Girl Scouts of Southeastern New England, Inc.",
        "l": "Girl Scouts of Southeastern New England Inc. Inc.",
        "p": "4013314500",
        "lt": "41.703849",
        "lg": "-71.455568",
        "u": "http://www.gssne.org",
        "cs": [
            7
        ]
    },
    {
        "i": "gs89",
        "n": "Girl Scouts of Southeastern New England, Inc.",
        "l": "Girl Scouts of Southeastern New England Inc. Inc.",
        "p": "4013314500",
        "lt": "41.703849",
        "lg": "-71.455568",
        "u": "http://www.gssne.org",
        "cs": [
            7
        ]
    },
    {
        "i": "gs51",
        "n": "Girl Scouts of Central and Western Massachusetts",
        "l": "Holyoke Massachusetts 01040-9685 01040",
        "p": "4135842602",
        "lt": "42.211656",
        "lg": "-72.642448",
        "u": "http://www.gscwm.org",
        "cs": [
            7
        ]
    },
    {
        "i": "gs52",
        "n": "Girl Scouts of Eastern Massachusetts",
        "l": "Boston Massachusetts 02116-4018 02116",
        "p": "6174821078",
        "lt": "42.350579",
        "lg": "-71.076397",
        "u": "http://www.gsema.org",
        "cs": [
            7
        ]
    },
    {
        "i": "gs57",
        "n": "Girl Scouts of Southeastern Michigan",
        "l": "Detroit Michigan 48202-3012 48202",
        "p": "3139724475",
        "lt": "42.374786",
        "lg": "-83.077718",
        "u": "http://www.gssem.org",
        "cs": [
            7
        ]
    },
    {
        "i": "gs74",
        "n": "Girl Scouts of Northeastern New York, Inc.",
        "l": "Girl Scouts of Northeastern New York Inc. Inc.",
        "p": "5184898110",
        "lt": "42.718785",
        "lg": "-73.82924",
        "u": "http://www.gsneny.org",
        "cs": [
            7
        ]
    },
    {
        "i": "gs103",
        "n": "Girl Scouts of the Green and White Mountains",
        "l": "Bedford New Hampshire 03110-0832 03110",
        "p": "6036274158",
        "lt": "42.935584",
        "lg": "-71.536871",
        "u": "http://www.girlscoutsgwm.org",
        "cs": [
            7
        ]
    },
    {
        "i": "gs67",
        "n": "Girl Scouts of the Green and White Mountains",
        "l": "Bedford New Hampshire 03110-0832 03110",
        "p": "6036274158",
        "lt": "42.935584",
        "lg": "-71.536871",
        "u": "http://www.girlscoutsgwm.org",
        "cs": [
            7
        ]
    },
    {
        "i": "gs114",
        "n": "Girl Scouts of Wisconsin Southeast",
        "l": "Milwaukee Wisconsin 53214-0999 53214",
        "p": "4144761050",
        "lt": "43.020327",
        "lg": "-88.012871",
        "u": "http://www.gswise.org",
        "cs": [
            7
        ]
    },
    {
        "i": "gs113",
        "n": "Girl Scouts of Wisconsin - Badgerland Council, Inc.",
        "l": "Girl Scouts of Wisconsin - Badgerland Council Inc. Inc.",
        "p": "6082768500",
        "lt": "43.036054",
        "lg": "-89.386887",
        "u": "http://www.gsbadgerland.org",
        "cs": [
            7
        ]
    },
    {
        "i": "gs39",
        "n": "Girl Scouts of Wisconsin - Badgerland Council, Inc.",
        "l": "Girl Scouts of Wisconsin - Badgerland Council Inc. Inc.",
        "p": "6082768500",
        "lt": "43.036054",
        "lg": "-89.386887",
        "u": "http://www.gsbadgerland.org",
        "cs": [
            7
        ]
    },
    {
        "i": "gs54",
        "n": "Girl Scouts of Michigan Shore to Shore",
        "l": "Grand Rapids Michigan 49544-9775 49544",
        "p": "6167843341",
        "lt": "43.038932",
        "lg": "-85.74657",
        "u": "http://www.gsmists.org",
        "cs": [
            7
        ]
    },
    {
        "i": "gs86",
        "n": "Girl Scouts of Oregon and Southwest Washington, Inc.",
        "l": "Girl Scouts of Oregon and Southwest Washington Inc. Inc.",
        "p": "5039776800",
        "u": "http://www.girlscoutsosw.org",
        "lt": "43.627161",
        "lg": "-116.287653",
        "cs": [
            7
        ]
    },
    {
        "i": "gs47",
        "n": "Girl Scouts of Maine, Inc.",
        "l": "Girl Scouts of Maine Inc. Inc.",
        "p": "2077721177",
        "lt": "43.631402",
        "lg": "-70.285989",
        "u": "http://www.girlscoutsofmaine.org",
        "cs": [
            7
        ]
    },
    {
        "i": "gs110",
        "n": "Girl Scouts of Manitou Council, Inc",
        "l": "Girl Scouts of Manitou Council Inc Inc",
        "p": "9205654575",
        "lt": "43.815995",
        "lg": "-87.764488",
        "u": "http://www.gsmanitou.org",
        "cs": [
            7
        ]
    },
    {
        "i": "gs112",
        "n": "Girl Scouts of the Northwestern Great Lakes",
        "l": "Appleton Wisconsin 54913-9614 54913",
        "p": "9204694860",
        "lt": "44.335996",
        "lg": "-88.39997",
        "u": "http://www.gsnwgl.org",
        "cs": [
            7
        ]
    },
    {
        "i": "gs56",
        "n": "Girl Scouts of the Northwestern Great Lakes",
        "l": "Appleton Wisconsin 54913-9614 54913",
        "p": "9204694860",
        "lt": "44.335996",
        "lg": "-88.39997",
        "u": "http://www.gsnwgl.org",
        "cs": [
            7
        ]
    },
    {
        "i": "gs111",
        "n": "Girl Scouts of Minnesota and Wisconsin River Valleys",
        "l": "St. Paul Minnesota 55107-2214 55107",
        "p": "6512278835",
        "lt": "44.93107",
        "lg": "-93.079172",
        "u": "http://www.girlscoutsrv.org",
        "cs": [
            7
        ]
    },
    {
        "i": "gs38",
        "n": "Girl Scouts of Minnesota and Wisconsin River Valleys",
        "l": "St. Paul Minnesota 55107-2214 55107",
        "p": "6512278835",
        "lt": "44.93107",
        "lg": "-93.079172",
        "u": "http://www.girlscoutsrv.org",
        "cs": [
            7
        ]
    },
    {
        "i": "gs58",
        "n": "Girl Scouts of Minnesota and Wisconsin River Valleys",
        "l": "St. Paul Minnesota 55107-2214 55107",
        "p": "6512278835",
        "lt": "44.93107",
        "lg": "-93.079172",
        "u": "http://www.girlscoutsrv.org",
        "cs": [
            7
        ]
    },
    {
        "i": "gs115",
        "n": "Girl Scouts of Montana and Wyoming",
        "l": "Billings Montana 59101-5823 59101",
        "p": "4062520488",
        "lt": "45.613054",
        "lg": "-108.390305",
        "u": "http://www.gsmw.org",
        "cs": [
            7
        ]
    },
    {
        "i": "gs63",
        "n": "Girl Scouts of Montana and Wyoming",
        "l": "Billings Montana 59101-5823 59101",
        "p": "4062520488",
        "lt": "45.613054",
        "lg": "-108.390305",
        "u": "http://www.gsmw.org",
        "cs": [
            7
        ]
    },
    {
        "i": "gs4",
        "n": "Girl Scouts of Alaska",
        "l": "Anchorage Alaska 99517-2417 99517",
        "p": "9072482250",
        "lt": "61.190346",
        "lg": "-149.939108",
        "u": "http://girlscoutsalaska.org/",
        "cs": [
            7
        ]
    }
]