[
  {
    "lg": -92.397622,
    "lt": 34.859561,
    "t": "ABOVE THE BAR FOUNDATION",
    "id": "833468000",
    "i": "833468000",
    "n": "ABOVE THE BAR FOUNDATION",
    "a": "4 MASTERS PLACE CV",
    "l": "MAUMELLE AR 72113",
    "cs": [
      100
    ],
    "f": 34
  },
  {
    "lg": -94.25628,
    "lt": 36.346567,
    "t": "1320508 WALMART SAVE MONEY TOAST BETTER TOASTMASTERS",
    "id": "900461725",
    "i": "900461725",
    "n": "1320508 WALMART SAVE MONEY TOAST BETTER TOASTMASTERS",
    "a": "13428 Cardinal Cir",
    "l": "Bentonville AR 72712",
    "cs": [
      12
    ],
    "u": "www.520house.org",
    "f": 36
  },
  {
    "lg": -94.25628,
    "lt": 36.346567,
    "t": "1320508 WALMART SAVE MONEY TOAST BETTER TOASTMASTERS",
    "id": "900461725",
    "i": "900461725",
    "n": "1320508 WALMART SAVE MONEY TOAST BETTER TOASTMASTERS",
    "a": "13428 Cardinal Cir",
    "l": "Bentonville AR 72712",
    "cs": [
      12
    ],
    "u": "www.520house.org",
    "f": 36
  },
  {
    "lg": -94.416458,
    "lt": 35.366187,
    "t": "A HEART FOR HOME MINISTRIES INC",
    "id": "710831414",
    "i": "710831414",
    "n": "A HEART FOR HOME MINISTRIES INC",
    "a": "2315 So P Street",
    "l": "Fort Smith AR 72901",
    "cs": [
      1
    ],
    "f": 35
  },
  {
    "lg": -92.81969,
    "lt": 33.586463,
    "t": "A HEALTHY OUACHITA COUNTY",
    "id": "412228895",
    "i": "412228895",
    "n": "A HEALTHY OUACHITA COUNTY",
    "a": "740 California Avenue",
    "l": "Camden AR 71701",
    "cs": [
      10
    ],
    "f": 33
  },
  {
    "lg": -92.415028,
    "lt": 34.785888,
    "t": "A DAY FOR CHARITY INC",
    "id": "650723718",
    "i": "650723718",
    "n": "A DAY FOR CHARITY INC",
    "a": "6 Hickory Hills Circle",
    "l": "Little Rock AR 72212",
    "cs": [
      100
    ],
    "f": 34
  },
  {
    "lg": -91.779304,
    "lt": 35.883198,
    "t": "7TH BOMBARDMENT GROUP HISTORICAL FOUNDATION",
    "id": "742466548",
    "i": "742466548",
    "n": "7TH BOMBARDMENT GROUP HISTORICAL FOUNDATION",
    "a": "PO Box 177",
    "l": "Cushman AR 72526",
    "cs": [
      100
    ],
    "u": "www.7thbg.org",
    "f": 35
  },
  {
    "lg": -90.539526,
    "lt": 35.916276,
    "t": "ABA MEMORIAL SCHOLARSHIP FUND INC",
    "id": "812316419",
    "i": "812316419",
    "n": "ABA MEMORIAL SCHOLARSHIP FUND INC",
    "a": "PO Box 660",
    "l": "Brookland AR 72417",
    "cs": [
      5,
      100
    ],
    "f": 35
  },
  {
    "lg": -93.04527,
    "lt": 34.085089,
    "t": "AAMP92 FOUNDATION",
    "id": "260320922",
    "i": "260320922",
    "n": "AAMP92 FOUNDATION",
    "a": "Po Box 1045",
    "l": "ARKADELPHIA AR 71923",
    "cs": [
      100
    ],
    "f": 34
  },
  {
    "lg": -94.304915,
    "lt": 36.467146,
    "t": "AAFES RETIRED EMPLOYEES ASSOCIATION",
    "id": "510181059",
    "i": "510181059",
    "n": "AAFES RETIRED EMPLOYEES ASSOCIATION",
    "a": "14 Aylesford Ln",
    "l": "Bella Vista AR 72715",
    "cs": [
      6
    ],
    "f": 36
  },
  {
    "lg": -94.304915,
    "lt": 36.467146,
    "t": "AAFES RETIRED EMPLOYEES ASSOCIATION",
    "id": "510181059",
    "i": "510181059",
    "n": "AAFES RETIRED EMPLOYEES ASSOCIATION",
    "a": "14 Aylesford Ln",
    "l": "Bella Vista AR 72715",
    "cs": [
      6
    ],
    "f": 36
  },
  {
    "lg": -94.085584,
    "lt": 35.992387,
    "t": "ACADEMY OF FOOD LAW AND POLICY",
    "id": "475507866",
    "i": "475507866",
    "n": "ACADEMY OF FOOD LAW AND POLICY",
    "a": "1045 W Maple Street",
    "l": "Fayetteville AR 72701",
    "cs": [
      11,
      9
    ],
    "u": "www.aworldvision.org",
    "f": 35
  },
  {
    "lg": -94.454856,
    "lt": 36.168814,
    "t": "A VOICE FOR THE CHILDREN",
    "id": "202460768",
    "i": "202460768",
    "n": "A VOICE FOR THE CHILDREN",
    "a": "P O Box 67",
    "l": "Siloam Springs AR 72761",
    "cs": [
      3
    ],
    "f": 36
  },
  {
    "lg": -92.063652,
    "lt": 34.964267,
    "t": "A VETERANS BEST FRIEND",
    "id": "900874432",
    "i": "900874432",
    "n": "A VETERANS BEST FRIEND",
    "a": "PO Box 329",
    "l": "Cabot AR 72023",
    "cs": [
      16
    ],
    "u": "avbfsdt.org",
    "f": 34
  },
  {
    "lg": -92.145446,
    "lt": 34.769847,
    "t": "A SYMONE TAYLOR FOUNDATION",
    "id": "863270536",
    "i": "863270536",
    "n": "A SYMONE TAYLOR FOUNDATION",
    "a": "15108 HILLS ACRES RD",
    "l": "NORTH LITTLE ROCK AR 72117",
    "cs": [
      100
    ],
    "f": 34
  },
  {
    "lg": -93.655397,
    "lt": 36.104648,
    "t": "ABUNDANT HEALTH WELLNESS CENTER INC",
    "id": "474375103",
    "i": "474375103",
    "n": "ABUNDANT HEALTH WELLNESS CENTER INC",
    "a": "32292 Highway 23",
    "l": "Huntsville AR 72740",
    "cs": [
      10
    ],
    "f": 36
  },
  {
    "lg": -92.362675,
    "lt": 35.065559,
    "t": "A MOTHERS TOUCH EDUCATION AND CARE CENTER",
    "id": "465425874",
    "i": "465425874",
    "n": "A MOTHERS TOUCH EDUCATION AND CARE CENTER",
    "a": "2960 Beechwood Dr",
    "l": "conway AR 72032",
    "cs": [
      5
    ],
    "f": 35
  },
  {
    "lg": -94.2965,
    "lt": 36.105647,
    "t": "ACQUIRING CAREER AND COLLEGE EXPOSURE FOR STUDENT SUCCESS",
    "id": "823180519",
    "i": "823180519",
    "n": "ACQUIRING CAREER AND COLLEGE EXPOSURE FOR STUDENT SUCCESS",
    "a": "4095 West Spring House Drive",
    "l": "Fayetteville AR 72704",
    "cs": [
      5
    ],
    "f": 36
  },
  {
    "lg": -94.197193,
    "lt": 34.608016,
    "t": "ACORN SCHOOL REUNION ASSOCIATION",
    "id": "263101758",
    "i": "263101758",
    "n": "ACORN SCHOOL REUNION ASSOCIATION",
    "a": "112 Polk Road 108",
    "l": "Mena AR 71953",
    "cs": [
      5
    ],
    "f": 34
  },
  {
    "lg": -92.145362,
    "lt": 34.266258,
    "t": "ADMIN EAST EMPLOYEE ASSOCIATION",
    "id": "454282750",
    "i": "454282750",
    "n": "ADMIN EAST EMPLOYEE ASSOCIATION",
    "a": "2403 EAST HARDING",
    "l": "PINE BLUFF AR 71602",
    "cs": [
      6
    ],
    "f": 34
  },
  {
    "lg": -92.974072,
    "lt": 34.526453,
    "t": "ACCESSIBLE LEGAL SERVICES",
    "id": "814280177",
    "i": "814280177",
    "n": "ACCESSIBLE LEGAL SERVICES",
    "a": "100 Ridgeway",
    "l": "Hot Springs AR 71901",
    "cs": [
      42,
      11
    ],
    "f": 34
  },
  {
    "lg": -94.043243,
    "lt": 36.118332,
    "t": "ADVANCING VISION THRU EDUCATION FOUNDATION INC",
    "id": "270469923",
    "i": "270469923",
    "n": "ADVANCING VISION THRU EDUCATION FOUNDATION INC",
    "a": "3318 NorthHills Blvd",
    "l": "Fayetteville AR 72703",
    "cs": [
      5,
      100
    ],
    "f": 36
  },
  {
    "lg": -91.658306,
    "lt": 36.226285,
    "t": "ACCESS MEDICAL CLINIC CHARITABLE FUND",
    "id": "850589661",
    "i": "850589661",
    "n": "ACCESS MEDICAL CLINIC CHARITABLE FUND",
    "a": "49 HIGHWAY 62 142",
    "l": "ASH FLAT AR 72513",
    "cs": [
      10,
      100
    ],
    "f": 36
  },
  {
    "lg": -94.085584,
    "lt": 35.992387,
    "t": "ACADEMY OF FOOD LAW AND POLICY",
    "id": "475507866",
    "i": "475507866",
    "n": "ACADEMY OF FOOD LAW AND POLICY",
    "a": "1045 W Maple Street",
    "l": "Fayetteville AR 72701",
    "cs": [
      11,
      9
    ],
    "u": "www.aworldvision.org",
    "f": 35
  },
  {
    "lg": -92.397622,
    "lt": 34.859561,
    "t": "ABOVE THE BAR FOUNDATION",
    "id": "833468000",
    "i": "833468000",
    "n": "ABOVE THE BAR FOUNDATION",
    "a": "4 MASTERS PLACE CV",
    "l": "MAUMELLE AR 72113",
    "cs": [
      100
    ],
    "f": 34
  },
  {
    "lg": -93.655397,
    "lt": 36.104648,
    "t": "ABUNDANT HEALTH WELLNESS CENTER INC",
    "id": "474375103",
    "i": "474375103",
    "n": "ABUNDANT HEALTH WELLNESS CENTER INC",
    "a": "32292 Highway 23",
    "l": "Huntsville AR 72740",
    "cs": [
      10
    ],
    "f": 36
  },
  {
    "lg": -92.286376,
    "lt": 34.534625,
    "t": "ABRAHAM FOUNDATION INC",
    "id": "471308594",
    "i": "471308594",
    "n": "ABRAHAM FOUNDATION INC",
    "a": "21570 Wild Cherry Lane",
    "l": "Hensley AR 72065",
    "cs": [
      100
    ],
    "f": 34
  },
  {
    "lg": -92.397622,
    "lt": 34.859561,
    "t": "ABOVE THE BAR FOUNDATION",
    "id": "833468000",
    "i": "833468000",
    "n": "ABOVE THE BAR FOUNDATION",
    "a": "4 MASTERS PLACE CV",
    "l": "MAUMELLE AR 72113",
    "cs": [
      100
    ],
    "f": 34
  },
  {
    "lg": -92.245317,
    "lt": 34.800258,
    "t": "ADOPT A CHILD INC",
    "id": "710735861",
    "i": "710735861",
    "n": "ADOPT A CHILD INC",
    "a": "3612 JFK Blvd",
    "l": "N Little Rock AR 72116",
    "cs": [
      3
    ],
    "f": 34
  },
  {
    "lg": -92.145362,
    "lt": 34.266258,
    "t": "ADMIN EAST EMPLOYEE ASSOCIATION",
    "id": "454282750",
    "i": "454282750",
    "n": "ADMIN EAST EMPLOYEE ASSOCIATION",
    "a": "2403 EAST HARDING",
    "l": "PINE BLUFF AR 71602",
    "cs": [
      6
    ],
    "f": 34
  },
  {
    "lg": -92.685264,
    "lt": 34.63803,
    "t": "ACTIVE DAY SENIOR HEALTH CARE CENTER",
    "id": "814550120",
    "i": "814550120",
    "n": "ACTIVE DAY SENIOR HEALTH CARE CENTER",
    "a": "6475 Pierce Manse loop",
    "l": "Benton AR 72019",
    "cs": [
      15,
      10
    ],
    "f": 34
  },
  {
    "lg": -92.627076,
    "lt": 33.198844,
    "t": "AFTER HOMES FOUNDATION",
    "id": "900908697",
    "i": "900908697",
    "n": "AFTER HOMES FOUNDATION",
    "a": "608 EAST 5TH STREET",
    "l": "EL DORADO AR 71730",
    "cs": [
      1,
      100
    ],
    "u": "http://www.agapehousechildrenshome.org/",
    "f": 33
  },
  {
    "lg": -94.408423,
    "lt": 35.835094,
    "t": "AGAPE FOUNDATION BUILDERS MINISTRY",
    "id": "800422326",
    "i": "800422326",
    "n": "AGAPE FOUNDATION BUILDERS MINISTRY",
    "a": "17290 Greasy Valley Rd",
    "l": "Canehill AR 72717",
    "cs": [
      100
    ],
    "f": 35
  },
  {
    "lg": -92.627076,
    "lt": 33.198844,
    "t": "AFTER HOMES FOUNDATION",
    "id": "900908697",
    "i": "900908697",
    "n": "AFTER HOMES FOUNDATION",
    "a": "608 EAST 5TH STREET",
    "l": "EL DORADO AR 71730",
    "cs": [
      1,
      100
    ],
    "u": "http://www.agapehousechildrenshome.org/",
    "f": 33
  },
  {
    "lg": -94.13721,
    "lt": 36.299665,
    "t": "AFRICAN EDUCATION RESOURCE CENTER",
    "id": "050563068",
    "i": "050563068",
    "n": "AFRICAN EDUCATION RESOURCE CENTER",
    "a": "1001 S 19th Street",
    "l": "Rogers AR 72758",
    "cs": [
      5
    ],
    "f": 36
  },
  {
    "lg": -92.720251,
    "lt": 33.637549,
    "t": "AFRICAN AMERICAN HISTORICAL COMMISSION OF CAMDEN ARKANSAS",
    "id": "010869925",
    "i": "010869925",
    "n": "AFRICAN AMERICAN HISTORICAL COMMISSION OF CAMDEN ARKANSAS",
    "a": "PO Box 1440",
    "l": "Camden AR 71711",
    "cs": [
      1
    ],
    "f": 33
  },
  {
    "lg": -94.043243,
    "lt": 36.118332,
    "t": "ADVANCING VISION THRU EDUCATION FOUNDATION INC",
    "id": "270469923",
    "i": "270469923",
    "n": "ADVANCING VISION THRU EDUCATION FOUNDATION INC",
    "a": "3318 NorthHills Blvd",
    "l": "Fayetteville AR 72703",
    "cs": [
      5,
      100
    ],
    "f": 36
  },
  {
    "lg": -93.33759,
    "lt": 33.801468,
    "t": "1902-1969 MCRAE SCHOOL MEMORIAL FOUNDATION",
    "id": "270089751",
    "i": "270089751",
    "n": "1902-1969 MCRAE SCHOOL MEMORIAL FOUNDATION",
    "a": "PO Box 524",
    "l": "Prescott AR 71857",
    "cs": [
      5,
      100
    ],
    "f": 33
  },
  {
    "lg": -94.361247,
    "lt": 35.350978,
    "t": "188TH OLD GUARD",
    "id": "814128598",
    "i": "814128598",
    "n": "188TH OLD GUARD",
    "a": "3704 Sandy Pt",
    "l": "Fort Smith AR 72903",
    "cs": [
      15
    ],
    "f": 35
  },
  {
    "lg": -93.109424,
    "lt": 35.503672,
    "t": "14TH TRANSPORTATION BATTALION AVN VIETNAM VETERANS",
    "id": "208450056",
    "i": "208450056",
    "n": "14TH TRANSPORTATION BATTALION AVN VIETNAM VETERANS",
    "a": "177 Vernon Dr",
    "l": "Dover AR 72837",
    "cs": [
      16,
      7
    ],
    "f": 35
  },
  {
    "lg": -94.25628,
    "lt": 36.346567,
    "t": "1320508 WALMART SAVE MONEY TOAST BETTER TOASTMASTERS",
    "id": "900461725",
    "i": "900461725",
    "n": "1320508 WALMART SAVE MONEY TOAST BETTER TOASTMASTERS",
    "a": "13428 Cardinal Cir",
    "l": "Bentonville AR 72712",
    "cs": [
      12
    ],
    "u": "www.520house.org",
    "f": 36
  },
  {
    "lg": -92.280049,
    "lt": 34.746905,
    "t": "12 FOR 12 MENS PRAYER NETWORK CORP",
    "id": "852921944",
    "i": "852921944",
    "n": "12 FOR 12 MENS PRAYER NETWORK CORP",
    "a": "111 Center St Fl 11th",
    "l": "Little Rock AR 72201",
    "cs": [
      6
    ],
    "f": 34
  }
]