[
  {
    "lg": -85.147602,
    "lt": 41.044893,
    "t": "216 EAST WASHINGTON BOULEVARD FOUNDATION INC",
    "id": "351867694",
    "i": "351867694",
    "n": "216 EAST WASHINGTON BOULEVARD FOUNDATION INC",
    "a": "1321 ILLSLEY DRIVE",
    "l": "FORT WAYNE IN 46807",
    "cs": [
      100
    ],
    "f": 41
  },
  {
    "lg": -87.244908,
    "lt": 41.518185,
    "t": "AMATEUR ATHLETIC UNION OF THE UNITED STATES",
    "id": "611618715",
    "i": "611618715",
    "n": "AMATEUR ATHLETIC UNION OF THE UNITED STATES",
    "a": "400 N Lake Park Avenue B6N",
    "l": "Hobart IN 46342",
    "cs": [
      7
    ],
    "u": "www.rla201medcom.org",
    "f": 41
  },
  {
    "lg": -86.156997,
    "lt": 39.771994,
    "t": "A WORKING PERSON LIKE YOU INC",
    "id": "454149415",
    "i": "454149415",
    "n": "A WORKING PERSON LIKE YOU INC",
    "a": "150 W MARKET STREET STE 805",
    "l": "INDIANAPOLIS IN 46204",
    "cs": [
      6
    ],
    "f": 39
  },
  {
    "lg": -86.124634,
    "lt": 39.906046,
    "t": "ALL FOR CHILDREN INC",
    "id": "273126142",
    "i": "273126142",
    "n": "ALL FOR CHILDREN INC",
    "a": "7690 Washington Blvd",
    "l": "Indianapolis IN 46240",
    "cs": [
      3
    ],
    "f": 39
  },
  {
    "lg": -86.170706,
    "lt": 40.034796,
    "t": "ALTERNATIVES CHALLENGE EDUCATION INC",
    "id": "311139445",
    "i": "311139445",
    "n": "ALTERNATIVES CHALLENGE EDUCATION INC",
    "a": "728 E 199TH ST",
    "l": "WESTFILED IN 46074",
    "cs": [
      5
    ],
    "f": 40,
    "u": "www.allcreaturesmatter.org"
  },
  {
    "lg": -86.085557,
    "lt": 39.979283,
    "t": "AIR FORCE ASSOCIATION",
    "id": "510236816",
    "i": "510236816",
    "n": "AIR FORCE ASSOCIATION",
    "a": "10655-106th Place",
    "l": "Carmel IN 46033",
    "cs": [
      16
    ],
    "f": 39
  },
  {
    "lg": -86.285424,
    "lt": 39.729852,
    "t": "AGAPE HOUSE SOBER LIVING FOR MEN",
    "id": "871317736",
    "i": "871317736",
    "n": "AGAPE HOUSE SOBER LIVING FOR MEN",
    "a": "340 S Lockburn St",
    "l": "Indianapolis IN 46241",
    "cs": [
      1
    ],
    "f": 39
  },
  {
    "lg": -86.013138,
    "lt": 39.908383,
    "t": "AHEPA 232 FOUNDATION",
    "id": "850827212",
    "i": "850827212",
    "n": "AHEPA 232 FOUNDATION",
    "a": "7355 Shadeland Station Way Ste B",
    "l": "Indianapolis IN 46256",
    "cs": [
      100
    ],
    "f": 39
  },
  {
    "lg": -85.214712,
    "lt": 40.938582,
    "t": "3 RIVERS YOGA FOUNDATION",
    "id": "832493554",
    "i": "832493554",
    "n": "3 RIVERS YOGA FOUNDATION",
    "a": "15930 Indianapolis Rd",
    "l": "Yoder IN 46798",
    "cs": [
      100
    ],
    "f": 40
  },
  {
    "lg": -86.174761,
    "lt": 39.962604,
    "t": "ALPHA SIGMA PHI FOUNDATION INC",
    "id": "141908351",
    "i": "141908351",
    "n": "ALPHA SIGMA PHI FOUNDATION INC",
    "a": "710 ADAMS ST",
    "l": "CARMEL IN 46032",
    "cs": [
      100
    ],
    "f": 39
  },
  {
    "lg": -84.889699,
    "lt": 39.832079,
    "t": "ALL KIDS ACADEMY INC",
    "id": "463244553",
    "i": "463244553",
    "n": "ALL KIDS ACADEMY INC",
    "a": "2267 Roaming Hills Drive",
    "l": "Richmond IN 47374",
    "cs": [
      7
    ],
    "u": "2ndchancerescueinc.org",
    "f": 39
  },
  {
    "lg": -86.126918,
    "lt": 41.740931,
    "t": "AL-FADHL CHARITABLE ORGANIZATION",
    "id": "863838693",
    "i": "863838693",
    "n": "AL-FADHL CHARITABLE ORGANIZATION",
    "a": "52103 Brendon Hills Drive",
    "l": "Granger IN 46530",
    "cs": [
      100
    ],
    "f": 41,
    "u": "www.525foundation.org"
  },
  {
    "lg": -87.164567,
    "lt": 40.755909,
    "t": "22 6 DIAMOND SPORTS INC",
    "id": "813369544",
    "i": "813369544",
    "n": "22 6 DIAMOND SPORTS INC",
    "a": "6252 W 1500 S",
    "l": "Remington IN 47977",
    "cs": [
      7
    ],
    "f": 40
  },
  {
    "lg": -84.965538,
    "lt": 39.072665,
    "t": "4480 S DEARBORN EDUCATION ASSOCIATION",
    "id": "874511622",
    "i": "874511622",
    "n": "4480 S DEARBORN EDUCATION ASSOCIATION",
    "a": "5770 HIGHLANDER PLACE",
    "l": "Aurora IN 47001",
    "cs": [
      5
    ],
    "f": 39
  },
  {
    "lg": -85.847601,
    "lt": 38.283506,
    "t": "AMATEUR ATHLETIC UNION OF THE UNITED STATES",
    "id": "205438468",
    "i": "205438468",
    "n": "AMATEUR ATHLETIC UNION OF THE UNITED STATES",
    "a": "4110 Royal Oak Dr",
    "l": "New Albany IN 47150",
    "cs": [
      7
    ],
    "f": 38
  },
  {
    "lg": -85.774394,
    "lt": 39.527281,
    "t": "4 WHEELS TO FREEDOM 4 WHEEL DRIVE CLUB OF CENTRAL IND INCORPORATED",
    "id": "351389676",
    "i": "351389676",
    "n": "4 WHEELS TO FREEDOM 4 WHEEL DRIVE CLUB OF CENTRAL IND INCORPORATED",
    "a": "PO Box 342",
    "l": "Shelbyville IN 46176",
    "cs": [
      100
    ],
    "f": 39
  },
  {
    "lg": -86.085557,
    "lt": 39.979283,
    "t": "AIR FORCE ASSOCIATION",
    "id": "510236816",
    "i": "510236816",
    "n": "AIR FORCE ASSOCIATION",
    "a": "10655-106th Place",
    "l": "Carmel IN 46033",
    "cs": [
      16
    ],
    "f": 39
  },
  {
    "lg": -86.551134,
    "lt": 39.773312,
    "t": "4 9 INFANTRY MANCHU VIETNAM ASSOCIATION",
    "id": "522214223",
    "i": "522214223",
    "n": "4 9 INFANTRY MANCHU VIETNAM ASSOCIATION",
    "a": "3868 West County Rd 350 N",
    "l": "Danville IN 46122",
    "cs": [
      3
    ],
    "f": 39
  },
  {
    "lg": -86.085557,
    "lt": 39.979283,
    "t": "AIR FORCE ASSOCIATION",
    "id": "510236816",
    "i": "510236816",
    "n": "AIR FORCE ASSOCIATION",
    "a": "10655-106th Place",
    "l": "Carmel IN 46033",
    "cs": [
      16
    ],
    "f": 39
  },
  {
    "lg": -86.24147,
    "lt": 41.733701,
    "t": "466 WORKS COMMUNITY DEVELOPMENT CORPORATION INC",
    "id": "465523814",
    "i": "465523814",
    "n": "466 WORKS COMMUNITY DEVELOPMENT CORPORATION INC",
    "a": "2043 SOUTH BEND AVE PMB 352",
    "l": "SOUTH BEND IN 46637",
    "cs": [
      6
    ],
    "f": 41
  },
  {
    "lg": -86.126918,
    "lt": 41.740931,
    "t": "AL-FADHL CHARITABLE ORGANIZATION",
    "id": "863838693",
    "i": "863838693",
    "n": "AL-FADHL CHARITABLE ORGANIZATION",
    "a": "52103 Brendon Hills Drive",
    "l": "Granger IN 46530",
    "cs": [
      100
    ],
    "f": 41,
    "u": "www.525foundation.org"
  },
  {
    "lg": -85.772071,
    "lt": 39.801973,
    "t": "500 FLYERS YOUTH TRAP SHOOTING CLUB",
    "id": "383807090",
    "i": "383807090",
    "n": "500 FLYERS YOUTH TRAP SHOOTING CLUB",
    "a": "757 North 800 East",
    "l": "Greenfield IN 46140",
    "cs": [
      7
    ],
    "f": 39
  },
  {
    "lg": -84.875607,
    "lt": 40.982148,
    "t": "4TH DISTRICT RIDERS FOR HOMELESS VETERANS",
    "id": "471898502",
    "i": "471898502",
    "n": "4TH DISTRICT RIDERS FOR HOMELESS VETERANS",
    "a": "20332 MONROEVILLE RD",
    "l": "MONROEVILLE IN 46773",
    "cs": [
      16,
      1
    ],
    "f": 40
  },
  {
    "lg": -86.126918,
    "lt": 41.740931,
    "t": "AL-FADHL CHARITABLE ORGANIZATION",
    "id": "863838693",
    "i": "863838693",
    "n": "AL-FADHL CHARITABLE ORGANIZATION",
    "a": "52103 Brendon Hills Drive",
    "l": "Granger IN 46530",
    "cs": [
      100
    ],
    "f": 41,
    "u": "www.525foundation.org"
  },
  {
    "lg": -85.967501,
    "lt": 39.895722,
    "t": "ADANI CARE FOUNDATION INC",
    "id": "882520832",
    "i": "882520832",
    "n": "ADANI CARE FOUNDATION INC",
    "a": "117 FOX RD STE 400",
    "l": "INDIANAPOLIS IN 46236",
    "cs": [
      100
    ],
    "f": 39
  },
  {
    "lg": -85.967501,
    "lt": 39.895722,
    "t": "ADANI CARE FOUNDATION INC",
    "id": "882520832",
    "i": "882520832",
    "n": "ADANI CARE FOUNDATION INC",
    "a": "117 FOX RD STE 400",
    "l": "INDIANAPOLIS IN 46236",
    "cs": [
      100
    ],
    "f": 39
  },
  {
    "lg": -85.967501,
    "lt": 39.895722,
    "t": "ADANI CARE FOUNDATION INC",
    "id": "882520832",
    "i": "882520832",
    "n": "ADANI CARE FOUNDATION INC",
    "a": "117 FOX RD STE 400",
    "l": "INDIANAPOLIS IN 46236",
    "cs": [
      100
    ],
    "f": 39
  },
  {
    "lg": -86.467801,
    "lt": 39.876973,
    "t": "7-1 FOUNDATION INC",
    "id": "862303115",
    "i": "862303115",
    "n": "7-1 FOUNDATION INC",
    "a": "505 n maple street",
    "l": "PITTSBORO IN 46167",
    "cs": [
      100
    ],
    "f": 39
  },
  {
    "lg": -87.536743,
    "lt": 38.015301,
    "t": "68 HARRISON WARRIORS CHARITABLE INC",
    "id": "831312442",
    "i": "831312442",
    "n": "68 HARRISON WARRIORS CHARITABLE INC",
    "a": "2916 East Morgan Avenue",
    "l": "Evansville IN 47711",
    "cs": [
      100
    ],
    "f": 38
  },
  {
    "lg": -85.993199,
    "lt": 39.158873,
    "t": "550 FOUNDATION INC",
    "id": "873856301",
    "i": "873856301",
    "n": "550 FOUNDATION INC",
    "a": "3856 N INDIANAPOLIS RD",
    "l": "COLUMBUS IN 47201",
    "cs": [
      100
    ],
    "f": 39
  },
  {
    "lg": -87.503268,
    "lt": 41.54751,
    "t": "A FOUNDATION SUPPORTING BEAUTIFUL MINDS LTD",
    "id": "820705290",
    "i": "820705290",
    "n": "A FOUNDATION SUPPORTING BEAUTIFUL MINDS LTD",
    "a": "8250 Linden Ave",
    "l": "Munster IN 46321",
    "cs": [
      100
    ],
    "f": 41
  },
  {
    "lg": -87.412707,
    "lt": 40.309014,
    "t": "A BETTER WAY FOOD CO-OP INC",
    "id": "821605305",
    "i": "821605305",
    "n": "A BETTER WAY FOOD CO-OP INC",
    "a": "32 N Monroe St",
    "l": "Williamsport IN 47993",
    "cs": [
      9
    ],
    "u": "abetterwayfood@gmail.com",
    "f": 40
  },
  {
    "lg": -85.127091,
    "lt": 41.152413,
    "t": "AIM SERVICES INC",
    "id": "352136616",
    "i": "352136616",
    "n": "AIM SERVICES INC",
    "a": "1730 COLONY DR",
    "l": "FORT WAYNE IN 46825",
    "cs": [
      42
    ],
    "f": 41
  },
  {
    "lg": -86.013138,
    "lt": 39.908383,
    "t": "AHEPA 232 FOUNDATION",
    "id": "850827212",
    "i": "850827212",
    "n": "AHEPA 232 FOUNDATION",
    "a": "7355 Shadeland Station Way Ste B",
    "l": "Indianapolis IN 46256",
    "cs": [
      100
    ],
    "f": 39
  },
  {
    "lg": -85.157338,
    "lt": 39.624084,
    "t": "ALTRUSA INTERNATIONAL FOUNDATION INC",
    "id": "472331804",
    "i": "472331804",
    "n": "ALTRUSA INTERNATIONAL FOUNDATION INC",
    "a": "760 S Casteel Rd",
    "l": "Connersville IN 47331",
    "cs": [
      100
    ],
    "f": 39
  },
  {
    "lg": -85.015268,
    "lt": 41.452403,
    "t": "A NEW DAY ADULT DAY SERVICES INC",
    "id": "061727987",
    "i": "061727987",
    "n": "A NEW DAY ADULT DAY SERVICES INC",
    "a": "535 N WAYNE STREET",
    "l": "WATERLOO IN 46793",
    "cs": [
      42
    ],
    "f": 41
  },
  {
    "lg": -87.129705,
    "lt": 41.460058,
    "t": "ALMA FOUNDATION INC",
    "id": "133640787",
    "i": "133640787",
    "n": "ALMA FOUNDATION INC",
    "a": "218 N 375 W",
    "l": "Valparaiso IN 46385",
    "cs": [
      100
    ],
    "f": 41
  },
  {
    "lg": -85.73875,
    "lt": 39.981812,
    "t": "A HEART FOR KIDS INC",
    "id": "822351114",
    "i": "822351114",
    "n": "A HEART FOR KIDS INC",
    "a": "10951 S 100 E",
    "l": "Pendleton IN 46064",
    "cs": [
      7
    ],
    "u": "aheartforkids.org",
    "f": 39
  },
  {
    "lg": -85.24165,
    "lt": 41.052918,
    "t": "ALLEN COUNTY NON-PUBLIC SCHOOL ASSOCIATION",
    "id": "474218920",
    "i": "474218920",
    "n": "ALLEN COUNTY NON-PUBLIC SCHOOL ASSOCIATION",
    "a": "10650 Aboite Center Rd",
    "l": "Fort Wayne IN 46804",
    "cs": [
      5
    ],
    "f": 41,
    "u": "www.agbball.com"
  },
  {
    "lg": -86.637989,
    "lt": 40.610524,
    "t": "ABBA'S HOME INC",
    "id": "832226937",
    "i": "832226937",
    "n": "ABBA'S HOME INC",
    "a": "7218 W 500 S",
    "l": "DELPHI IN 46923",
    "cs": [
      1
    ],
    "f": 40
  },
  {
    "lg": -85.24165,
    "lt": 41.052918,
    "t": "ALLEN COUNTY NON-PUBLIC SCHOOL ASSOCIATION",
    "id": "474218920",
    "i": "474218920",
    "n": "ALLEN COUNTY NON-PUBLIC SCHOOL ASSOCIATION",
    "a": "10650 Aboite Center Rd",
    "l": "Fort Wayne IN 46804",
    "cs": [
      5
    ],
    "f": 41,
    "u": "www.agbball.com"
  },
  {
    "lg": -86.989218,
    "lt": 40.479649,
    "t": "ALPHA FOUNDATION OF PHI SIGMA RHO CORPORATION",
    "id": "812873510",
    "i": "812873510",
    "n": "ALPHA FOUNDATION OF PHI SIGMA RHO CORPORATION",
    "a": "1001 David Ross Rd",
    "l": "West Lafayette IN 47906",
    "cs": [
      100
    ],
    "u": "https://aakfgreatlakes.com/",
    "f": 40
  },
  {
    "lg": -86.191451,
    "lt": 39.674631,
    "t": "A20-30I CHILDREN FOUNDATION",
    "id": "205743998",
    "i": "205743998",
    "n": "A20-30I CHILDREN FOUNDATION",
    "a": "8231 Bold Forbes Ct",
    "l": "Indianapolis IN 46217",
    "cs": [
      3,
      100
    ],
    "u": "www.indyactive20-30.org",
    "f": 39
  },
  {
    "lg": -86.156997,
    "lt": 39.771994,
    "t": "A WORKING PERSON LIKE YOU INC",
    "id": "454149415",
    "i": "454149415",
    "n": "A WORKING PERSON LIKE YOU INC",
    "a": "150 W MARKET STREET STE 805",
    "l": "INDIANAPOLIS IN 46204",
    "cs": [
      6
    ],
    "f": 39
  },
  {
    "lg": -86.932557,
    "lt": 38.418779,
    "t": "A WAYNE PLACE CHARITABLE TRUST",
    "id": "356542591",
    "i": "356542591",
    "n": "A WAYNE PLACE CHARITABLE TRUST",
    "a": "1010 FIRST AVENUE",
    "l": "JASPER IN 47546",
    "cs": [
      100
    ],
    "f": 38
  },
  {
    "lg": -86.326363,
    "lt": 39.813309,
    "t": "AIDING OUR HOMELESS VETERANS INC",
    "id": "843848093",
    "i": "843848093",
    "n": "AIDING OUR HOMELESS VETERANS INC",
    "a": "4366 ROUND LAKE BEND",
    "l": "INDIANAPOLIS IN 46234",
    "cs": [
      12,
      16,
      1
    ],
    "f": 39,
    "u": "affirmativeeducation.com"
  },
  {
    "lg": -85.24165,
    "lt": 41.052918,
    "t": "ALLEN COUNTY NON-PUBLIC SCHOOL ASSOCIATION",
    "id": "474218920",
    "i": "474218920",
    "n": "ALLEN COUNTY NON-PUBLIC SCHOOL ASSOCIATION",
    "a": "10650 Aboite Center Rd",
    "l": "Fort Wayne IN 46804",
    "cs": [
      5
    ],
    "f": 41,
    "u": "www.agbball.com"
  },
  {
    "lg": -86.175319,
    "lt": 39.62181,
    "t": "AGAPE THEATER COMPANY",
    "id": "844989604",
    "i": "844989604",
    "n": "AGAPE THEATER COMPANY",
    "a": "119 Fieldstone PL",
    "l": "Greenwood IN 46142",
    "cs": [
      9
    ],
    "u": "agapetheatercompany.com",
    "f": 39
  },
  {
    "lg": -86.978774,
    "lt": 41.691148,
    "t": "ABSR COMMUNITY FOUNDATION INC",
    "id": "320112762",
    "i": "320112762",
    "n": "ABSR COMMUNITY FOUNDATION INC",
    "a": "PO Box 825",
    "l": "Beverly Shores IN 46301",
    "cs": [
      100
    ],
    "f": 41
  },
  {
    "lg": -85.24165,
    "lt": 41.052918,
    "t": "ALLEN COUNTY NON-PUBLIC SCHOOL ASSOCIATION",
    "id": "474218920",
    "i": "474218920",
    "n": "ALLEN COUNTY NON-PUBLIC SCHOOL ASSOCIATION",
    "a": "10650 Aboite Center Rd",
    "l": "Fort Wayne IN 46804",
    "cs": [
      5
    ],
    "f": 41,
    "u": "www.agbball.com"
  },
  {
    "lg": -86.282625,
    "lt": 39.984562,
    "t": "ALLIE & FRIENDS FOUNDATION INC",
    "id": "814803005",
    "i": "814803005",
    "n": "ALLIE & FRIENDS FOUNDATION INC",
    "a": "11522 Willow Ridge Dr",
    "l": "Zionsville IN 46077",
    "cs": [
      100
    ],
    "u": "www.ablefund.org",
    "f": 39
  },
  {
    "lg": -86.251338,
    "lt": 41.707119,
    "t": "ABLAZE MISSION INC",
    "id": "873352623",
    "i": "873352623",
    "n": "ABLAZE MISSION INC",
    "a": "PO Box 68",
    "l": "Notre Dame IN 46556",
    "cs": [
      1
    ],
    "u": "www.ablazemission.org",
    "f": 41
  },
  {
    "lg": -86.095905,
    "lt": 38.61146,
    "t": "ABDUL AZIZ ORTHOPEDIC EDUCATION FOUNDATION INC",
    "id": "352074256",
    "i": "352074256",
    "n": "ABDUL AZIZ ORTHOPEDIC EDUCATION FOUNDATION INC",
    "a": "PO Box 206",
    "l": "Salem IN 47167",
    "cs": [
      5,
      100
    ],
    "f": 38
  },
  {
    "lg": -86.205119,
    "lt": 39.513173,
    "t": "ACORN RIDGE RETREATS INC",
    "id": "815283644",
    "i": "815283644",
    "n": "ACORN RIDGE RETREATS INC",
    "a": "760 N Rd 575 W",
    "l": "Bargersville IN 46106",
    "cs": [
      9
    ],
    "f": 39
  },
  {
    "lg": -85.405132,
    "lt": 40.202547,
    "t": "ACE WOMENS NETWORK OF INDIANA INC",
    "id": "845177433",
    "i": "845177433",
    "n": "ACE WOMENS NETWORK OF INDIANA INC",
    "a": "1201 N McKinley Ave LB102",
    "l": "MUNCIE IN 47306",
    "cs": [
      6
    ],
    "f": 40
  },
  {
    "lg": -86.43328,
    "lt": 39.457212,
    "t": "AGAPE HOUSE",
    "id": "452441537",
    "i": "452441537",
    "n": "AGAPE HOUSE",
    "a": "1380 North Blue Bluff Rd",
    "l": "Martinsville IN 46151",
    "cs": [
      1
    ],
    "f": 39
  },
  {
    "lg": -85.915911,
    "lt": 40.064624,
    "t": "ALMOST HOME SCHNAUZER RESCUE INC",
    "id": "464404337",
    "i": "464404337",
    "n": "ALMOST HOME SCHNAUZER RESCUE INC",
    "a": "10422 Magenta Dr",
    "l": "Noblesville IN 46060",
    "cs": [
      1
    ],
    "f": 40,
    "u": "https://ahsr.ngo"
  },
  {
    "lg": -86.403457,
    "lt": 39.764395,
    "t": "ACADEMICS AND ATHLETES LIMITED",
    "id": "261960724",
    "i": "261960724",
    "n": "ACADEMICS AND ATHLETES LIMITED",
    "a": "7165 Walnut Creek Crossing",
    "l": "Avon IN 46123",
    "cs": [
      7
    ],
    "f": 39
  },
  {
    "lg": -86.657974,
    "lt": 41.062011,
    "t": "ALICIA MARIE SMIDLER ANIMAL RESCUE FUND",
    "id": "810703914",
    "i": "810703914",
    "n": "ALICIA MARIE SMIDLER ANIMAL RESCUE FUND",
    "a": "435 Northwest St",
    "l": "Winamac IN 46996",
    "cs": [
      100
    ],
    "f": 41
  },
  {
    "lg": -86.099746,
    "lt": 39.807262,
    "t": "ABYSSINIAN MISSIONARY BAPTIST CHURCH INCORPORATED",
    "id": "300575510",
    "i": "300575510",
    "n": "ABYSSINIAN MISSIONARY BAPTIST CHURCH INCORPORATED",
    "a": "3925 E 33rd St",
    "l": "Insianapolis IN 46218",
    "cs": [
      1,
      100
    ],
    "f": 39
  },
  {
    "lg": -84.913716,
    "lt": 40.721508,
    "t": "ADAMS CENTRAL SCHOLARSHIP FDN",
    "id": "310956193",
    "i": "310956193",
    "n": "ADAMS CENTRAL SCHOLARSHIP FDN",
    "a": "PO Box 122",
    "l": "Monroe IN 46772",
    "cs": [
      5,
      100
    ],
    "f": 40
  },
  {
    "lg": -85.16516,
    "lt": 41.069304,
    "t": "ALLEN CIRCUIT PROBLEM SOLVING COURTS INC",
    "id": "871304554",
    "i": "871304554",
    "n": "ALLEN CIRCUIT PROBLEM SOLVING COURTS INC",
    "a": "715 S Calhoun St Rm 300",
    "l": "Fort Wayne IN 46802",
    "cs": [
      11
    ],
    "f": 41
  },
  {
    "lg": -85.947162,
    "lt": 39.960563,
    "t": "ADA BOOSTER CLUB INCORPORATED",
    "id": "453652222",
    "i": "453652222",
    "n": "ADA BOOSTER CLUB INCORPORATED",
    "a": "10080 E 121ST STREET SUITE 126",
    "l": "FISHERS IN 46037",
    "cs": [
      100
    ],
    "f": 39
  },
  {
    "lg": -85.937722,
    "lt": 38.966511,
    "t": "ALEX RUST MEMORIAL FUND INC",
    "id": "831576359",
    "i": "831576359",
    "n": "ALEX RUST MEMORIAL FUND INC",
    "a": "8256 N Base Rd",
    "l": "Seymour IN 47274",
    "cs": [
      100
    ],
    "f": 38,
    "u": "https://www.chasingbubbles.org/"
  },
  {
    "lg": -85.981465,
    "lt": 39.650921,
    "t": "ADAMS ELEMENTARY PTSO",
    "id": "611497602",
    "i": "611497602",
    "n": "ADAMS ELEMENTARY PTSO",
    "a": "7341 E Stop 11 Road",
    "l": "Indianapolis IN 46259",
    "cs": [
      5
    ],
    "f": 39
  },
  {
    "lg": -87.308139,
    "lt": 38.183748,
    "t": "ACTIVE FAITH HEALTH MINISTRY INC",
    "id": "852277136",
    "i": "852277136",
    "n": "ACTIVE FAITH HEALTH MINISTRY INC",
    "a": "344 Humphrey",
    "l": "Lynnville IN 47619",
    "cs": [
      10
    ],
    "u": "AFHMinistry.com",
    "f": 38
  },
  {
    "lg": -85.974537,
    "lt": 39.836957,
    "t": "ADDICTION RECOVERY MINISTRY INC",
    "id": "823166583",
    "i": "823166583",
    "n": "ADDICTION RECOVERY MINISTRY INC",
    "a": "9946 Montery RD",
    "l": "Indianapolis IN 46235",
    "cs": [
      51
    ],
    "f": 39
  },
  {
    "lg": -85.696419,
    "lt": 38.332696,
    "t": "ADAPTIVE HOSPICE FOUNDATION INC",
    "id": "821655902",
    "i": "821655902",
    "n": "ADAPTIVE HOSPICE FOUNDATION INC",
    "a": "702 North Shore Dr Suite 103",
    "l": "Jeffersonville IN 47130",
    "cs": [
      100
    ],
    "f": 38
  },
  {
    "lg": -87.007505,
    "lt": 41.463199,
    "t": "ADAPTIVE EDUCATION",
    "id": "371748605",
    "i": "371748605",
    "n": "ADAPTIVE EDUCATION",
    "a": "807 Jefferson Street",
    "l": "Valparaiso IN 46383",
    "cs": [
      5
    ],
    "f": 41
  },
  {
    "lg": -85.967501,
    "lt": 39.895722,
    "t": "ADANI CARE FOUNDATION INC",
    "id": "882520832",
    "i": "882520832",
    "n": "ADANI CARE FOUNDATION INC",
    "a": "117 FOX RD STE 400",
    "l": "INDIANAPOLIS IN 46236",
    "cs": [
      100
    ],
    "f": 39
  },
  {
    "lg": -86.14782,
    "lt": 41.615082,
    "t": "ALL 4 ANIMALS RESCUE INCORPORATED",
    "id": "861171931",
    "i": "861171931",
    "n": "ALL 4 ANIMALS RESCUE INCORPORATED",
    "a": "2300 W 6th St",
    "l": "Mishawaka IN 46544",
    "cs": [
      100
    ],
    "f": 41,
    "u": "www.all4animalsrescue.org"
  },
  {
    "lg": -85.847601,
    "lt": 38.283506,
    "t": "AMATEUR ATHLETIC UNION OF THE UNITED STATES",
    "id": "205438468",
    "i": "205438468",
    "n": "AMATEUR ATHLETIC UNION OF THE UNITED STATES",
    "a": "4110 Royal Oak Dr",
    "l": "New Albany IN 47150",
    "cs": [
      7
    ],
    "f": 38
  },
  {
    "lg": -85.981465,
    "lt": 39.650921,
    "t": "ADAMS ELEMENTARY PTSO",
    "id": "611497602",
    "i": "611497602",
    "n": "ADAMS ELEMENTARY PTSO",
    "a": "7341 E Stop 11 Road",
    "l": "Indianapolis IN 46259",
    "cs": [
      5
    ],
    "f": 39
  },
  {
    "lg": -84.940039,
    "lt": 40.828228,
    "t": "ADAMS COUNTY MEMORIAL HOSPITAL AND DEVELOPMENT FOUNDATION",
    "id": "351432587",
    "i": "351432587",
    "n": "ADAMS COUNTY MEMORIAL HOSPITAL AND DEVELOPMENT FOUNDATION",
    "a": "PO Box 151",
    "l": "Decatur IN 46733",
    "cs": [
      10,
      100
    ],
    "f": 40
  },
  {
    "lg": -84.940039,
    "lt": 40.828228,
    "t": "ADAMS COUNTY MEMORIAL HOSPITAL AND DEVELOPMENT FOUNDATION",
    "id": "351432587",
    "i": "351432587",
    "n": "ADAMS COUNTY MEMORIAL HOSPITAL AND DEVELOPMENT FOUNDATION",
    "a": "PO Box 151",
    "l": "Decatur IN 46733",
    "cs": [
      10,
      100
    ],
    "f": 40
  },
  {
    "lg": -86.169537,
    "lt": 40.531266,
    "t": "ADVANTAGE HOUSING INC",
    "id": "454532258",
    "i": "454532258",
    "n": "ADVANTAGE HOUSING INC",
    "a": "101 West Sycamore Street Suite 1A",
    "l": "Kokomo IN 46901",
    "cs": [
      1
    ],
    "u": "www.advantagehousing.org",
    "f": 40
  },
  {
    "lg": -85.900593,
    "lt": 39.730807,
    "t": "ADVANCING CHILDRENS ENDEAVORS",
    "id": "263076682",
    "i": "263076682",
    "n": "ADVANCING CHILDRENS ENDEAVORS",
    "a": "5066 W Windmill Way",
    "l": "New Palestine IN 46163",
    "cs": [
      3
    ],
    "f": 39
  },
  {
    "lg": -87.501485,
    "lt": 38.628561,
    "t": "ALPHA OF SIGMA PI INTERNATIONAL EDUCATIONAL CORPORATION",
    "id": "351925132",
    "i": "351925132",
    "n": "ALPHA OF SIGMA PI INTERNATIONAL EDUCATIONAL CORPORATION",
    "a": "PO Box 1869",
    "l": "Vincennes IN 47591",
    "cs": [
      5
    ],
    "f": 38,
    "u": "www.sigmapivu.org"
  },
  {
    "lg": -85.117711,
    "lt": 41.10011,
    "t": "ALLIANCE FOR HUMAN SERVICES INC",
    "id": "822582955",
    "i": "822582955",
    "n": "ALLIANCE FOR HUMAN SERVICES INC",
    "a": "3320 N CLINTON ST",
    "l": "FORT WAYNE IN 46805",
    "cs": [
      42
    ],
    "u": "WWW.ALLIANCEFORHUMANSERVICES.ORG",
    "f": 41
  },
  {
    "lg": -87.457616,
    "lt": 41.546622,
    "t": "ADOPTIONS AND FAMILY SUPPORT NETWORK INC",
    "id": "261446007",
    "i": "261446007",
    "n": "ADOPTIONS AND FAMILY SUPPORT NETWORK INC",
    "a": "3319 45th Ave",
    "l": "Highland IN 46322",
    "cs": [
      6
    ],
    "u": "www.adoptionandfamily.com",
    "f": 41
  },
  {
    "lg": -86.27921,
    "lt": 41.603188,
    "t": "ADOPTION NETWORK DOMESTIC AND INTERNATIONAL",
    "id": "351930554",
    "i": "351930554",
    "n": "ADOPTION NETWORK DOMESTIC AND INTERNATIONAL",
    "a": "948 E ECKMAN",
    "l": "SOUTH BEND IN 46614",
    "cs": [
      6
    ],
    "u": "ANDIADAOPT.COM",
    "f": 41
  },
  {
    "lg": -85.645026,
    "lt": 40.519395,
    "t": "ADOLESCENTS IN TRAINING",
    "id": "872689486",
    "i": "872689486",
    "n": "ADOLESCENTS IN TRAINING",
    "a": "3405 S WESTERN AVE",
    "l": "MARION IN 46953",
    "cs": [
      6
    ],
    "f": 40
  },
  {
    "lg": -87.046206,
    "lt": 41.613633,
    "t": "AFRICA CHURCH-PLANTING&TRAINING VOCATION EDUCATION-ACTIVE CORP",
    "id": "562661048",
    "i": "562661048",
    "n": "AFRICA CHURCH-PLANTING&TRAINING VOCATION EDUCATION-ACTIVE CORP",
    "a": "501 Dunewood Drive",
    "l": "Chesterton IN 46304",
    "cs": [
      5,
      6
    ],
    "u": "activeministry.org",
    "f": 41
  },
  {
    "lg": -85.382469,
    "lt": 40.12691,
    "t": "AFFORDABLE HOUSING AND DEVELOPMENT CORPORATION III",
    "id": "852174760",
    "i": "852174760",
    "n": "AFFORDABLE HOUSING AND DEVELOPMENT CORPORATION III",
    "a": "409 East First Street",
    "l": "Muncie IN 47302",
    "cs": [
      1
    ],
    "f": 40
  },
  {
    "lg": -86.442835,
    "lt": 39.102306,
    "t": "AFFORDABLE CARE ACT VOLUNTEERS OF MONROE COUNTY INCORPORATED",
    "id": "463808394",
    "i": "463808394",
    "n": "AFFORDABLE CARE ACT VOLUNTEERS OF MONROE COUNTY INCORPORATED",
    "a": "2874 E Garden Path",
    "l": "Bloomington IN 47401",
    "cs": [
      100
    ],
    "u": "www.covermonroe.org",
    "f": 39
  },
  {
    "lg": -86.326363,
    "lt": 39.813309,
    "t": "AIDING OUR HOMELESS VETERANS INC",
    "id": "843848093",
    "i": "843848093",
    "n": "AIDING OUR HOMELESS VETERANS INC",
    "a": "4366 ROUND LAKE BEND",
    "l": "INDIANAPOLIS IN 46234",
    "cs": [
      12,
      16,
      1
    ],
    "f": 39,
    "u": "affirmativeeducation.com"
  },
  {
    "lg": -86.233341,
    "lt": 39.898613,
    "t": "ALPHA XI DELTA NATIONAL HOUSING CORPORATION INC",
    "id": "352103442",
    "i": "352103442",
    "n": "ALPHA XI DELTA NATIONAL HOUSING CORPORATION INC",
    "a": "8702 FOUNDERS RD",
    "l": "INDIANAPOLIS IN 46268",
    "cs": [
      1
    ],
    "f": 39,
    "u": "WWW.ALPHAXIDELTA.ORG"
  },
  {
    "lg": -86.882428,
    "lt": 39.020048,
    "t": "ADVENTURES IN MISSIONS INCORPORATED",
    "id": "351778333",
    "i": "351778333",
    "n": "ADVENTURES IN MISSIONS INCORPORATED",
    "a": "3523 East beech wood lake rd",
    "l": "Bloomfield IN 47424",
    "cs": [
      1,
      100
    ],
    "f": 39
  },
  {
    "lg": -85.165915,
    "lt": 41.721181,
    "t": "ALL PAWS ANIMAL RESCUE & FOSTERING SERVICES INC",
    "id": "872736578",
    "i": "872736578",
    "n": "ALL PAWS ANIMAL RESCUE & FOSTERING SERVICES INC",
    "a": "40 LANE 250 E LAKE PLEASANT",
    "l": "ORLAND IN 46776",
    "cs": [
      42
    ],
    "f": 41
  },
  {
    "lg": -85.377399,
    "lt": 41.63445,
    "t": "AGAPE MISSIONS OF LAGRANGE COUNTY INC",
    "id": "811144636",
    "i": "811144636",
    "n": "AGAPE MISSIONS OF LAGRANGE COUNTY INC",
    "a": "PO Box 262",
    "l": "LaGrange IN 46761",
    "cs": [
      1
    ],
    "f": 41
  },
  {
    "lg": -86.285424,
    "lt": 39.729852,
    "t": "AGAPE HOUSE SOBER LIVING FOR MEN",
    "id": "871317736",
    "i": "871317736",
    "n": "AGAPE HOUSE SOBER LIVING FOR MEN",
    "a": "340 S Lockburn St",
    "l": "Indianapolis IN 46241",
    "cs": [
      1
    ],
    "f": 39
  },
  {
    "lg": -86.43328,
    "lt": 39.457212,
    "t": "AGAPE HOUSE",
    "id": "452441537",
    "i": "452441537",
    "n": "AGAPE HOUSE",
    "a": "1380 North Blue Bluff Rd",
    "l": "Martinsville IN 46151",
    "cs": [
      1
    ],
    "f": 39
  },
  {
    "lg": -85.681513,
    "lt": 40.097817,
    "t": "AGAPE CHILDCARE MINISTRIES INC",
    "id": "815382380",
    "i": "815382380",
    "n": "AGAPE CHILDCARE MINISTRIES INC",
    "a": "2428 Madison Ave",
    "l": "Anderson IN 46016",
    "cs": [
      3
    ],
    "f": 40
  },
  {
    "lg": -86.052485,
    "lt": 39.838896,
    "t": "AFTERSCHOOL COALITION OF INDIANAPOLIS INC",
    "id": "261639507",
    "i": "261639507",
    "n": "AFTERSCHOOL COALITION OF INDIANAPOLIS INC",
    "a": "5117 Laurel Hall Dr",
    "l": "Indianapolis IN 46226",
    "cs": [
      5
    ],
    "f": 39
  },
  {
    "lg": -85.127091,
    "lt": 41.152413,
    "t": "AIM SERVICES INC",
    "id": "352136616",
    "i": "352136616",
    "n": "AIM SERVICES INC",
    "a": "1730 COLONY DR",
    "l": "FORT WAYNE IN 46825",
    "cs": [
      42
    ],
    "f": 41
  },
  {
    "lg": -86.233341,
    "lt": 39.898613,
    "t": "ALPHA XI DELTA NATIONAL HOUSING CORPORATION INC",
    "id": "352103442",
    "i": "352103442",
    "n": "ALPHA XI DELTA NATIONAL HOUSING CORPORATION INC",
    "a": "8702 FOUNDERS RD",
    "l": "INDIANAPOLIS IN 46268",
    "cs": [
      1
    ],
    "f": 39,
    "u": "WWW.ALPHAXIDELTA.ORG"
  },
  {
    "lg": -86.896302,
    "lt": 40.324563,
    "t": "AFRICAN MISSIONS",
    "id": "208678729",
    "i": "208678729",
    "n": "AFRICAN MISSIONS",
    "a": "8309 E 900 S",
    "l": "Lafayette IN 47909",
    "cs": [
      1
    ],
    "f": 40
  },
  {
    "lg": -86.1724,
    "lt": 41.462622,
    "t": "AFRICAN MEDICAL ALLIANCE INC",
    "id": "464901258",
    "i": "464901258",
    "n": "AFRICAN MEDICAL ALLIANCE INC",
    "a": "423 West Maple Street Bremen IN 465",
    "l": "Bremen IN 46506",
    "cs": [
      10
    ],
    "f": 41
  },
  {
    "lg": -86.233341,
    "lt": 39.898613,
    "t": "ALPHA XI DELTA NATIONAL HOUSING CORPORATION INC",
    "id": "352103442",
    "i": "352103442",
    "n": "ALPHA XI DELTA NATIONAL HOUSING CORPORATION INC",
    "a": "8702 FOUNDERS RD",
    "l": "INDIANAPOLIS IN 46268",
    "cs": [
      1
    ],
    "f": 39,
    "u": "WWW.ALPHAXIDELTA.ORG"
  },
  {
    "lg": -86.29805,
    "lt": 39.892946,
    "t": "AGHARESE FOUNDATION INC",
    "id": "873035558",
    "i": "873035558",
    "n": "AGHARESE FOUNDATION INC",
    "a": "9202 STONESFERRY WAY",
    "l": "INDIANAPOLIS IN 46278",
    "cs": [
      100
    ],
    "f": 39
  },
  {
    "lg": -84.866317,
    "lt": 39.165524,
    "t": "AGC EMPLOYEES CLUB",
    "id": "352082726",
    "i": "352082726",
    "n": "AGC EMPLOYEES CLUB",
    "a": "200 W Belleview",
    "l": "Lawrenceburg IN 47025",
    "cs": [
      6
    ],
    "f": 39
  },
  {
    "lg": -86.175319,
    "lt": 39.62181,
    "t": "AGAPE THEATER COMPANY",
    "id": "844989604",
    "i": "844989604",
    "n": "AGAPE THEATER COMPANY",
    "a": "119 Fieldstone PL",
    "l": "Greenwood IN 46142",
    "cs": [
      9
    ],
    "u": "agapetheatercompany.com",
    "f": 39
  },
  {
    "lg": -87.641573,
    "lt": 38.062897,
    "t": "AIR FORCE ASSOCIATION",
    "id": "813590114",
    "i": "813590114",
    "n": "AIR FORCE ASSOCIATION",
    "a": "4120 Kuebler Rd",
    "l": "Evansville IN 47720",
    "cs": [
      16
    ],
    "f": 38
  },
  {
    "lg": -86.085557,
    "lt": 39.979283,
    "t": "AIR FORCE ASSOCIATION",
    "id": "510236816",
    "i": "510236816",
    "n": "AIR FORCE ASSOCIATION",
    "a": "10655-106th Place",
    "l": "Carmel IN 46033",
    "cs": [
      16
    ],
    "f": 39
  },
  {
    "lg": -85.275147,
    "lt": 41.44922,
    "t": "AIR FORCE ASSOCIATION",
    "id": "351921664",
    "i": "351921664",
    "n": "AIR FORCE ASSOCIATION",
    "a": "432 N State St",
    "l": "Kendallville IN 46755",
    "cs": [
      16
    ],
    "f": 41
  },
  {
    "lg": -85.854448,
    "lt": 41.280602,
    "t": "AIR FORCE ASSOCIATION",
    "id": "510236817",
    "i": "510236817",
    "n": "AIR FORCE ASSOCIATION",
    "a": "45 EMS B48 Lane",
    "l": "Warsaw IN 46582",
    "cs": [
      16
    ],
    "f": 41
  },
  {
    "lg": -85.854448,
    "lt": 41.280602,
    "t": "AIR FORCE ASSOCIATION",
    "id": "510236817",
    "i": "510236817",
    "n": "AIR FORCE ASSOCIATION",
    "a": "45 EMS B48 Lane",
    "l": "Warsaw IN 46582",
    "cs": [
      16
    ],
    "f": 41
  },
  {
    "lg": -86.476386,
    "lt": 40.554751,
    "t": "AIM-HI EXTENSION HOMEMAKERS",
    "id": "800097729",
    "i": "800097729",
    "n": "AIM-HI EXTENSION HOMEMAKERS",
    "a": "102 N 4th St",
    "l": "Flora IN 46929",
    "cs": [
      1
    ],
    "f": 40
  },
  {
    "lg": -85.127091,
    "lt": 41.152413,
    "t": "AIM SERVICES INC",
    "id": "352136616",
    "i": "352136616",
    "n": "AIM SERVICES INC",
    "a": "1730 COLONY DR",
    "l": "FORT WAYNE IN 46825",
    "cs": [
      42
    ],
    "f": 41
  },
  {
    "lg": -87.307322,
    "lt": 39.466092,
    "t": "ALTRUSA INTERNATIONAL FOUNDATION INC",
    "id": "351900053",
    "i": "351900053",
    "n": "ALTRUSA INTERNATIONAL FOUNDATION INC",
    "a": "4924 Oakridge Court",
    "l": "Terre Haute IN 47803",
    "cs": [
      100
    ],
    "f": 39
  },
  {
    "lg": -86.326363,
    "lt": 39.813309,
    "t": "AIDING OUR HOMELESS VETERANS INC",
    "id": "843848093",
    "i": "843848093",
    "n": "AIDING OUR HOMELESS VETERANS INC",
    "a": "4366 ROUND LAKE BEND",
    "l": "INDIANAPOLIS IN 46234",
    "cs": [
      12,
      16,
      1
    ],
    "f": 39,
    "u": "affirmativeeducation.com"
  },
  {
    "lg": -87.448746,
    "lt": 41.491818,
    "t": "AHEPA-DAUGHTERS OF PENELOPE DISTRICT 12 FOUNDATION INC",
    "id": "320234214",
    "i": "320234214",
    "n": "AHEPA-DAUGHTERS OF PENELOPE DISTRICT 12 FOUNDATION INC",
    "a": "PO Box 1003",
    "l": "Schererville IN 46375",
    "cs": [
      100
    ],
    "u": "https://ahepadopfoundation.org/",
    "f": 41
  },
  {
    "lg": -87.326039,
    "lt": 41.403937,
    "t": "AHEPA CHAPTER NO 78 CHARITIES INC",
    "id": "352066389",
    "i": "352066389",
    "n": "AHEPA CHAPTER NO 78 CHARITIES INC",
    "a": "608 W 93rd Court",
    "l": "CROWN POINT IN 46307",
    "cs": [
      100
    ],
    "f": 41
  },
  {
    "lg": -86.201743,
    "lt": 41.714357,
    "t": "AHEPA CHAPTER 100 CHARITIES INC",
    "id": "271506519",
    "i": "271506519",
    "n": "AHEPA CHAPTER 100 CHARITIES INC",
    "a": "53871 GENERATIONS DRIVE",
    "l": "SOUTH BEND IN 46635",
    "cs": [
      100
    ],
    "f": 41
  },
  {
    "lg": -86.013138,
    "lt": 39.908383,
    "t": "AHEPA 232 FOUNDATION",
    "id": "850827212",
    "i": "850827212",
    "n": "AHEPA 232 FOUNDATION",
    "a": "7355 Shadeland Station Way Ste B",
    "l": "Indianapolis IN 46256",
    "cs": [
      100
    ],
    "f": 39
  },
  {
    "lg": -86.456535,
    "lt": 40.042907,
    "t": "AGRICULTRAL AID INTERNATIONAL INC",
    "id": "264700883",
    "i": "264700883",
    "n": "AGRICULTRAL AID INTERNATIONAL INC",
    "a": "7175 S 200 E",
    "l": "Lebanon IN 46052",
    "cs": [
      12
    ],
    "f": 40
  },
  {
    "lg": -85.272799,
    "lt": 40.271703,
    "t": "ALBANT-DELAWARE TOWNSHIP VOLUNTEER FIRE DEPARTMENT INC",
    "id": "300101669",
    "i": "300101669",
    "n": "ALBANT-DELAWARE TOWNSHIP VOLUNTEER FIRE DEPARTMENT INC",
    "a": "214 East State Street",
    "l": "Albany IN 47320",
    "cs": [
      11
    ],
    "f": 40
  },
  {
    "lg": -85.272799,
    "lt": 40.271703,
    "t": "ALBANT-DELAWARE TOWNSHIP VOLUNTEER FIRE DEPARTMENT INC",
    "id": "300101669",
    "i": "300101669",
    "n": "ALBANT-DELAWARE TOWNSHIP VOLUNTEER FIRE DEPARTMENT INC",
    "a": "214 East State Street",
    "l": "Albany IN 47320",
    "cs": [
      11
    ],
    "f": 40
  },
  {
    "lg": -86.07211,
    "lt": 39.671143,
    "t": "ALAINA DAY MEMORIAL FOUNDATION INC",
    "id": "474390019",
    "i": "474390019",
    "n": "ALAINA DAY MEMORIAL FOUNDATION INC",
    "a": "5224 Shelbyville Rd",
    "l": "Indianapolis IN 46237",
    "cs": [
      100
    ],
    "u": "alainadaymemorialfoundation.org",
    "f": 39
  },
  {
    "lg": -86.036308,
    "lt": 41.043832,
    "t": "AKRON YOUTH LEAGUE",
    "id": "351825212",
    "i": "351825212",
    "n": "AKRON YOUTH LEAGUE",
    "a": "PO BOX 401",
    "l": "Akron IN 46910",
    "cs": [
      7
    ],
    "u": "www.akronyouthleague.com",
    "f": 41
  },
  {
    "lg": -86.25689,
    "lt": 39.795413,
    "t": "AJOKE RELIEF FOUNDATION",
    "id": "863460900",
    "i": "863460900",
    "n": "AJOKE RELIEF FOUNDATION",
    "a": "2159b Grand Prix Drive",
    "l": "Indianapolis IN 46224",
    "cs": [
      100
    ],
    "u": "www.ajokefoundation.org",
    "f": 39
  },
  {
    "lg": -87.333065,
    "lt": 41.480207,
    "t": "ALPHA SHELTER & GROUP HOME",
    "id": "911890689",
    "i": "911890689",
    "n": "ALPHA SHELTER & GROUP HOME",
    "a": "C/O 5544 CHASE STREET",
    "l": "MERRILLVILLE IN 46410",
    "cs": [
      1
    ],
    "f": 41
  },
  {
    "lg": -85.482235,
    "lt": 38.668701,
    "t": "AIR MEDICAL MEMORIAL WINGS INC",
    "id": "300300769",
    "i": "300300769",
    "n": "AIR MEDICAL MEMORIAL WINGS INC",
    "a": "4570 W Chain Mill Ct",
    "l": "Hanover IN 47243",
    "cs": [
      10
    ],
    "u": "airmedicalmemorialwings.org",
    "f": 38
  },
  {
    "lg": -87.641573,
    "lt": 38.062897,
    "t": "AIR FORCE ASSOCIATION",
    "id": "813590114",
    "i": "813590114",
    "n": "AIR FORCE ASSOCIATION",
    "a": "4120 Kuebler Rd",
    "l": "Evansville IN 47720",
    "cs": [
      16
    ],
    "f": 38
  },
  {
    "lg": -86.163477,
    "lt": 39.784102,
    "t": "ALPHA-OMICRON EDUCATIONAL FOUNDATION INC",
    "id": "351939590",
    "i": "351939590",
    "n": "ALPHA-OMICRON EDUCATIONAL FOUNDATION INC",
    "a": "1001 East New York Street",
    "l": "Indianapolis IN 46202",
    "cs": [
      5,
      100
    ],
    "u": "WWW.MONARCAACADEMY.ORG",
    "f": 39
  },
  {
    "lg": -87.559175,
    "lt": 37.954531,
    "t": "ALHAMBRA THEATRE INC",
    "id": "364530472",
    "i": "364530472",
    "n": "ALHAMBRA THEATRE INC",
    "a": "50 Adams Ave",
    "l": "Evansville IN 47713",
    "cs": [
      9
    ],
    "f": 37
  },
  {
    "lg": -87.173647,
    "lt": 38.66206,
    "t": "ALFORDSVILLE-REEVE TOWNSHIP SCHOOLS ORGANIZATION",
    "id": "352140733",
    "i": "352140733",
    "n": "ALFORDSVILLE-REEVE TOWNSHIP SCHOOLS ORGANIZATION",
    "a": "723 SAINT GEORGE AVE",
    "l": "WASHINGTON IN 47501",
    "cs": [
      5
    ],
    "f": 38
  },
  {
    "lg": -86.126918,
    "lt": 41.740931,
    "t": "AL-FADHL CHARITABLE ORGANIZATION",
    "id": "863838693",
    "i": "863838693",
    "n": "AL-FADHL CHARITABLE ORGANIZATION",
    "a": "52103 Brendon Hills Drive",
    "l": "Granger IN 46530",
    "cs": [
      100
    ],
    "f": 41,
    "u": "www.525foundation.org"
  },
  {
    "lg": -85.937722,
    "lt": 38.966511,
    "t": "ALEX RUST MEMORIAL FUND INC",
    "id": "831576359",
    "i": "831576359",
    "n": "ALEX RUST MEMORIAL FUND INC",
    "a": "8256 N Base Rd",
    "l": "Seymour IN 47274",
    "cs": [
      100
    ],
    "f": 38,
    "u": "https://www.chasingbubbles.org/"
  },
  {
    "lg": -85.834273,
    "lt": 39.927284,
    "t": "ALEX CROUCH MEMORIAL FUND FOR YOUNG GOLFERS",
    "id": "462139869",
    "i": "462139869",
    "n": "ALEX CROUCH MEMORIAL FUND FOR YOUNG GOLFERS",
    "a": "1653 W State Rd 234",
    "l": "Fortville IN 46040",
    "cs": [
      100
    ],
    "f": 39
  },
  {
    "lg": -87.34647,
    "lt": 37.952897,
    "t": "1000 MISSIONARY MOVEMENT NORTH AMERICA INC",
    "id": "383255026",
    "i": "383255026",
    "n": "1000 MISSIONARY MOVEMENT NORTH AMERICA INC",
    "a": "7766 OAK GROVE RD",
    "l": "NEWBURGH IN 47630",
    "cs": [
      1
    ],
    "f": 37
  },
  {
    "lg": -85.165915,
    "lt": 41.721181,
    "t": "ALL PAWS ANIMAL RESCUE & FOSTERING SERVICES INC",
    "id": "872736578",
    "i": "872736578",
    "n": "ALL PAWS ANIMAL RESCUE & FOSTERING SERVICES INC",
    "a": "40 LANE 250 E LAKE PLEASANT",
    "l": "ORLAND IN 46776",
    "cs": [
      42
    ],
    "f": 41
  },
  {
    "lg": -84.889699,
    "lt": 39.832079,
    "t": "ALL KIDS ACADEMY INC",
    "id": "463244553",
    "i": "463244553",
    "n": "ALL KIDS ACADEMY INC",
    "a": "2267 Roaming Hills Drive",
    "l": "Richmond IN 47374",
    "cs": [
      7
    ],
    "u": "2ndchancerescueinc.org",
    "f": 39
  },
  {
    "lg": -85.760692,
    "lt": 40.129994,
    "t": "ALL HANDS ON DECK KITTERS FOUNDATION CORP",
    "id": "814888242",
    "i": "814888242",
    "n": "ALL HANDS ON DECK KITTERS FOUNDATION CORP",
    "a": "1524 Costello Dr",
    "l": "Anderson IN 46011",
    "cs": [
      100
    ],
    "f": 40
  },
  {
    "lg": -85.976908,
    "lt": 41.722641,
    "t": "ALL GODS CHILDREN CHILDCARE MINISTRY INC",
    "id": "201369968",
    "i": "201369968",
    "n": "ALL GODS CHILDREN CHILDCARE MINISTRY INC",
    "a": "2809 calumet ave",
    "l": "elkhart IN 46514",
    "cs": [
      3
    ],
    "f": 41
  },
  {
    "lg": -86.896849,
    "lt": 40.038913,
    "t": "ALL FOR KIDS INC",
    "id": "461201197",
    "i": "461201197",
    "n": "ALL FOR KIDS INC",
    "a": "7711 S State Rd 47",
    "l": "Crawfordsville IN 47933",
    "cs": [
      7
    ],
    "f": 40
  },
  {
    "lg": -86.124634,
    "lt": 39.906046,
    "t": "ALL FOR CHILDREN INC",
    "id": "273126142",
    "i": "273126142",
    "n": "ALL FOR CHILDREN INC",
    "a": "7690 Washington Blvd",
    "l": "Indianapolis IN 46240",
    "cs": [
      3
    ],
    "f": 39
  },
  {
    "lg": -86.170706,
    "lt": 40.034796,
    "t": "ALTERNATIVES CHALLENGE EDUCATION INC",
    "id": "311139445",
    "i": "311139445",
    "n": "ALTERNATIVES CHALLENGE EDUCATION INC",
    "a": "728 E 199TH ST",
    "l": "WESTFILED IN 46074",
    "cs": [
      5
    ],
    "f": 40,
    "u": "www.allcreaturesmatter.org"
  },
  {
    "lg": -86.282625,
    "lt": 39.984562,
    "t": "ALLIE & FRIENDS FOUNDATION INC",
    "id": "814803005",
    "i": "814803005",
    "n": "ALLIE & FRIENDS FOUNDATION INC",
    "a": "11522 Willow Ridge Dr",
    "l": "Zionsville IN 46077",
    "cs": [
      100
    ],
    "u": "www.ablefund.org",
    "f": 39
  },
  {
    "lg": -86.14782,
    "lt": 41.615082,
    "t": "ALL 4 ANIMALS RESCUE INCORPORATED",
    "id": "861171931",
    "i": "861171931",
    "n": "ALL 4 ANIMALS RESCUE INCORPORATED",
    "a": "2300 W 6th St",
    "l": "Mishawaka IN 46544",
    "cs": [
      100
    ],
    "f": 41,
    "u": "www.all4animalsrescue.org"
  },
  {
    "lg": -86.657974,
    "lt": 41.062011,
    "t": "ALICIA MARIE SMIDLER ANIMAL RESCUE FUND",
    "id": "810703914",
    "i": "810703914",
    "n": "ALICIA MARIE SMIDLER ANIMAL RESCUE FUND",
    "a": "435 Northwest St",
    "l": "Winamac IN 46996",
    "cs": [
      100
    ],
    "f": 41
  },
  {
    "lg": -85.117711,
    "lt": 41.10011,
    "t": "ALLIANCE FOR HUMAN SERVICES INC",
    "id": "822582955",
    "i": "822582955",
    "n": "ALLIANCE FOR HUMAN SERVICES INC",
    "a": "3320 N CLINTON ST",
    "l": "FORT WAYNE IN 46805",
    "cs": [
      42
    ],
    "u": "WWW.ALLIANCEFORHUMANSERVICES.ORG",
    "f": 41
  },
  {
    "lg": -85.0408,
    "lt": 41.15298,
    "t": "ALLIANCE OF AIR NATIONAL GUARD FLIGHT SURGEONS C/O DR BLAS MORENO",
    "id": "050384434",
    "i": "050384434",
    "n": "ALLIANCE OF AIR NATIONAL GUARD FLIGHT SURGEONS C/O DR BLAS MORENO",
    "a": "5730 Autumn Woods Trail",
    "l": "Fort Wayne IN 46835",
    "cs": [
      16
    ],
    "f": 41
  },
  {
    "lg": -85.108804,
    "lt": 41.211995,
    "t": "ALLEN COUNTY TRAINING CENTER INC",
    "id": "352054702",
    "i": "352054702",
    "n": "ALLEN COUNTY TRAINING CENTER INC",
    "a": "10529 Tidewater Trail",
    "l": "Fort Wayne IN 46845",
    "cs": [
      6
    ],
    "f": 41
  },
  {
    "lg": -85.24165,
    "lt": 41.052918,
    "t": "ALLEN COUNTY NON-PUBLIC SCHOOL ASSOCIATION",
    "id": "474218920",
    "i": "474218920",
    "n": "ALLEN COUNTY NON-PUBLIC SCHOOL ASSOCIATION",
    "a": "10650 Aboite Center Rd",
    "l": "Fort Wayne IN 46804",
    "cs": [
      5
    ],
    "f": 41,
    "u": "www.agbball.com"
  },
  {
    "lg": -85.299234,
    "lt": 41.050882,
    "t": "ALLEN COUNTY DEAF CHILDREN INC",
    "id": "356042302",
    "i": "356042302",
    "n": "ALLEN COUNTY DEAF CHILDREN INC",
    "a": "14127 Whiskey Creek Drive",
    "l": "Fort Wayne IN 46814",
    "cs": [
      3
    ],
    "f": 41
  },
  {
    "lg": -85.16516,
    "lt": 41.069304,
    "t": "ALLEN CIRCUIT PROBLEM SOLVING COURTS INC",
    "id": "871304554",
    "i": "871304554",
    "n": "ALLEN CIRCUIT PROBLEM SOLVING COURTS INC",
    "a": "715 S Calhoun St Rm 300",
    "l": "Fort Wayne IN 46802",
    "cs": [
      11
    ],
    "f": 41
  },
  {
    "lg": -85.16516,
    "lt": 41.069304,
    "t": "ALLEN CIRCUIT PROBLEM SOLVING COURTS INC",
    "id": "871304554",
    "i": "871304554",
    "n": "ALLEN CIRCUIT PROBLEM SOLVING COURTS INC",
    "a": "715 S Calhoun St Rm 300",
    "l": "Fort Wayne IN 46802",
    "cs": [
      11
    ],
    "f": 41
  },
  {
    "lg": -85.619672,
    "lt": 40.15467,
    "t": "ALL THINGS NEW YOUTH EMPOWERMENT CENTER INCORPORATED",
    "id": "475503798",
    "i": "475503798",
    "n": "ALL THINGS NEW YOUTH EMPOWERMENT CENTER INCORPORATED",
    "a": "1808 Poplar St",
    "l": "Anderson IN 46012",
    "cs": [
      7,
      100
    ],
    "f": 40
  },
  {
    "lg": -85.999033,
    "lt": 39.721517,
    "t": "ALL SENIOR CITIZENS CONNECT CORP",
    "id": "352419250",
    "i": "352419250",
    "n": "ALL SENIOR CITIZENS CONNECT CORP",
    "a": "9552 Treyburn Lakes Drive",
    "l": "Indianapolis IN 46239",
    "cs": [
      15
    ],
    "f": 39
  },
  {
    "lg": -85.915911,
    "lt": 40.064624,
    "t": "ALMOST HOME SCHNAUZER RESCUE INC",
    "id": "464404337",
    "i": "464404337",
    "n": "ALMOST HOME SCHNAUZER RESCUE INC",
    "a": "10422 Magenta Dr",
    "l": "Noblesville IN 46060",
    "cs": [
      1
    ],
    "f": 40,
    "u": "https://ahsr.ngo"
  },
  {
    "lg": -87.129705,
    "lt": 41.460058,
    "t": "ALMA FOUNDATION INC",
    "id": "133640787",
    "i": "133640787",
    "n": "ALMA FOUNDATION INC",
    "a": "218 N 375 W",
    "l": "Valparaiso IN 46385",
    "cs": [
      100
    ],
    "f": 41
  },
  {
    "lg": -86.017173,
    "lt": 39.966704,
    "t": "ALYSE KRAUSS FOUNDATION AKF",
    "id": "472973049",
    "i": "472973049",
    "n": "ALYSE KRAUSS FOUNDATION AKF",
    "a": "10355 COTTON BLOSSOM DR",
    "l": "FISHERS IN 46038",
    "cs": [
      100
    ],
    "f": 39
  },
  {
    "lg": -86.282625,
    "lt": 39.984562,
    "t": "ALLIE & FRIENDS FOUNDATION INC",
    "id": "814803005",
    "i": "814803005",
    "n": "ALLIE & FRIENDS FOUNDATION INC",
    "a": "11522 Willow Ridge Dr",
    "l": "Zionsville IN 46077",
    "cs": [
      100
    ],
    "u": "www.ablefund.org",
    "f": 39
  },
  {
    "lg": -85.0408,
    "lt": 41.15298,
    "t": "ALLIANCE OF AIR NATIONAL GUARD FLIGHT SURGEONS C/O DR BLAS MORENO",
    "id": "050384434",
    "i": "050384434",
    "n": "ALLIANCE OF AIR NATIONAL GUARD FLIGHT SURGEONS C/O DR BLAS MORENO",
    "a": "5730 Autumn Woods Trail",
    "l": "Fort Wayne IN 46835",
    "cs": [
      16
    ],
    "f": 41
  },
  {
    "lg": -86.05872,
    "lt": 39.898839,
    "t": "ALPHA OMEGA HOUSE CORPORATION",
    "id": "631049275",
    "i": "631049275",
    "n": "ALPHA OMEGA HOUSE CORPORATION",
    "a": "5939 Castle Creek Parkway N Dr",
    "l": "Indianapolis IN 46250",
    "cs": [
      1
    ],
    "u": "https://www.alphachiomega.org/",
    "f": 39
  },
  {
    "lg": -86.271637,
    "lt": 39.849717,
    "t": "AMATEUR ATHLETIC UNION OF THE UNITED STATES",
    "id": "900773325",
    "i": "900773325",
    "n": "AMATEUR ATHLETIC UNION OF THE UNITED STATES",
    "a": "5750 Ensley Court",
    "l": "Indianapolis IN 46254",
    "cs": [
      7
    ],
    "f": 39,
    "u": "www.circlecitykings.com"
  },
  {
    "lg": -86.233341,
    "lt": 39.898613,
    "t": "ALPHA XI DELTA NATIONAL HOUSING CORPORATION INC",
    "id": "352103442",
    "i": "352103442",
    "n": "ALPHA XI DELTA NATIONAL HOUSING CORPORATION INC",
    "a": "8702 FOUNDERS RD",
    "l": "INDIANAPOLIS IN 46268",
    "cs": [
      1
    ],
    "f": 39,
    "u": "WWW.ALPHAXIDELTA.ORG"
  },
  {
    "lg": -86.177595,
    "lt": 39.898143,
    "t": "ALPHA UPSILON HOUSE ASSOCIATION",
    "id": "382117979",
    "i": "382117979",
    "n": "ALPHA UPSILON HOUSE ASSOCIATION",
    "a": "8710 N Meridian Street",
    "l": "Indianapolis IN 46260",
    "cs": [
      1
    ],
    "u": "www.adgfoundation.org",
    "f": 39
  },
  {
    "lg": -85.459814,
    "lt": 40.236332,
    "t": "ALPHA CHI OMEGA HOUSE CORPORATION FOR GAMMA MU CHAPTER",
    "id": "237056124",
    "i": "237056124",
    "n": "ALPHA CHI OMEGA HOUSE CORPORATION FOR GAMMA MU CHAPTER",
    "a": "2705 Twickingham Drive",
    "l": "Muncie IN 47304",
    "cs": [
      1
    ],
    "f": 40
  },
  {
    "lg": -86.05872,
    "lt": 39.898839,
    "t": "ALPHA OMEGA HOUSE CORPORATION",
    "id": "631049275",
    "i": "631049275",
    "n": "ALPHA OMEGA HOUSE CORPORATION",
    "a": "5939 Castle Creek Parkway N Dr",
    "l": "Indianapolis IN 46250",
    "cs": [
      1
    ],
    "u": "https://www.alphachiomega.org/",
    "f": 39
  },
  {
    "lg": -86.05872,
    "lt": 39.898839,
    "t": "ALPHA OMEGA HOUSE CORPORATION",
    "id": "631049275",
    "i": "631049275",
    "n": "ALPHA OMEGA HOUSE CORPORATION",
    "a": "5939 Castle Creek Parkway N Dr",
    "l": "Indianapolis IN 46250",
    "cs": [
      1
    ],
    "u": "https://www.alphachiomega.org/",
    "f": 39
  },
  {
    "lg": -86.989218,
    "lt": 40.479649,
    "t": "ALPHA FOUNDATION OF PHI SIGMA RHO CORPORATION",
    "id": "812873510",
    "i": "812873510",
    "n": "ALPHA FOUNDATION OF PHI SIGMA RHO CORPORATION",
    "a": "1001 David Ross Rd",
    "l": "West Lafayette IN 47906",
    "cs": [
      100
    ],
    "u": "https://aakfgreatlakes.com/",
    "f": 40
  },
  {
    "lg": -86.233341,
    "lt": 39.898613,
    "t": "ALPHA XI DELTA NATIONAL HOUSING CORPORATION INC",
    "id": "352103442",
    "i": "352103442",
    "n": "ALPHA XI DELTA NATIONAL HOUSING CORPORATION INC",
    "a": "8702 FOUNDERS RD",
    "l": "INDIANAPOLIS IN 46268",
    "cs": [
      1
    ],
    "f": 39,
    "u": "WWW.ALPHAXIDELTA.ORG"
  },
  {
    "lg": -86.05872,
    "lt": 39.898839,
    "t": "ALPHA OMEGA HOUSE CORPORATION",
    "id": "631049275",
    "i": "631049275",
    "n": "ALPHA OMEGA HOUSE CORPORATION",
    "a": "5939 Castle Creek Parkway N Dr",
    "l": "Indianapolis IN 46250",
    "cs": [
      1
    ],
    "u": "https://www.alphachiomega.org/",
    "f": 39
  },
  {
    "lg": -86.134374,
    "lt": 39.829397,
    "t": "ALPHA OMEGA CHI SORORITY INCORPORATED",
    "id": "810791518",
    "i": "810791518",
    "n": "ALPHA OMEGA CHI SORORITY INCORPORATED",
    "a": "3969 Meadows Drive",
    "l": "Indianapolis IN 46205",
    "cs": [
      100
    ],
    "f": 39
  },
  {
    "lg": -86.163477,
    "lt": 39.784102,
    "t": "ALPHA-OMICRON EDUCATIONAL FOUNDATION INC",
    "id": "351939590",
    "i": "351939590",
    "n": "ALPHA-OMICRON EDUCATIONAL FOUNDATION INC",
    "a": "1001 East New York Street",
    "l": "Indianapolis IN 46202",
    "cs": [
      5,
      100
    ],
    "u": "WWW.MONARCAACADEMY.ORG",
    "f": 39
  },
  {
    "lg": -87.501485,
    "lt": 38.628561,
    "t": "ALPHA OF SIGMA PI INTERNATIONAL EDUCATIONAL CORPORATION",
    "id": "351925132",
    "i": "351925132",
    "n": "ALPHA OF SIGMA PI INTERNATIONAL EDUCATIONAL CORPORATION",
    "a": "PO Box 1869",
    "l": "Vincennes IN 47591",
    "cs": [
      5
    ],
    "f": 38,
    "u": "www.sigmapivu.org"
  },
  {
    "lg": -87.333065,
    "lt": 41.480207,
    "t": "ALPHA SHELTER & GROUP HOME",
    "id": "911890689",
    "i": "911890689",
    "n": "ALPHA SHELTER & GROUP HOME",
    "a": "C/O 5544 CHASE STREET",
    "l": "MERRILLVILLE IN 46410",
    "cs": [
      1
    ],
    "f": 41
  },
  {
    "lg": -86.200725,
    "lt": 39.848228,
    "t": "ALPHA PHIT FOUNDATION INC",
    "id": "884109463",
    "i": "884109463",
    "n": "ALPHA PHIT FOUNDATION INC",
    "a": "5832 DAPPLE TRACE INDIANAPOLIS",
    "l": "INDIANA IN 46228",
    "cs": [
      100
    ],
    "f": 39
  },
  {
    "lg": -86.174761,
    "lt": 39.962604,
    "t": "ALPHA SIGMA PHI FOUNDATION INC",
    "id": "141908351",
    "i": "141908351",
    "n": "ALPHA SIGMA PHI FOUNDATION INC",
    "a": "710 ADAMS ST",
    "l": "CARMEL IN 46032",
    "cs": [
      100
    ],
    "f": 39
  },
  {
    "lg": -86.382425,
    "lt": 39.86391,
    "t": "ALPHA XI CHAPTER OF PHI KAPPA SIGMA FOUNDATION INC",
    "id": "352051805",
    "i": "352051805",
    "n": "ALPHA XI CHAPTER OF PHI KAPPA SIGMA FOUNDATION INC",
    "a": "7101 KENNESAW CIRCLE",
    "l": "BROWNSBURG IN 46112",
    "cs": [
      100
    ],
    "f": 39
  },
  {
    "lg": -86.177595,
    "lt": 39.898143,
    "t": "ALPHA UPSILON HOUSE ASSOCIATION",
    "id": "382117979",
    "i": "382117979",
    "n": "ALPHA UPSILON HOUSE ASSOCIATION",
    "a": "8710 N Meridian Street",
    "l": "Indianapolis IN 46260",
    "cs": [
      1
    ],
    "u": "www.adgfoundation.org",
    "f": 39
  },
  {
    "lg": -85.157338,
    "lt": 39.624084,
    "t": "ALTRUSA INTERNATIONAL FOUNDATION INC",
    "id": "472331804",
    "i": "472331804",
    "n": "ALTRUSA INTERNATIONAL FOUNDATION INC",
    "a": "760 S Casteel Rd",
    "l": "Connersville IN 47331",
    "cs": [
      100
    ],
    "f": 39
  },
  {
    "lg": -87.368484,
    "lt": 41.545938,
    "t": "ALTRUSA INTERNATIONAL FOUNDATION INC",
    "id": "201983156",
    "i": "201983156",
    "n": "ALTRUSA INTERNATIONAL FOUNDATION INC",
    "a": "4200 w ridge road",
    "l": "gary IN 46408",
    "cs": [
      100
    ],
    "f": 41
  },
  {
    "lg": -86.108848,
    "lt": 39.867114,
    "t": "ALTRUSA FOUNDATION OF INDIANAPOLIS INC",
    "id": "352123383",
    "i": "352123383",
    "n": "ALTRUSA FOUNDATION OF INDIANAPOLIS INC",
    "a": "410 EAST 56TH STREET",
    "l": "INDIANAPOLIS IN 46220",
    "cs": [
      100
    ],
    "f": 39
  },
  {
    "lg": -86.170706,
    "lt": 40.034796,
    "t": "ALTERNATIVES CHALLENGE EDUCATION INC",
    "id": "311139445",
    "i": "311139445",
    "n": "ALTERNATIVES CHALLENGE EDUCATION INC",
    "a": "728 E 199TH ST",
    "l": "WESTFILED IN 46074",
    "cs": [
      5
    ],
    "f": 40,
    "u": "www.allcreaturesmatter.org"
  },
  {
    "lg": -86.163477,
    "lt": 39.784102,
    "t": "ALPHA-OMICRON EDUCATIONAL FOUNDATION INC",
    "id": "351939590",
    "i": "351939590",
    "n": "ALPHA-OMICRON EDUCATIONAL FOUNDATION INC",
    "a": "1001 East New York Street",
    "l": "Indianapolis IN 46202",
    "cs": [
      5,
      100
    ],
    "u": "WWW.MONARCAACADEMY.ORG",
    "f": 39
  },
  {
    "lg": -86.233341,
    "lt": 39.898613,
    "t": "ALPHA XI DELTA NATIONAL HOUSING CORPORATION INC",
    "id": "352103442",
    "i": "352103442",
    "n": "ALPHA XI DELTA NATIONAL HOUSING CORPORATION INC",
    "a": "8702 FOUNDERS RD",
    "l": "INDIANAPOLIS IN 46268",
    "cs": [
      1
    ],
    "f": 39,
    "u": "WWW.ALPHAXIDELTA.ORG"
  },
  {
    "lg": -85.36958,
    "lt": 39.930459,
    "t": "ALUMNI ASSOCIATION OF STRAUGHN HIGH SCHOOL",
    "id": "351590170",
    "i": "351590170",
    "n": "ALUMNI ASSOCIATION OF STRAUGHN HIGH SCHOOL",
    "a": "721 CRESCENT DR",
    "l": "NEW CASTLE IN 47362",
    "cs": [
      5
    ],
    "f": 39
  },
  {
    "lg": -87.307322,
    "lt": 39.466092,
    "t": "ALTRUSA INTERNATIONAL FOUNDATION INC",
    "id": "351900053",
    "i": "351900053",
    "n": "ALTRUSA INTERNATIONAL FOUNDATION INC",
    "a": "4924 Oakridge Court",
    "l": "Terre Haute IN 47803",
    "cs": [
      100
    ],
    "f": 39
  },
  {
    "lg": -86.043592,
    "lt": 39.473489,
    "t": "AMATEUR ATHLETIC UNION OF THE UNITED STATES",
    "id": "831703869",
    "i": "831703869",
    "n": "AMATEUR ATHLETIC UNION OF THE UNITED STATES",
    "a": "4096 S 200 E",
    "l": "FRANKLIN IN 46131",
    "cs": [
      7
    ],
    "f": 39
  },
  {
    "lg": -85.684898,
    "lt": 41.208342,
    "t": "AMATEUR ATHLETIC UNION OF THE UNITED STATES",
    "id": "453618024",
    "i": "453618024",
    "n": "AMATEUR ATHLETIC UNION OF THE UNITED STATES",
    "a": "8075 W Old Trail Rd - 92",
    "l": "Pierceton IN 46562",
    "cs": [
      7
    ],
    "f": 41
  },
  {
    "lg": -87.180707,
    "lt": 41.59082,
    "t": "AMATEUR ATHLETIC UNION OF THE UNITED STATES",
    "id": "800755160",
    "i": "800755160",
    "n": "AMATEUR ATHLETIC UNION OF THE UNITED STATES",
    "a": "2242 Amarillo Street",
    "l": "Portage IN 46368",
    "cs": [
      7
    ],
    "u": "www.portagewrestling.com",
    "f": 41
  },
  {
    "lg": -87.244908,
    "lt": 41.518185,
    "t": "AMATEUR ATHLETIC UNION OF THE UNITED STATES",
    "id": "611618715",
    "i": "611618715",
    "n": "AMATEUR ATHLETIC UNION OF THE UNITED STATES",
    "a": "400 N Lake Park Avenue B6N",
    "l": "Hobart IN 46342",
    "cs": [
      7
    ],
    "u": "www.rla201medcom.org",
    "f": 41
  },
  {
    "lg": -86.271637,
    "lt": 39.849717,
    "t": "AMATEUR ATHLETIC UNION OF THE UNITED STATES",
    "id": "900773325",
    "i": "900773325",
    "n": "AMATEUR ATHLETIC UNION OF THE UNITED STATES",
    "a": "5750 Ensley Court",
    "l": "Indianapolis IN 46254",
    "cs": [
      7
    ],
    "f": 39,
    "u": "www.circlecitykings.com"
  },
  {
    "lg": -86.094553,
    "lt": 40.437275,
    "t": "AMATEUR ATHLETIC UNION OF THE UNITED STATES",
    "id": "275304676",
    "i": "275304676",
    "n": "AMATEUR ATHLETIC UNION OF THE UNITED STATES",
    "a": "715 Aldridge Drive",
    "l": "Kokomo IN 46902",
    "cs": [
      7
    ],
    "f": 40
  },
  {
    "lg": -85.847601,
    "lt": 38.283506,
    "t": "AMATEUR ATHLETIC UNION OF THE UNITED STATES",
    "id": "205438468",
    "i": "205438468",
    "n": "AMATEUR ATHLETIC UNION OF THE UNITED STATES",
    "a": "4110 Royal Oak Dr",
    "l": "New Albany IN 47150",
    "cs": [
      7
    ],
    "f": 38
  },
  {
    "lg": -86.32062,
    "lt": 39.715527,
    "t": "AMATEUR ATHLETIC UNION OF THE UNITED STATES",
    "id": "202709529",
    "i": "202709529",
    "n": "AMATEUR ATHLETIC UNION OF THE UNITED STATES",
    "a": "1633 Walpole Way",
    "l": "Indianapolis IN 46231",
    "cs": [
      7
    ],
    "u": "www.indyhoosiersbball.com",
    "f": 39
  },
  {
    "lg": -86.467254,
    "lt": 39.229815,
    "t": "AMATEUR ATHLETIC UNION OF THE UNITED STATES",
    "id": "352216442",
    "i": "352216442",
    "n": "AMATEUR ATHLETIC UNION OF THE UNITED STATES",
    "a": "733 N Keystone Court",
    "l": "Bloomington IN 47408",
    "cs": [
      7
    ],
    "f": 39
  },
  {
    "lg": -86.017173,
    "lt": 39.966704,
    "t": "ALYSE KRAUSS FOUNDATION AKF",
    "id": "472973049",
    "i": "472973049",
    "n": "ALYSE KRAUSS FOUNDATION AKF",
    "a": "10355 COTTON BLOSSOM DR",
    "l": "FISHERS IN 46038",
    "cs": [
      100
    ],
    "f": 39
  },
  {
    "lg": -86.1092,
    "lt": 39.774142,
    "t": "ALUMNI FUNDS CORPORATION",
    "id": "811780457",
    "i": "811780457",
    "n": "ALUMNI FUNDS CORPORATION",
    "a": "102 N Bosart Ave",
    "l": "Indianapolis IN 46201",
    "cs": [
      100
    ],
    "u": "alumnifunds.org",
    "f": 39
  },
  {
    "lg": -85.944127,
    "lt": 41.676594,
    "t": "111 HOME HEALTH CARE AGENCY INC",
    "id": "320392652",
    "i": "320392652",
    "n": "111 HOME HEALTH CARE AGENCY INC",
    "a": "336 W Garfield Ave",
    "l": "Elkhart IN 46516",
    "cs": [
      10,
      1
    ],
    "f": 41
  },
  {
    "lg": -85.00655,
    "lt": 41.649589,
    "t": "101 LAKES ACADEMY AND FARM SCHOOL",
    "id": "203729588",
    "i": "203729588",
    "n": "101 LAKES ACADEMY AND FARM SCHOOL",
    "a": "212 South West Street",
    "l": "Angola IN 46703",
    "cs": [
      5
    ],
    "f": 41
  },
  {
    "lg": -87.34647,
    "lt": 37.952897,
    "t": "1000 MISSIONARY MOVEMENT NORTH AMERICA INC",
    "id": "383255026",
    "i": "383255026",
    "n": "1000 MISSIONARY MOVEMENT NORTH AMERICA INC",
    "a": "7766 OAK GROVE RD",
    "l": "NEWBURGH IN 47630",
    "cs": [
      1
    ],
    "f": 37
  }
]