[
  {
    "lg": -93.620859,
    "lt": 32.453017,
    "t": "26 OPERATIONAL WEATHER SQUADRON UNIT ADVISORY COUNCIL",
    "id": "680503314",
    "i": "680503314",
    "n": "26 OPERATIONAL WEATHER SQUADRON UNIT ADVISORY COUNCIL",
    "a": "50 Vanderburg",
    "l": "Bossier LA 71112",
    "cs": [
      9
    ],
    "f": 32
  },
  {
    "lg": -93.106492,
    "lt": 31.741703,
    "t": "AMERICAN INNS OF COURT FOUNDATION",
    "id": "562463847",
    "i": "562463847",
    "n": "AMERICAN INNS OF COURT FOUNDATION",
    "a": "1901 Texas St",
    "l": "Natchitoches LA 71457",
    "cs": [
      11,
      100
    ],
    "f": 31,
    "u": "http://www.achildsdesire.org"
  },
  {
    "lg": -93.215443,
    "lt": 30.226792,
    "t": "AMERICAN INNS OF COURT FOUNDATION",
    "id": "721280180",
    "i": "721280180",
    "n": "AMERICAN INNS OF COURT FOUNDATION",
    "a": "1011 Lakeshore Dr Ste 402",
    "l": "Lake Charles LA 70601",
    "cs": [
      11,
      100
    ],
    "f": 30,
    "u": "wilbert_landry@yahoo.com"
  },
  {
    "lg": -91.927467,
    "lt": 30.134781,
    "t": "AMATEUR ATHLETIC UNION OF THE UNITED STATES INC",
    "id": "464612762",
    "i": "464612762",
    "n": "AMATEUR ATHLETIC UNION OF THE UNITED STATES INC",
    "a": "311 Stags Leap Lane",
    "l": "Broussard LA 70518",
    "cs": [
      7
    ],
    "f": 30
  },
  {
    "lg": -90.032322,
    "lt": 29.937445,
    "t": "10 RAHAB COURT",
    "id": "720977105",
    "i": "720977105",
    "n": "10 RAHAB COURT",
    "a": "1757 PACE BLVD",
    "l": "NEW ORLEANS LA 70114",
    "cs": [
      11
    ],
    "f": 29,
    "u": "WWW.AMAZONSPORTS.ORG"
  },
  {
    "lg": -91.899171,
    "lt": 31.520809,
    "t": "ALMOST HOME BEHAVIORAL HEALTH MINISTRIES",
    "id": "823367230",
    "i": "823367230",
    "n": "ALMOST HOME BEHAVIORAL HEALTH MINISTRIES",
    "a": "783 HIGHWAY 3037",
    "l": "JONESVILLE LA 71343",
    "cs": [
      10,
      1
    ],
    "f": 31
  },
  {
    "lg": -93.630383,
    "lt": 32.722671,
    "t": "AMATEUR ATHLETIC UNION OF THE UNITED STATES INC",
    "id": "900807340",
    "i": "900807340",
    "n": "AMATEUR ATHLETIC UNION OF THE UNITED STATES INC",
    "a": "5208 Meghan Caye Lane",
    "l": "Benton LA 71006",
    "cs": [
      7
    ],
    "u": "WWW.4HISKIDS.ORG",
    "f": 32
  },
  {
    "lg": -90.032322,
    "lt": 29.937445,
    "t": "10 RAHAB COURT",
    "id": "720977105",
    "i": "720977105",
    "n": "10 RAHAB COURT",
    "a": "1757 PACE BLVD",
    "l": "NEW ORLEANS LA 70114",
    "cs": [
      11
    ],
    "f": 29,
    "u": "WWW.AMAZONSPORTS.ORG"
  },
  {
    "lg": -93.804064,
    "lt": 32.393679,
    "t": "360 SPORTS & TRAINING ACADEMY",
    "id": "821305055",
    "i": "821305055",
    "n": "360 SPORTS & TRAINING ACADEMY",
    "a": "2533 Bert Kouns Suite 115 Room A",
    "l": "Shreveport LA 71118",
    "cs": [
      7,
      6
    ],
    "f": 32
  },
  {
    "lg": -91.878669,
    "lt": 29.921943,
    "t": "AGAPE COMMUNITY SERVICES",
    "id": "331165217",
    "i": "331165217",
    "n": "AGAPE COMMUNITY SERVICES",
    "a": "1911 SQUIRREL RUN",
    "l": "NEW IBERIA LA 70560",
    "cs": [
      42
    ],
    "f": 29
  },
  {
    "lg": -91.070972,
    "lt": 30.394045,
    "t": "AMATEUR ATHLETIC UNION OF THE UNITED STATES INC",
    "id": "454931226",
    "i": "454931226",
    "n": "AMATEUR ATHLETIC UNION OF THE UNITED STATES INC",
    "a": "5242 butter creek on g6",
    "l": "Baton rouge LA LA 70809",
    "cs": [
      7
    ],
    "f": 30,
    "u": "www.dynastynation.org"
  },
  {
    "lg": -93.731646,
    "lt": 32.483775,
    "t": "AGC SHREVEPORT CHAPTER SCHOLARSHIP FOUNDATION INC",
    "id": "263683026",
    "i": "263683026",
    "n": "AGC SHREVEPORT CHAPTER SCHOLARSHIP FOUNDATION INC",
    "a": "2025 Southern Ave",
    "l": "Shreveport LA 71104",
    "cs": [
      5,
      100
    ],
    "f": 32
  },
  {
    "lg": -90.063421,
    "lt": 30.407038,
    "t": "30 BY NINETY THEATRE INC",
    "id": "471339192",
    "i": "471339192",
    "n": "30 BY NINETY THEATRE INC",
    "a": "1293 Ridge Way",
    "l": "Mandeville LA 70471",
    "cs": [
      9
    ],
    "f": 30
  },
  {
    "lg": -90.069648,
    "lt": 29.937353,
    "t": "AMERICAN INNS OF COURT FOUNDATION",
    "id": "352369861",
    "i": "352369861",
    "n": "AMERICAN INNS OF COURT FOUNDATION",
    "a": "601 Poydras St Ste 2775",
    "l": "New Orleans LA 70130",
    "cs": [
      11,
      100
    ],
    "u": "www.moonshadowfest.com",
    "f": 29
  },
  {
    "lg": -93.781822,
    "lt": 32.2565,
    "t": "71078 HOME RUN CLUB",
    "id": "872136195",
    "i": "872136195",
    "n": "71078 HOME RUN CLUB",
    "a": "192 Country Place",
    "l": "Stonewall LA 71078",
    "cs": [
      1
    ],
    "f": 32
  },
  {
    "lg": -90.086944,
    "lt": 29.975137,
    "t": "ALL FOR ONE AFO FOUNDATION % HAROLD BATTISTE",
    "id": "010694772",
    "i": "010694772",
    "n": "ALL FOR ONE AFO FOUNDATION % HAROLD BATTISTE",
    "a": "3443 ESPLANADE AVE RM/STE 115",
    "l": "NEW ORLEANS LA 70119",
    "cs": [
      15,
      100
    ],
    "u": "WWW.504HEALTHNET.ORG",
    "f": 29
  },
  {
    "lg": -90.032322,
    "lt": 29.937445,
    "t": "10 RAHAB COURT",
    "id": "720977105",
    "i": "720977105",
    "n": "10 RAHAB COURT",
    "a": "1757 PACE BLVD",
    "l": "NEW ORLEANS LA 70114",
    "cs": [
      11
    ],
    "f": 29,
    "u": "WWW.AMAZONSPORTS.ORG"
  },
  {
    "lg": -91.899171,
    "lt": 31.520809,
    "t": "ALMOST HOME BEHAVIORAL HEALTH MINISTRIES",
    "id": "823367230",
    "i": "823367230",
    "n": "ALMOST HOME BEHAVIORAL HEALTH MINISTRIES",
    "a": "783 HIGHWAY 3037",
    "l": "JONESVILLE LA 71343",
    "cs": [
      10,
      1
    ],
    "f": 31
  },
  {
    "lg": -90.110302,
    "lt": 29.835653,
    "t": "ADLINES HELPING HANDS FOUNDATION INC",
    "id": "862457303",
    "i": "862457303",
    "n": "ADLINES HELPING HANDS FOUNDATION INC",
    "a": "6145 Adam Drive",
    "l": "Marrero LA 70072",
    "cs": [
      100
    ],
    "f": 29
  },
  {
    "lg": -90.032322,
    "lt": 29.937445,
    "t": "10 RAHAB COURT",
    "id": "720977105",
    "i": "720977105",
    "n": "10 RAHAB COURT",
    "a": "1757 PACE BLVD",
    "l": "NEW ORLEANS LA 70114",
    "cs": [
      11
    ],
    "f": 29,
    "u": "WWW.AMAZONSPORTS.ORG"
  },
  {
    "lg": -90.163314,
    "lt": 29.959763,
    "t": "A BETTER DAY YOUTH PROGRAM",
    "id": "271546031",
    "i": "271546031",
    "n": "A BETTER DAY YOUTH PROGRAM",
    "a": "630 Central Ave 217",
    "l": "Jefferson LA 70121",
    "cs": [
      7
    ],
    "f": 29
  },
  {
    "lg": -91.878669,
    "lt": 29.921943,
    "t": "AGAPE COMMUNITY SERVICES",
    "id": "331165217",
    "i": "331165217",
    "n": "AGAPE COMMUNITY SERVICES",
    "a": "1911 SQUIRREL RUN",
    "l": "NEW IBERIA LA 70560",
    "cs": [
      42
    ],
    "f": 29
  },
  {
    "lg": -90.086944,
    "lt": 29.975137,
    "t": "ALL FOR ONE AFO FOUNDATION % HAROLD BATTISTE",
    "id": "010694772",
    "i": "010694772",
    "n": "ALL FOR ONE AFO FOUNDATION % HAROLD BATTISTE",
    "a": "3443 ESPLANADE AVE RM/STE 115",
    "l": "NEW ORLEANS LA 70119",
    "cs": [
      15,
      100
    ],
    "u": "WWW.504HEALTHNET.ORG",
    "f": 29
  },
  {
    "lg": -90.064783,
    "lt": 29.96744,
    "t": "ABIGAIL COURT NO 7",
    "id": "823035781",
    "i": "823035781",
    "n": "ABIGAIL COURT NO 7",
    "a": "1614 Basin Street",
    "l": "New Orleans LA 70116",
    "cs": [
      11
    ],
    "f": 29
  },
  {
    "lg": -91.991039,
    "lt": 30.241832,
    "t": "AMERICAN INNS OF COURT FOUNDATION",
    "id": "721378257",
    "i": "721378257",
    "n": "AMERICAN INNS OF COURT FOUNDATION",
    "a": "600 Jefferson St Ste 800",
    "l": "Lafayette LA 70501",
    "cs": [
      11,
      100
    ],
    "u": "www.redhotsbasketball.com",
    "f": 30
  },
  {
    "lg": -92.081305,
    "lt": 30.195461,
    "t": "AMATEUR ATHLETIC UNION OF THE UNITED STATES",
    "id": "451499953",
    "i": "451499953",
    "n": "AMATEUR ATHLETIC UNION OF THE UNITED STATES",
    "a": "401 Dulles E",
    "l": "Lafayette LA 70506",
    "cs": [
      7
    ],
    "f": 30
  },
  {
    "lg": -90.102484,
    "lt": 29.92393,
    "t": "AMERICAN COLLEGE OF DENTISTS INC",
    "id": "521415954",
    "i": "521415954",
    "n": "AMERICAN COLLEGE OF DENTISTS INC",
    "a": "3634 Coliseum Street",
    "l": "New Orleans LA 70115",
    "cs": [
      5
    ],
    "u": "WWW.AHOMEAMONGFRIENDS.ORG",
    "f": 29
  },
  {
    "lg": -92.081305,
    "lt": 30.195461,
    "t": "AMATEUR ATHLETIC UNION OF THE UNITED STATES",
    "id": "451499953",
    "i": "451499953",
    "n": "AMATEUR ATHLETIC UNION OF THE UNITED STATES",
    "a": "401 Dulles E",
    "l": "Lafayette LA 70506",
    "cs": [
      7
    ],
    "f": 30
  },
  {
    "lg": -90.071002,
    "lt": 29.950279,
    "t": "A GREAT LOUISIANA INC",
    "id": "810750578",
    "i": "810750578",
    "n": "A GREAT LOUISIANA INC",
    "a": "701 POYDRAS ST",
    "l": "NEW ORLEANS LA 70139",
    "cs": [
      9
    ],
    "f": 29
  },
  {
    "lg": -90.069648,
    "lt": 29.937353,
    "t": "AMERICAN INNS OF COURT FOUNDATION",
    "id": "352369861",
    "i": "352369861",
    "n": "AMERICAN INNS OF COURT FOUNDATION",
    "a": "601 Poydras St Ste 2775",
    "l": "New Orleans LA 70130",
    "cs": [
      11,
      100
    ],
    "u": "www.moonshadowfest.com",
    "f": 29
  },
  {
    "lg": -93.215443,
    "lt": 30.226792,
    "t": "AMERICAN INNS OF COURT FOUNDATION",
    "id": "721280180",
    "i": "721280180",
    "n": "AMERICAN INNS OF COURT FOUNDATION",
    "a": "1011 Lakeshore Dr Ste 402",
    "l": "Lake Charles LA 70601",
    "cs": [
      11,
      100
    ],
    "f": 30,
    "u": "wilbert_landry@yahoo.com"
  },
  {
    "lg": -93.106492,
    "lt": 31.741703,
    "t": "AMERICAN INNS OF COURT FOUNDATION",
    "id": "562463847",
    "i": "562463847",
    "n": "AMERICAN INNS OF COURT FOUNDATION",
    "a": "1901 Texas St",
    "l": "Natchitoches LA 71457",
    "cs": [
      11,
      100
    ],
    "f": 31,
    "u": "http://www.achildsdesire.org"
  },
  {
    "lg": -93.70989,
    "lt": 32.456691,
    "t": "AMATEUR ATHLETIC UNION OF THE UNITED STATES",
    "id": "800570460",
    "i": "800570460",
    "n": "AMATEUR ATHLETIC UNION OF THE UNITED STATES",
    "a": "273 Pierremont Rd",
    "l": "Shreveport LA 71105",
    "cs": [
      7
    ],
    "f": 32
  },
  {
    "lg": -91.991039,
    "lt": 30.241832,
    "t": "AMERICAN INNS OF COURT FOUNDATION",
    "id": "721378257",
    "i": "721378257",
    "n": "AMERICAN INNS OF COURT FOUNDATION",
    "a": "600 Jefferson St Ste 800",
    "l": "Lafayette LA 70501",
    "cs": [
      11,
      100
    ],
    "u": "www.redhotsbasketball.com",
    "f": 30
  },
  {
    "lg": -92.105911,
    "lt": 32.532929,
    "t": "AMERICAN INNS OF COURT FOUNDATION",
    "id": "721195653",
    "i": "721195653",
    "n": "AMERICAN INNS OF COURT FOUNDATION",
    "a": "201 Jackson St Ste 201",
    "l": "Monroe LA 71201",
    "cs": [
      11,
      100
    ],
    "f": 32
  },
  {
    "lg": -90.25345,
    "lt": 30.027292,
    "t": "AMATEUR ATHLETIC UNION OF THE UNITED STATES INC",
    "id": "300721125",
    "i": "300721125",
    "n": "AMATEUR ATHLETIC UNION OF THE UNITED STATES INC",
    "a": "66 Chateau Mouton",
    "l": "Kenner LA 70065",
    "cs": [
      7
    ],
    "f": 30
  },
  {
    "lg": -91.259393,
    "lt": 30.353674,
    "t": "AMATEUR ATHLETIC UNION OF THE UNITED STATES INC",
    "id": "874323694",
    "i": "874323694",
    "n": "AMATEUR ATHLETIC UNION OF THE UNITED STATES INC",
    "a": "4792 E Sunset Loop",
    "l": "Addis LA 70710",
    "cs": [
      7
    ],
    "u": "www.yourgrowthplace.org",
    "f": 30
  },
  {
    "lg": -91.878669,
    "lt": 29.921943,
    "t": "AGAPE COMMUNITY SERVICES",
    "id": "331165217",
    "i": "331165217",
    "n": "AGAPE COMMUNITY SERVICES",
    "a": "1911 SQUIRREL RUN",
    "l": "NEW IBERIA LA 70560",
    "cs": [
      42
    ],
    "f": 29
  },
  {
    "lg": -90.367309,
    "lt": 29.968947,
    "t": "AMATEUR ATHLETIC UNION OF THE US INC",
    "id": "851533832",
    "i": "851533832",
    "n": "AMATEUR ATHLETIC UNION OF THE US INC",
    "a": "114 Dunleith Dr",
    "l": "Destrehan LA 70047",
    "cs": [
      7
    ],
    "f": 29
  },
  {
    "lg": -89.794189,
    "lt": 30.26187,
    "t": "AK LEGACY FOUNDATION",
    "id": "850885470",
    "i": "850885470",
    "n": "AK LEGACY FOUNDATION",
    "a": "330 Oak Harbor Blvd Suite B",
    "l": "Slidell LA 70458",
    "cs": [
      100
    ],
    "f": 30
  },
  {
    "lg": -89.953028,
    "lt": 30.484687,
    "t": "ALPHA DELTA PI HOUSE CORPORATION DELTA ETA CHAPTER",
    "id": "726032578",
    "i": "726032578",
    "n": "ALPHA DELTA PI HOUSE CORPORATION DELTA ETA CHAPTER",
    "a": "220 Bald Eagle Dr",
    "l": "Abita Springs LA 70420",
    "cs": [
      1
    ],
    "u": "abitaboosterclub.com",
    "f": 30
  },
  {
    "lg": -90.064783,
    "lt": 29.96744,
    "t": "ABIGAIL COURT NO 7",
    "id": "823035781",
    "i": "823035781",
    "n": "ABIGAIL COURT NO 7",
    "a": "1614 Basin Street",
    "l": "New Orleans LA 70116",
    "cs": [
      11
    ],
    "f": 29
  },
  {
    "lg": -91.092135,
    "lt": 30.331942,
    "t": "AMAZING SICKLE CELL KIDS FOUNDATION",
    "id": "812473566",
    "i": "812473566",
    "n": "AMAZING SICKLE CELL KIDS FOUNDATION",
    "a": "9656 BURBANK DR SUITE B",
    "l": "BATON ROUGE LA 70810",
    "cs": [
      7,
      100
    ],
    "u": "WWW.ABCDADE.ORG",
    "f": 30
  },
  {
    "lg": -89.799212,
    "lt": 30.420852,
    "t": "ABBYS ARK FOUNDATION INC",
    "id": "462985773",
    "i": "462985773",
    "n": "ABBYS ARK FOUNDATION INC",
    "a": "39181 Pine St",
    "l": "Pearl River LA 70452",
    "cs": [
      100
    ],
    "f": 30
  },
  {
    "lg": -92.193173,
    "lt": 29.894612,
    "t": "ABBEVILLE GENERAL HOSPITAL VOLUNTEERS INC",
    "id": "721165743",
    "i": "721165743",
    "n": "ABBEVILLE GENERAL HOSPITAL VOLUNTEERS INC",
    "a": "118 N Hospital Dr",
    "l": "Abbeville LA 70510",
    "cs": [
      10
    ],
    "f": 29
  },
  {
    "lg": -92.193173,
    "lt": 29.894612,
    "t": "ABBEVILLE GENERAL HOSPITAL VOLUNTEERS INC",
    "id": "721165743",
    "i": "721165743",
    "n": "ABBEVILLE GENERAL HOSPITAL VOLUNTEERS INC",
    "a": "118 N Hospital Dr",
    "l": "Abbeville LA 70510",
    "cs": [
      10
    ],
    "f": 29
  },
  {
    "lg": -92.193173,
    "lt": 29.894612,
    "t": "ABBEVILLE GENERAL HOSPITAL VOLUNTEERS INC",
    "id": "721165743",
    "i": "721165743",
    "n": "ABBEVILLE GENERAL HOSPITAL VOLUNTEERS INC",
    "a": "118 N Hospital Dr",
    "l": "Abbeville LA 70510",
    "cs": [
      10
    ],
    "f": 29
  },
  {
    "lg": -93.451224,
    "lt": 30.121881,
    "t": "ACTS MISSIONS",
    "id": "824122988",
    "i": "824122988",
    "n": "ACTS MISSIONS",
    "a": "1131 Ms Daisys Drive",
    "l": "Sulphur LA 70665",
    "cs": [
      1
    ],
    "u": "marthasarver@camtel.net",
    "f": 30
  },
  {
    "lg": -92.012361,
    "lt": 30.080623,
    "t": "AMERICAN COLLEGE OF HEALTHCARE EXECUTIVES",
    "id": "721513187",
    "i": "721513187",
    "n": "AMERICAN COLLEGE OF HEALTHCARE EXECUTIVES",
    "a": "109 Fountian View Dr",
    "l": "Youngsville LA 70592",
    "cs": [
      5,
      10
    ],
    "f": 30,
    "u": "http://lheg.ache.org/"
  },
  {
    "lg": -92.046464,
    "lt": 29.89014,
    "t": "ACADIAN HERITAGE & CULTURE FOUNDATION INC",
    "id": "721326678",
    "i": "721326678",
    "n": "ACADIAN HERITAGE & CULTURE FOUNDATION INC",
    "a": "203 S BROADWAY",
    "l": "ERATH LA 70533",
    "cs": [
      100
    ],
    "u": "HTTP://WWW.ACADIAN-CAJUN.COM/MUSEE.HTM",
    "f": 29
  },
  {
    "lg": -92.420164,
    "lt": 30.463256,
    "t": "ACADIA-EUNICE CITIZENS FOR A HEALTHY FUTURE INC",
    "id": "721476073",
    "i": "721476073",
    "n": "ACADIA-EUNICE CITIZENS FOR A HEALTHY FUTURE INC",
    "a": "1050 WEST LAUREL AVENUE",
    "l": "EUNICE LA 70535",
    "cs": [
      10
    ],
    "f": 30
  },
  {
    "lg": -92.218808,
    "lt": 30.411533,
    "t": "ACADIANA YOUTH RODEO ASSOCIATION INC",
    "id": "651175374",
    "i": "651175374",
    "n": "ACADIANA YOUTH RODEO ASSOCIATION INC",
    "a": "225 Gayle Dr",
    "l": "Church Point LA 70525",
    "cs": [
      7
    ],
    "f": 30,
    "u": "ayrarodeo.webs.com"
  },
  {
    "lg": -92.379963,
    "lt": 30.210073,
    "t": "ACADIA OPPORTUNITY FOUNDATION",
    "id": "834199496",
    "i": "834199496",
    "n": "ACADIA OPPORTUNITY FOUNDATION",
    "a": "11 NORTH PARKERSON AVE",
    "l": "CROWLEY LA 70526",
    "cs": [
      100
    ],
    "f": 30
  },
  {
    "lg": -92.214764,
    "lt": 32.396678,
    "t": "ACADEMY OF COLLABORATIVE EDUCATION",
    "id": "863614943",
    "i": "863614943",
    "n": "ACADEMY OF COLLABORATIVE EDUCATION",
    "a": "104 Harvest Oaks Circle",
    "l": "West Monroe LA 71292",
    "cs": [
      5
    ],
    "f": 32
  },
  {
    "lg": -91.070972,
    "lt": 30.394045,
    "t": "AMATEUR ATHLETIC UNION OF THE UNITED STATES INC",
    "id": "454931226",
    "i": "454931226",
    "n": "AMATEUR ATHLETIC UNION OF THE UNITED STATES INC",
    "a": "5242 butter creek on g6",
    "l": "Baton rouge LA LA 70809",
    "cs": [
      7
    ],
    "f": 30,
    "u": "www.dynastynation.org"
  },
  {
    "lg": -91.878669,
    "lt": 29.921943,
    "t": "AGAPE COMMUNITY SERVICES",
    "id": "331165217",
    "i": "331165217",
    "n": "AGAPE COMMUNITY SERVICES",
    "a": "1911 SQUIRREL RUN",
    "l": "NEW IBERIA LA 70560",
    "cs": [
      42
    ],
    "f": 29
  },
  {
    "lg": -92.028037,
    "lt": 30.278319,
    "t": "AMATEUR ATHLETIC UNION OF THE UNITED STATES INC",
    "id": "461844885",
    "i": "461844885",
    "n": "AMATEUR ATHLETIC UNION OF THE UNITED STATES INC",
    "a": "101 Flores Court",
    "l": "Lafayette LA 70507",
    "cs": [
      7
    ],
    "f": 30
  },
  {
    "lg": -92.16158,
    "lt": 30.202279,
    "t": "ACADIANA AREA FOR VETERANS",
    "id": "823081518",
    "i": "823081518",
    "n": "ACADIANA AREA FOR VETERANS",
    "a": "1051 Lagneaux road",
    "l": "Duson LA 70529",
    "cs": [
      16
    ],
    "f": 30
  },
  {
    "lg": -92.012361,
    "lt": 30.080623,
    "t": "AMERICAN COLLEGE OF HEALTHCARE EXECUTIVES",
    "id": "721513187",
    "i": "721513187",
    "n": "AMERICAN COLLEGE OF HEALTHCARE EXECUTIVES",
    "a": "109 Fountian View Dr",
    "l": "Youngsville LA 70592",
    "cs": [
      5,
      10
    ],
    "f": 30,
    "u": "http://lheg.ache.org/"
  },
  {
    "lg": -92.16158,
    "lt": 30.202279,
    "t": "ACADIANA AREA FOR VETERANS",
    "id": "823081518",
    "i": "823081518",
    "n": "ACADIANA AREA FOR VETERANS",
    "a": "1051 Lagneaux road",
    "l": "Duson LA 70529",
    "cs": [
      16
    ],
    "f": 30
  },
  {
    "lg": -92.012361,
    "lt": 30.080623,
    "t": "AMERICAN COLLEGE OF HEALTHCARE EXECUTIVES",
    "id": "721513187",
    "i": "721513187",
    "n": "AMERICAN COLLEGE OF HEALTHCARE EXECUTIVES",
    "a": "109 Fountian View Dr",
    "l": "Youngsville LA 70592",
    "cs": [
      5,
      10
    ],
    "f": 30,
    "u": "http://lheg.ache.org/"
  },
  {
    "lg": -92.081305,
    "lt": 30.195461,
    "t": "AMATEUR ATHLETIC UNION OF THE UNITED STATES",
    "id": "451499953",
    "i": "451499953",
    "n": "AMATEUR ATHLETIC UNION OF THE UNITED STATES",
    "a": "401 Dulles E",
    "l": "Lafayette LA 70506",
    "cs": [
      7
    ],
    "f": 30
  },
  {
    "lg": -92.054784,
    "lt": 30.170874,
    "t": "AMERICAN INNS OF COURT FOUNDATION",
    "id": "721156234",
    "i": "721156234",
    "n": "AMERICAN INNS OF COURT FOUNDATION",
    "a": "900 E St Mary Blvd Ste 200",
    "l": "Lafayette LA 70503",
    "cs": [
      11,
      100
    ],
    "f": 30
  },
  {
    "lg": -92.012361,
    "lt": 30.080623,
    "t": "AMERICAN COLLEGE OF HEALTHCARE EXECUTIVES",
    "id": "721513187",
    "i": "721513187",
    "n": "AMERICAN COLLEGE OF HEALTHCARE EXECUTIVES",
    "a": "109 Fountian View Dr",
    "l": "Youngsville LA 70592",
    "cs": [
      5,
      10
    ],
    "f": 30,
    "u": "http://lheg.ache.org/"
  },
  {
    "lg": -92.028225,
    "lt": 30.155238,
    "t": "10797 LAFAYETTE BREAKFAST SERTOMA CLUB SPONSORSHIP FUND",
    "id": "260373962",
    "i": "260373962",
    "n": "10797 LAFAYETTE BREAKFAST SERTOMA CLUB SPONSORSHIP FUND",
    "a": "201 Paddington Dr",
    "l": "Lafayette LA 70508",
    "cs": [
      9,
      100
    ],
    "f": 30
  },
  {
    "lg": -92.028225,
    "lt": 30.155238,
    "t": "10797 LAFAYETTE BREAKFAST SERTOMA CLUB SPONSORSHIP FUND",
    "id": "260373962",
    "i": "260373962",
    "n": "10797 LAFAYETTE BREAKFAST SERTOMA CLUB SPONSORSHIP FUND",
    "a": "201 Paddington Dr",
    "l": "Lafayette LA 70508",
    "cs": [
      9,
      100
    ],
    "f": 30
  },
  {
    "lg": -91.991039,
    "lt": 30.241832,
    "t": "AMERICAN INNS OF COURT FOUNDATION",
    "id": "721378257",
    "i": "721378257",
    "n": "AMERICAN INNS OF COURT FOUNDATION",
    "a": "600 Jefferson St Ste 800",
    "l": "Lafayette LA 70501",
    "cs": [
      11,
      100
    ],
    "u": "www.redhotsbasketball.com",
    "f": 30
  },
  {
    "lg": -92.081305,
    "lt": 30.195461,
    "t": "AMATEUR ATHLETIC UNION OF THE UNITED STATES",
    "id": "451499953",
    "i": "451499953",
    "n": "AMATEUR ATHLETIC UNION OF THE UNITED STATES",
    "a": "401 Dulles E",
    "l": "Lafayette LA 70506",
    "cs": [
      7
    ],
    "f": 30
  },
  {
    "lg": -91.991039,
    "lt": 30.241832,
    "t": "AMERICAN INNS OF COURT FOUNDATION",
    "id": "721378257",
    "i": "721378257",
    "n": "AMERICAN INNS OF COURT FOUNDATION",
    "a": "600 Jefferson St Ste 800",
    "l": "Lafayette LA 70501",
    "cs": [
      11,
      100
    ],
    "u": "www.redhotsbasketball.com",
    "f": 30
  },
  {
    "lg": -92.081305,
    "lt": 30.195461,
    "t": "AMATEUR ATHLETIC UNION OF THE UNITED STATES",
    "id": "451499953",
    "i": "451499953",
    "n": "AMATEUR ATHLETIC UNION OF THE UNITED STATES",
    "a": "401 Dulles E",
    "l": "Lafayette LA 70506",
    "cs": [
      7
    ],
    "f": 30
  },
  {
    "lg": -92.104961,
    "lt": 30.533657,
    "t": "ACADIANA PREPARATORY SCHOOL INC",
    "id": "721168650",
    "i": "721168650",
    "n": "ACADIANA PREPARATORY SCHOOL INC",
    "a": "1592 Prudhomme St",
    "l": "Opelousas LA 70570",
    "cs": [
      5
    ],
    "f": 30
  },
  {
    "lg": -92.012361,
    "lt": 30.080623,
    "t": "AMERICAN COLLEGE OF HEALTHCARE EXECUTIVES",
    "id": "721513187",
    "i": "721513187",
    "n": "AMERICAN COLLEGE OF HEALTHCARE EXECUTIVES",
    "a": "109 Fountian View Dr",
    "l": "Youngsville LA 70592",
    "cs": [
      5,
      10
    ],
    "f": 30,
    "u": "http://lheg.ache.org/"
  },
  {
    "lg": -90.103919,
    "lt": 30.007379,
    "t": "ACES TENNIS FOUNDATION",
    "id": "367463942",
    "i": "367463942",
    "n": "ACES TENNIS FOUNDATION",
    "a": "8600 Pontchartrain Blvd",
    "l": "New Orleans La LA 70124",
    "cs": [
      7,
      100
    ],
    "u": "www.acestennisfoundation@yahoo.com",
    "f": 30
  },
  {
    "lg": -90.358594,
    "lt": 30.362846,
    "t": "ACE OF HEARTS FOUNDATION",
    "id": "853554300",
    "i": "853554300",
    "n": "ACE OF HEARTS FOUNDATION",
    "a": "PO BOX 721",
    "l": "Ponchatoula LA 70454",
    "cs": [
      100
    ],
    "u": "https://aceofhearts.org",
    "f": 30
  },
  {
    "lg": -90.053201,
    "lt": 29.913421,
    "t": "AMATEUR ATHLETIC UNION OF THE UNITED STATES INC",
    "id": "462878682",
    "i": "462878682",
    "n": "AMATEUR ATHLETIC UNION OF THE UNITED STATES INC",
    "a": "2416 HUEY P LONG AVE",
    "l": "GRETNA LA 70053",
    "cs": [
      7
    ],
    "f": 29,
    "u": "LOUISIANASTORMTC.ORG"
  },
  {
    "lg": -92.218808,
    "lt": 30.411533,
    "t": "ACADIANA YOUTH RODEO ASSOCIATION INC",
    "id": "651175374",
    "i": "651175374",
    "n": "ACADIANA YOUTH RODEO ASSOCIATION INC",
    "a": "225 Gayle Dr",
    "l": "Church Point LA 70525",
    "cs": [
      7
    ],
    "f": 30,
    "u": "ayrarodeo.webs.com"
  },
  {
    "lg": -91.662095,
    "lt": 29.904121,
    "t": "ACADIANA YOUTH HUNTER EDUCATION CLUB INC",
    "id": "201773401",
    "i": "201773401",
    "n": "ACADIANA YOUTH HUNTER EDUCATION CLUB INC",
    "a": "10873 Highway 87",
    "l": "Jeanerette LA 70544",
    "cs": [
      7,
      5
    ],
    "f": 29
  },
  {
    "lg": -92.012361,
    "lt": 30.080623,
    "t": "AMERICAN COLLEGE OF HEALTHCARE EXECUTIVES",
    "id": "721513187",
    "i": "721513187",
    "n": "AMERICAN COLLEGE OF HEALTHCARE EXECUTIVES",
    "a": "109 Fountian View Dr",
    "l": "Youngsville LA 70592",
    "cs": [
      5,
      10
    ],
    "f": 30,
    "u": "http://lheg.ache.org/"
  },
  {
    "lg": -92.028225,
    "lt": 30.155238,
    "t": "10797 LAFAYETTE BREAKFAST SERTOMA CLUB SPONSORSHIP FUND",
    "id": "260373962",
    "i": "260373962",
    "n": "10797 LAFAYETTE BREAKFAST SERTOMA CLUB SPONSORSHIP FUND",
    "a": "201 Paddington Dr",
    "l": "Lafayette LA 70508",
    "cs": [
      9,
      100
    ],
    "f": 30
  },
  {
    "lg": -92.547344,
    "lt": 31.281321,
    "t": "AMERICAN FEDERATION OF STATE COUNTY & MUNICIPAL EMPLOYEES",
    "id": "726027123",
    "i": "726027123",
    "n": "AMERICAN FEDERATION OF STATE COUNTY & MUNICIPAL EMPLOYEES",
    "a": "1401 HICKORY CT",
    "l": "ALEXANDRIA LA 71303",
    "cs": [
      6
    ],
    "f": 31
  },
  {
    "lg": -92.054784,
    "lt": 30.170874,
    "t": "AMERICAN INNS OF COURT FOUNDATION",
    "id": "721156234",
    "i": "721156234",
    "n": "AMERICAN INNS OF COURT FOUNDATION",
    "a": "900 E St Mary Blvd Ste 200",
    "l": "Lafayette LA 70503",
    "cs": [
      11,
      100
    ],
    "f": 30
  },
  {
    "lg": -93.451224,
    "lt": 30.121881,
    "t": "ACTS MISSIONS",
    "id": "824122988",
    "i": "824122988",
    "n": "ACTS MISSIONS",
    "a": "1131 Ms Daisys Drive",
    "l": "Sulphur LA 70665",
    "cs": [
      1
    ],
    "u": "marthasarver@camtel.net",
    "f": 30
  },
  {
    "lg": -90.162523,
    "lt": 30.012223,
    "t": "AMERICAN FEDERATION OF STATE COUNTY & MUNICIPAL EMPLOYEES",
    "id": "721354556",
    "i": "721354556",
    "n": "AMERICAN FEDERATION OF STATE COUNTY & MUNICIPAL EMPLOYEES",
    "a": "2541 N Arnoult Road Ste 129",
    "l": "Metairie LA 70002",
    "cs": [
      6
    ],
    "f": 30
  },
  {
    "lg": -93.730669,
    "lt": 32.378491,
    "t": "ACTIVE RECOVERY FOUNDATION INC",
    "id": "471544129",
    "i": "471544129",
    "n": "ACTIVE RECOVERY FOUNDATION INC",
    "a": "3821 SOUTHERN AVE",
    "l": "Shreveport LA 71106",
    "cs": [
      100
    ],
    "f": 32
  },
  {
    "lg": -90.1672,
    "lt": 29.98373,
    "t": "ACTION AGAINST ADDICTION",
    "id": "271731613",
    "i": "271731613",
    "n": "ACTION AGAINST ADDICTION",
    "a": "4933 WABASH STREET",
    "l": "METAIRIE LA 70001",
    "cs": [
      51
    ],
    "u": "ARRNO.COM",
    "f": 29
  },
  {
    "lg": -92.328138,
    "lt": 30.746507,
    "t": "ACOSTA FOUNDATION",
    "id": "843829989",
    "i": "843829989",
    "n": "ACOSTA FOUNDATION",
    "a": "322 Saint Theresa Avenue",
    "l": "Ville Platte LA 70586",
    "cs": [
      100
    ],
    "f": 30
  },
  {
    "lg": -90.086944,
    "lt": 29.975137,
    "t": "ALL FOR ONE AFO FOUNDATION % HAROLD BATTISTE",
    "id": "010694772",
    "i": "010694772",
    "n": "ALL FOR ONE AFO FOUNDATION % HAROLD BATTISTE",
    "a": "3443 ESPLANADE AVE RM/STE 115",
    "l": "NEW ORLEANS LA 70119",
    "cs": [
      15,
      100
    ],
    "u": "WWW.504HEALTHNET.ORG",
    "f": 29
  },
  {
    "lg": -90.076935,
    "lt": 29.957008,
    "t": "AMERICAN COLLEGE OF SURGEONS",
    "id": "362192800",
    "i": "362192800",
    "n": "AMERICAN COLLEGE OF SURGEONS",
    "a": "1542 Tulane Ave Rm 753",
    "l": "New Orleans LA 70112",
    "cs": [
      5
    ],
    "f": 29
  },
  {
    "lg": -92.649341,
    "lt": 32.526867,
    "t": "AE PHILLIPS LABORATORY SCHOOL PARENT FACULTY COUNCIL",
    "id": "844216249",
    "i": "844216249",
    "n": "AE PHILLIPS LABORATORY SCHOOL PARENT FACULTY COUNCIL",
    "a": "204 HERGOT ST",
    "l": "RUSTON LA 71272",
    "cs": [
      5
    ],
    "f": 32
  },
  {
    "lg": -91.219682,
    "lt": 30.543725,
    "t": "AMATEUR ATHLETIC UNIONS OF THE US",
    "id": "463561695",
    "i": "463561695",
    "n": "AMATEUR ATHLETIC UNIONS OF THE US",
    "a": "1508 Sora St",
    "l": "Baton Rouge LA 70807",
    "cs": [
      7
    ],
    "f": 30
  },
  {
    "lg": -90.134065,
    "lt": 29.999416,
    "t": "AMATEUR ATHLETIC UNION OF THE UNITED STATES",
    "id": "260792962",
    "i": "260792962",
    "n": "AMATEUR ATHLETIC UNION OF THE UNITED STATES",
    "a": "1337 Huron Ave",
    "l": "Metairie LA 70005",
    "cs": [
      7
    ],
    "f": 29
  },
  {
    "lg": -93.914938,
    "lt": 32.289524,
    "t": "AMATEUR ATHLETIC UNION OF THE UNITED STATES",
    "id": "471355684",
    "i": "471355684",
    "n": "AMATEUR ATHLETIC UNION OF THE UNITED STATES",
    "a": "10004 Chestnut Bay Oak Drive",
    "l": "Keithville LA 71047",
    "cs": [
      7
    ],
    "f": 32
  },
  {
    "lg": -93.913664,
    "lt": 32.38606,
    "t": "ADULT TENNIS LEAGUE AND SOCIETY INC",
    "id": "800796711",
    "i": "800796711",
    "n": "ADULT TENNIS LEAGUE AND SOCIETY INC",
    "a": "9291 GREENWOOD SPRINGRIDGE RD",
    "l": "SHREVEPORT LA 71129",
    "cs": [
      7
    ],
    "f": 32
  },
  {
    "lg": -89.716936,
    "lt": 30.231091,
    "t": "ADRENOLEUKODYSTROPHY FOUNDATION",
    "id": "721481733",
    "i": "721481733",
    "n": "ADRENOLEUKODYSTROPHY FOUNDATION",
    "a": "241 Camden Street",
    "l": "Slidell LA 70461",
    "cs": [
      100
    ],
    "u": "http://www.aldfoundation.org",
    "f": 30
  },
  {
    "lg": -91.710041,
    "lt": 30.01663,
    "t": "ADOPT OLDER KIDS A OK INC",
    "id": "721125744",
    "i": "721125744",
    "n": "ADOPT OLDER KIDS A OK INC",
    "a": "10 Steamboat Bnd Blvd",
    "l": "New Iberia LA 70563",
    "cs": [
      15,
      7
    ],
    "f": 30
  },
  {
    "lg": -90.110302,
    "lt": 29.835653,
    "t": "ADLINES HELPING HANDS FOUNDATION INC",
    "id": "862457303",
    "i": "862457303",
    "n": "ADLINES HELPING HANDS FOUNDATION INC",
    "a": "6145 Adam Drive",
    "l": "Marrero LA 70072",
    "cs": [
      100
    ],
    "f": 29
  },
  {
    "lg": -93.70989,
    "lt": 32.456691,
    "t": "AMATEUR ATHLETIC UNION OF THE UNITED STATES",
    "id": "800570460",
    "i": "800570460",
    "n": "AMATEUR ATHLETIC UNION OF THE UNITED STATES",
    "a": "273 Pierremont Rd",
    "l": "Shreveport LA 71105",
    "cs": [
      7
    ],
    "f": 32
  },
  {
    "lg": -92.40173,
    "lt": 31.409505,
    "t": "ADDICTION RESOURCE COALITION INC",
    "id": "842005386",
    "i": "842005386",
    "n": "ADDICTION RESOURCE COALITION INC",
    "a": "6110 Monroe Hwy",
    "l": "Ball LA 71405",
    "cs": [
      51
    ],
    "f": 31
  },
  {
    "lg": -93.70989,
    "lt": 32.456691,
    "t": "AMATEUR ATHLETIC UNION OF THE UNITED STATES",
    "id": "800570460",
    "i": "800570460",
    "n": "AMATEUR ATHLETIC UNION OF THE UNITED STATES",
    "a": "273 Pierremont Rd",
    "l": "Shreveport LA 71105",
    "cs": [
      7
    ],
    "f": 32
  },
  {
    "lg": -91.878669,
    "lt": 29.921943,
    "t": "AGAPE COMMUNITY SERVICES",
    "id": "331165217",
    "i": "331165217",
    "n": "AGAPE COMMUNITY SERVICES",
    "a": "1911 SQUIRREL RUN",
    "l": "NEW IBERIA LA 70560",
    "cs": [
      42
    ],
    "f": 29
  },
  {
    "lg": -90.480843,
    "lt": 30.734832,
    "t": "AGAPE CHARITY HOUSE FOR KIDS",
    "id": "264515414",
    "i": "264515414",
    "n": "AGAPE CHARITY HOUSE FOR KIDS",
    "a": "110 GULLETT ST",
    "l": "Amite LA 70422",
    "cs": [
      7,
      1,
      100
    ],
    "u": "agapecharityhouse@att.net",
    "f": 30
  },
  {
    "lg": -90.027313,
    "lt": 29.88738,
    "t": "AMATEUR ATHLETIC UNION OF THE US INC",
    "id": "852941566",
    "i": "852941566",
    "n": "AMATEUR ATHLETIC UNION OF THE US INC",
    "a": "2208 Guardian Ave",
    "l": "Gretna LA 70056",
    "cs": [
      7
    ],
    "f": 29,
    "u": "www.nolarush2019.com"
  },
  {
    "lg": -90.029962,
    "lt": 29.968157,
    "t": "AFFILIATED MEDIA FOUNDATION MOVEMENT INC",
    "id": "720834617",
    "i": "720834617",
    "n": "AFFILIATED MEDIA FOUNDATION MOVEMENT INC",
    "a": "2221 Saint Claude Avenue",
    "l": "New Orleans LA 70117",
    "cs": [
      100
    ],
    "f": 29
  },
  {
    "lg": -93.126507,
    "lt": 30.255414,
    "t": "AMATEUR ATHLETIC UNION OF THE UNITED STATES INC",
    "id": "813787439",
    "i": "813787439",
    "n": "AMATEUR ATHLETIC UNION OF THE UNITED STATES INC",
    "a": "2928 GENERAL DOOLITTLE",
    "l": "LAKE CHARLES LA 70615",
    "cs": [
      7
    ],
    "f": 30
  },
  {
    "lg": -93.596138,
    "lt": 32.504882,
    "t": "AMERICAN FEDERATION OF GOVERNMENT EMPLOYEES",
    "id": "720706970",
    "i": "720706970",
    "n": "AMERICAN FEDERATION OF GOVERNMENT EMPLOYEES",
    "a": "Po Box 222",
    "l": "Barksdale AFB LA 71110",
    "cs": [
      6
    ],
    "u": "www.AFCEA.org",
    "f": 32
  },
  {
    "lg": -92.37022,
    "lt": 31.197018,
    "t": "AEXCREATIVES",
    "id": "371905035",
    "i": "371905035",
    "n": "AEXCREATIVES",
    "a": "3636 Government St",
    "l": "Alexandria LA 71302",
    "cs": [
      9
    ],
    "f": 31
  },
  {
    "lg": -90.487687,
    "lt": 30.485554,
    "t": "AHECS FOR A HEALTHY LOUISIANA INC",
    "id": "721257248",
    "i": "721257248",
    "n": "AHECS FOR A HEALTHY LOUISIANA INC",
    "a": "1302 JW Davis Dr",
    "l": "Hammond LA 70403",
    "cs": [
      10
    ],
    "f": 30
  },
  {
    "lg": -93.747221,
    "lt": 32.506371,
    "t": "AMERICAN INNS OF COURT FOUNDATION",
    "id": "721182914",
    "i": "721182914",
    "n": "AMERICAN INNS OF COURT FOUNDATION",
    "a": "300 Fannin Street Suite 3201",
    "l": "Shreveport LA 71101",
    "cs": [
      11,
      100
    ],
    "f": 32
  },
  {
    "lg": -92.35469,
    "lt": 31.327512,
    "t": "AGLOW INTERNATIONAL 20181173 ALEXANDRIA LA LIGHTHOUSE",
    "id": "831277276",
    "i": "831277276",
    "n": "AGLOW INTERNATIONAL 20181173 ALEXANDRIA LA LIGHTHOUSE",
    "a": "1421 Holloway St",
    "l": "Pineville LA 71360",
    "cs": [
      1
    ],
    "f": 31
  },
  {
    "lg": -91.177692,
    "lt": 30.444469,
    "t": "AMERICAN INNS OF COURT FOUNDATION",
    "id": "521636955",
    "i": "521636955",
    "n": "AMERICAN INNS OF COURT FOUNDATION",
    "a": "701 Main St",
    "l": "Baton Rouge LA 70802",
    "cs": [
      11,
      100
    ],
    "f": 30
  },
  {
    "lg": -93.731646,
    "lt": 32.483775,
    "t": "AGC SHREVEPORT CHAPTER SCHOLARSHIP FOUNDATION INC",
    "id": "263683026",
    "i": "263683026",
    "n": "AGC SHREVEPORT CHAPTER SCHOLARSHIP FOUNDATION INC",
    "a": "2025 Southern Ave",
    "l": "Shreveport LA 71104",
    "cs": [
      5,
      100
    ],
    "f": 32
  },
  {
    "lg": -91.185979,
    "lt": 30.449653,
    "t": "ALBEMARLE EMPLOYEE CLUB",
    "id": "726027733",
    "i": "726027733",
    "n": "ALBEMARLE EMPLOYEE CLUB",
    "a": "451 Florida Street",
    "l": "Baton Rouge LA 70801",
    "cs": [
      6
    ],
    "f": 30
  },
  {
    "lg": -89.794189,
    "lt": 30.26187,
    "t": "AK LEGACY FOUNDATION",
    "id": "850885470",
    "i": "850885470",
    "n": "AK LEGACY FOUNDATION",
    "a": "330 Oak Harbor Blvd Suite B",
    "l": "Slidell LA 70458",
    "cs": [
      100
    ],
    "f": 30
  },
  {
    "lg": -90.062798,
    "lt": 30.013437,
    "t": "AMATEUR ATHLETIC UNION OF THE UNITED STATES INC",
    "id": "208882918",
    "i": "208882918",
    "n": "AMATEUR ATHLETIC UNION OF THE UNITED STATES INC",
    "a": "5335 Eads St",
    "l": "New Orleans LA 70122",
    "cs": [
      7
    ],
    "f": 30,
    "u": "www.itsspeeddynamics.com"
  },
  {
    "lg": -91.066262,
    "lt": 30.455463,
    "t": "ALPHA AND OMEGA DAYCARE AND LEARNING CTR INC 2",
    "id": "562360698",
    "i": "562360698",
    "n": "ALPHA AND OMEGA DAYCARE AND LEARNING CTR INC 2",
    "a": "1825 NORTH SHERWOOD FOREST DRIVE",
    "l": "BATON ROUGE LA 70815",
    "cs": [
      3
    ],
    "u": "LA156.johnson@AFA.ORG",
    "f": 30
  },
  {
    "lg": -93.696982,
    "lt": 32.572857,
    "t": "AMATEUR ATHLETIC UNION OF THE UNITED STATES INC",
    "id": "843904809",
    "i": "843904809",
    "n": "AMATEUR ATHLETIC UNION OF THE UNITED STATES INC",
    "a": "4040 False River Dr",
    "l": "Bossier City LA 71111",
    "cs": [
      7
    ],
    "f": 32
  },
  {
    "lg": -93.696982,
    "lt": 32.572857,
    "t": "AMATEUR ATHLETIC UNION OF THE UNITED STATES INC",
    "id": "843904809",
    "i": "843904809",
    "n": "AMATEUR ATHLETIC UNION OF THE UNITED STATES INC",
    "a": "4040 False River Dr",
    "l": "Bossier City LA 71111",
    "cs": [
      7
    ],
    "f": 32
  },
  {
    "lg": -91.750053,
    "lt": 31.404457,
    "t": "AIDENS LIGHT",
    "id": "823329069",
    "i": "823329069",
    "n": "AIDENS LIGHT",
    "a": "PO BOX 401",
    "l": "MONTEREY LA 71354",
    "cs": [
      12
    ],
    "f": 31
  },
  {
    "lg": -92.609872,
    "lt": 30.810055,
    "t": "AMERICAN FEDERATION OF GOVERNMENT EMPLOYEES",
    "id": "581774953",
    "i": "581774953",
    "n": "AMERICAN FEDERATION OF GOVERNMENT EMPLOYEES",
    "a": "POB 802",
    "l": "Oakdale LA 71463",
    "cs": [
      6
    ],
    "f": 30
  },
  {
    "lg": -90.032322,
    "lt": 29.937445,
    "t": "10 RAHAB COURT",
    "id": "720977105",
    "i": "720977105",
    "n": "10 RAHAB COURT",
    "a": "1757 PACE BLVD",
    "l": "NEW ORLEANS LA 70114",
    "cs": [
      11
    ],
    "f": 29,
    "u": "WWW.AMAZONSPORTS.ORG"
  },
  {
    "lg": -93.270631,
    "lt": 31.694472,
    "t": "ALFRED HALL III FOUNDATION",
    "id": "800321544",
    "i": "800321544",
    "n": "ALFRED HALL III FOUNDATION",
    "a": "320 Harvey Calhoun Rd",
    "l": "Robeline LA 71469",
    "cs": [
      100
    ],
    "u": "www.ah3foundation.com",
    "f": 31
  },
  {
    "lg": -92.547344,
    "lt": 31.281321,
    "t": "AMERICAN FEDERATION OF STATE COUNTY & MUNICIPAL EMPLOYEES",
    "id": "726027123",
    "i": "726027123",
    "n": "AMERICAN FEDERATION OF STATE COUNTY & MUNICIPAL EMPLOYEES",
    "a": "1401 HICKORY CT",
    "l": "ALEXANDRIA LA 71303",
    "cs": [
      6
    ],
    "f": 31
  },
  {
    "lg": -92.467107,
    "lt": 31.274156,
    "t": "AMERICAN INNS OF COURT FOUNDATION",
    "id": "721176874",
    "i": "721176874",
    "n": "AMERICAN INNS OF COURT FOUNDATION",
    "a": "515 Murray St Room 331",
    "l": "Alexandria LA 71301",
    "cs": [
      11,
      100
    ],
    "f": 31,
    "u": "www.ahaa.us"
  },
  {
    "lg": -92.467107,
    "lt": 31.274156,
    "t": "AMERICAN INNS OF COURT FOUNDATION",
    "id": "721176874",
    "i": "721176874",
    "n": "AMERICAN INNS OF COURT FOUNDATION",
    "a": "515 Murray St Room 331",
    "l": "Alexandria LA 71301",
    "cs": [
      11,
      100
    ],
    "f": 31,
    "u": "www.ahaa.us"
  },
  {
    "lg": -92.547344,
    "lt": 31.281321,
    "t": "AMERICAN FEDERATION OF STATE COUNTY & MUNICIPAL EMPLOYEES",
    "id": "726027123",
    "i": "726027123",
    "n": "AMERICAN FEDERATION OF STATE COUNTY & MUNICIPAL EMPLOYEES",
    "a": "1401 HICKORY CT",
    "l": "ALEXANDRIA LA 71303",
    "cs": [
      6
    ],
    "f": 31
  },
  {
    "lg": -92.547344,
    "lt": 31.281321,
    "t": "AMERICAN FEDERATION OF STATE COUNTY & MUNICIPAL EMPLOYEES",
    "id": "726027123",
    "i": "726027123",
    "n": "AMERICAN FEDERATION OF STATE COUNTY & MUNICIPAL EMPLOYEES",
    "a": "1401 HICKORY CT",
    "l": "ALEXANDRIA LA 71303",
    "cs": [
      6
    ],
    "f": 31
  },
  {
    "lg": -93.787826,
    "lt": 32.443173,
    "t": "ALEMAP FOUNDATION",
    "id": "455011500",
    "i": "455011500",
    "n": "ALEMAP FOUNDATION",
    "a": "6660 Quilen Road",
    "l": "Shreveport LA 71108",
    "cs": [
      100
    ],
    "f": 32
  },
  {
    "lg": -91.139137,
    "lt": 30.404146,
    "t": "ALLIANCE FOR RESPONSIBLE TRANSPORTAION",
    "id": "721453952",
    "i": "721453952",
    "n": "ALLIANCE FOR RESPONSIBLE TRANSPORTAION",
    "a": "848 Nelson Dr",
    "l": "baton rouge LA 70808",
    "cs": [
      7
    ],
    "f": 30
  },
  {
    "lg": -90.020724,
    "lt": 30.0182,
    "t": "AMATEUR ATHLETIC UNION OF THE UNITED STATES",
    "id": "320272231",
    "i": "320272231",
    "n": "AMATEUR ATHLETIC UNION OF THE UNITED STATES",
    "a": "4946 Metropolitan Dr",
    "l": "New Orleans LA 70126",
    "cs": [
      7
    ],
    "f": 30,
    "u": "www.neworleansselect.com"
  },
  {
    "lg": -90.436898,
    "lt": 30.156099,
    "t": "ALL STAR FOUNDATION INC",
    "id": "463496949",
    "i": "463496949",
    "n": "ALL STAR FOUNDATION INC",
    "a": "1208 Bert Street",
    "l": "LaPlace LA 70068",
    "cs": [
      100
    ],
    "f": 30
  },
  {
    "lg": -90.156313,
    "lt": 30.458752,
    "t": "AMERICAN INNS OF COURT FOUNDATION",
    "id": "861102569",
    "i": "861102569",
    "n": "AMERICAN INNS OF COURT FOUNDATION",
    "a": "701 N Columbia St Rm 3068",
    "l": "Covington LA 70433",
    "cs": [
      11,
      100
    ],
    "f": 30
  },
  {
    "lg": -90.086944,
    "lt": 29.975137,
    "t": "ALL FOR ONE AFO FOUNDATION % HAROLD BATTISTE",
    "id": "010694772",
    "i": "010694772",
    "n": "ALL FOR ONE AFO FOUNDATION % HAROLD BATTISTE",
    "a": "3443 ESPLANADE AVE RM/STE 115",
    "l": "NEW ORLEANS LA 70119",
    "cs": [
      15,
      100
    ],
    "u": "WWW.504HEALTHNET.ORG",
    "f": 29
  },
  {
    "lg": -93.696982,
    "lt": 32.572857,
    "t": "AMATEUR ATHLETIC UNION OF THE UNITED STATES INC",
    "id": "843904809",
    "i": "843904809",
    "n": "AMATEUR ATHLETIC UNION OF THE UNITED STATES INC",
    "a": "4040 False River Dr",
    "l": "Bossier City LA 71111",
    "cs": [
      7
    ],
    "f": 32
  },
  {
    "lg": -91.066262,
    "lt": 30.455463,
    "t": "ALPHA AND OMEGA DAYCARE AND LEARNING CTR INC 2",
    "id": "562360698",
    "i": "562360698",
    "n": "ALPHA AND OMEGA DAYCARE AND LEARNING CTR INC 2",
    "a": "1825 NORTH SHERWOOD FOREST DRIVE",
    "l": "BATON ROUGE LA 70815",
    "cs": [
      3
    ],
    "u": "LA156.johnson@AFA.ORG",
    "f": 30
  },
  {
    "lg": -90.069648,
    "lt": 29.937353,
    "t": "AMERICAN INNS OF COURT FOUNDATION",
    "id": "352369861",
    "i": "352369861",
    "n": "AMERICAN INNS OF COURT FOUNDATION",
    "a": "601 Poydras St Ste 2775",
    "l": "New Orleans LA 70130",
    "cs": [
      11,
      100
    ],
    "u": "www.moonshadowfest.com",
    "f": 29
  },
  {
    "lg": -90.52393,
    "lt": 30.856259,
    "t": "ALMS HOUSE INC",
    "id": "721470419",
    "i": "721470419",
    "n": "ALMS HOUSE INC",
    "a": "P O BOX 11",
    "l": "TANGIPAHOA LA 70465",
    "cs": [
      1
    ],
    "f": 30
  },
  {
    "lg": -93.371695,
    "lt": 30.290269,
    "t": "AMERICAN FEDERATION OF STATE COUNTY & MUNICIPAL EMPLOYEES",
    "id": "726034910",
    "i": "726034910",
    "n": "AMERICAN FEDERATION OF STATE COUNTY & MUNICIPAL EMPLOYEES",
    "a": "460 W BRIMSTONE",
    "l": "SULPHUR LA 70663",
    "cs": [
      6
    ],
    "f": 30
  },
  {
    "lg": -91.899171,
    "lt": 31.520809,
    "t": "ALMOST HOME BEHAVIORAL HEALTH MINISTRIES",
    "id": "823367230",
    "i": "823367230",
    "n": "ALMOST HOME BEHAVIORAL HEALTH MINISTRIES",
    "a": "783 HIGHWAY 3037",
    "l": "JONESVILLE LA 71343",
    "cs": [
      10,
      1
    ],
    "f": 31
  },
  {
    "lg": -90.681784,
    "lt": 29.627637,
    "t": "ALLIES OF THE LITTLE ONES VV FOUNDATION USA",
    "id": "463352047",
    "i": "463352047",
    "n": "ALLIES OF THE LITTLE ONES VV FOUNDATION USA",
    "a": "142 S Eagle Place",
    "l": "Houma LA 70364",
    "cs": [
      100
    ],
    "f": 29
  },
  {
    "lg": -90.965337,
    "lt": 30.601066,
    "t": "ALLIED OIL WORKERS UNION INC",
    "id": "726029085",
    "i": "726029085",
    "n": "ALLIED OIL WORKERS UNION INC",
    "a": "PO Box 475",
    "l": "Greenwell Springs LA 70739",
    "cs": [
      6
    ],
    "f": 30
  },
  {
    "lg": -92.028225,
    "lt": 30.155238,
    "t": "10797 LAFAYETTE BREAKFAST SERTOMA CLUB SPONSORSHIP FUND",
    "id": "260373962",
    "i": "260373962",
    "n": "10797 LAFAYETTE BREAKFAST SERTOMA CLUB SPONSORSHIP FUND",
    "a": "201 Paddington Dr",
    "l": "Lafayette LA 70508",
    "cs": [
      9,
      100
    ],
    "f": 30
  },
  {
    "lg": -90.020724,
    "lt": 30.0182,
    "t": "AMATEUR ATHLETIC UNION OF THE UNITED STATES",
    "id": "320272231",
    "i": "320272231",
    "n": "AMATEUR ATHLETIC UNION OF THE UNITED STATES",
    "a": "4946 Metropolitan Dr",
    "l": "New Orleans LA 70126",
    "cs": [
      7
    ],
    "f": 30,
    "u": "www.neworleansselect.com"
  },
  {
    "lg": -89.953028,
    "lt": 30.484687,
    "t": "ALPHA DELTA PI HOUSE CORPORATION DELTA ETA CHAPTER",
    "id": "726032578",
    "i": "726032578",
    "n": "ALPHA DELTA PI HOUSE CORPORATION DELTA ETA CHAPTER",
    "a": "220 Bald Eagle Dr",
    "l": "Abita Springs LA 70420",
    "cs": [
      1
    ],
    "u": "abitaboosterclub.com",
    "f": 30
  },
  {
    "lg": -90.020724,
    "lt": 30.0182,
    "t": "AMATEUR ATHLETIC UNION OF THE UNITED STATES",
    "id": "320272231",
    "i": "320272231",
    "n": "AMATEUR ATHLETIC UNION OF THE UNITED STATES",
    "a": "4946 Metropolitan Dr",
    "l": "New Orleans LA 70126",
    "cs": [
      7
    ],
    "f": 30,
    "u": "www.neworleansselect.com"
  },
  {
    "lg": -90.134065,
    "lt": 29.999416,
    "t": "AMATEUR ATHLETIC UNION OF THE UNITED STATES",
    "id": "260792962",
    "i": "260792962",
    "n": "AMATEUR ATHLETIC UNION OF THE UNITED STATES",
    "a": "1337 Huron Ave",
    "l": "Metairie LA 70005",
    "cs": [
      7
    ],
    "f": 29
  },
  {
    "lg": -90.805402,
    "lt": 29.578671,
    "t": "AMATEUR ATHLETIC UNION OF THE",
    "id": "275088136",
    "i": "275088136",
    "n": "AMATEUR ATHLETIC UNION OF THE",
    "a": "702 WINROCK DRIVE",
    "l": "HOUMA LA 70360",
    "cs": [
      7
    ],
    "f": 29
  },
  {
    "lg": -92.012361,
    "lt": 30.080623,
    "t": "AMERICAN COLLEGE OF HEALTHCARE EXECUTIVES",
    "id": "721513187",
    "i": "721513187",
    "n": "AMERICAN COLLEGE OF HEALTHCARE EXECUTIVES",
    "a": "109 Fountian View Dr",
    "l": "Youngsville LA 70592",
    "cs": [
      5,
      10
    ],
    "f": 30,
    "u": "http://lheg.ache.org/"
  },
  {
    "lg": -92.643874,
    "lt": 32.489856,
    "t": "ALUMNI AND FRIENDS OF THE WORLD FAMED TIGER BAND FOUNDATION",
    "id": "833877244",
    "i": "833877244",
    "n": "ALUMNI AND FRIENDS OF THE WORLD FAMED TIGER BAND FOUNDATION",
    "a": "910 SOUTH MAPLE STREET",
    "l": "RUSTON LA 71270",
    "cs": [
      100
    ],
    "f": 32
  },
  {
    "lg": -90.10331,
    "lt": 29.952072,
    "t": "AMERICAN COLLEGE OF NURSE-MIDWIVES",
    "id": "272776953",
    "i": "272776953",
    "n": "AMERICAN COLLEGE OF NURSE-MIDWIVES",
    "a": "4439 S Miro St",
    "l": "New Orleans LA 70125",
    "cs": [
      5
    ],
    "f": 29
  },
  {
    "lg": -90.98042,
    "lt": 30.375106,
    "t": "ALTRUSA INTERNATIONAL FOUNDATION INC",
    "id": "721109163",
    "i": "721109163",
    "n": "ALTRUSA INTERNATIONAL FOUNDATION INC",
    "a": "16246 Shenandoah Avenue",
    "l": "Baton Rouge LA 70817",
    "cs": [
      100
    ],
    "f": 30
  },
  {
    "lg": -93.106492,
    "lt": 31.741703,
    "t": "AMERICAN INNS OF COURT FOUNDATION",
    "id": "562463847",
    "i": "562463847",
    "n": "AMERICAN INNS OF COURT FOUNDATION",
    "a": "1901 Texas St",
    "l": "Natchitoches LA 71457",
    "cs": [
      11,
      100
    ],
    "f": 31,
    "u": "http://www.achildsdesire.org"
  },
  {
    "lg": -92.689221,
    "lt": 31.310753,
    "t": "AMATEUR ATHLETIC UNION OF THE UNITED STATES INC",
    "id": "800799291",
    "i": "800799291",
    "n": "AMATEUR ATHLETIC UNION OF THE UNITED STATES INC",
    "a": "179 Wilderness Drive",
    "l": "Boyce LA 71409",
    "cs": [
      7
    ],
    "f": 31
  },
  {
    "lg": -90.062798,
    "lt": 30.013437,
    "t": "AMATEUR ATHLETIC UNION OF THE UNITED STATES INC",
    "id": "208882918",
    "i": "208882918",
    "n": "AMATEUR ATHLETIC UNION OF THE UNITED STATES INC",
    "a": "5335 Eads St",
    "l": "New Orleans LA 70122",
    "cs": [
      7
    ],
    "f": 30,
    "u": "www.itsspeeddynamics.com"
  },
  {
    "lg": -89.958342,
    "lt": 29.906318,
    "t": "AMERICAN FEDERATION OF GOVERNMENT EMPLOYEES",
    "id": "237060494",
    "i": "237060494",
    "n": "AMERICAN FEDERATION OF GOVERNMENT EMPLOYEES",
    "a": "365 Canal Street Ste 2820",
    "l": "New Orleans LA 70131",
    "cs": [
      6
    ],
    "f": 29
  },
  {
    "lg": -91.991039,
    "lt": 30.241832,
    "t": "AMERICAN INNS OF COURT FOUNDATION",
    "id": "721378257",
    "i": "721378257",
    "n": "AMERICAN INNS OF COURT FOUNDATION",
    "a": "600 Jefferson St Ste 800",
    "l": "Lafayette LA 70501",
    "cs": [
      11,
      100
    ],
    "u": "www.redhotsbasketball.com",
    "f": 30
  },
  {
    "lg": -93.630383,
    "lt": 32.722671,
    "t": "AMATEUR ATHLETIC UNION OF THE UNITED STATES INC",
    "id": "900807340",
    "i": "900807340",
    "n": "AMATEUR ATHLETIC UNION OF THE UNITED STATES INC",
    "a": "5208 Meghan Caye Lane",
    "l": "Benton LA 71006",
    "cs": [
      7
    ],
    "u": "WWW.4HISKIDS.ORG",
    "f": 32
  },
  {
    "lg": -92.028225,
    "lt": 30.155238,
    "t": "10797 LAFAYETTE BREAKFAST SERTOMA CLUB SPONSORSHIP FUND",
    "id": "260373962",
    "i": "260373962",
    "n": "10797 LAFAYETTE BREAKFAST SERTOMA CLUB SPONSORSHIP FUND",
    "a": "201 Paddington Dr",
    "l": "Lafayette LA 70508",
    "cs": [
      9,
      100
    ],
    "f": 30
  },
  {
    "lg": -91.991039,
    "lt": 30.241832,
    "t": "AMERICAN INNS OF COURT FOUNDATION",
    "id": "721378257",
    "i": "721378257",
    "n": "AMERICAN INNS OF COURT FOUNDATION",
    "a": "600 Jefferson St Ste 800",
    "l": "Lafayette LA 70501",
    "cs": [
      11,
      100
    ],
    "u": "www.redhotsbasketball.com",
    "f": 30
  },
  {
    "lg": -90.750267,
    "lt": 29.808328,
    "t": "AMATEUR ATHLETIC UNION OF THE UNITED STATES",
    "id": "874518115",
    "i": "874518115",
    "n": "AMATEUR ATHLETIC UNION OF THE UNITED STATES",
    "a": "1251 Narrow St",
    "l": "Thibodaux LA 70301",
    "cs": [
      7
    ],
    "f": 29
  },
  {
    "lg": -93.914938,
    "lt": 32.289524,
    "t": "AMATEUR ATHLETIC UNION OF THE UNITED STATES",
    "id": "471355684",
    "i": "471355684",
    "n": "AMATEUR ATHLETIC UNION OF THE UNITED STATES",
    "a": "10004 Chestnut Bay Oak Drive",
    "l": "Keithville LA 71047",
    "cs": [
      7
    ],
    "f": 32
  },
  {
    "lg": -93.92546,
    "lt": 32.490693,
    "t": "AMATEUR ATHLETIC UNION OF THE UNITED STATES",
    "id": "510565848",
    "i": "510565848",
    "n": "AMATEUR ATHLETIC UNION OF THE UNITED STATES",
    "a": "6237 La Fleur Drive",
    "l": "Shreveport LA 71119",
    "cs": [
      7
    ],
    "f": 32
  },
  {
    "lg": -92.018358,
    "lt": 32.582209,
    "t": "AMATEUR ATHLETIC UNION OF THE UNITED STATES INC",
    "id": "464968300",
    "i": "464968300",
    "n": "AMATEUR ATHLETIC UNION OF THE UNITED STATES INC",
    "a": "112 Shady Lane",
    "l": "Monroe LA 71203",
    "cs": [
      7
    ],
    "u": "russellgbsn2@gmail.com",
    "f": 32
  },
  {
    "lg": -90.616116,
    "lt": 29.692682,
    "t": "AMATEUR ATHLETIC UNION OF THE UNITED STATES INC",
    "id": "460709109",
    "i": "460709109",
    "n": "AMATEUR ATHLETIC UNION OF THE UNITED STATES INC",
    "a": "329 ASPEN DR",
    "l": "RACELAND LA 70394",
    "cs": [
      7
    ],
    "f": 29
  },
  {
    "lg": -92.081305,
    "lt": 30.195461,
    "t": "AMATEUR ATHLETIC UNION OF THE UNITED STATES",
    "id": "451499953",
    "i": "451499953",
    "n": "AMATEUR ATHLETIC UNION OF THE UNITED STATES",
    "a": "401 Dulles E",
    "l": "Lafayette LA 70506",
    "cs": [
      7
    ],
    "f": 30
  },
  {
    "lg": -92.054784,
    "lt": 30.170874,
    "t": "AMERICAN INNS OF COURT FOUNDATION",
    "id": "721156234",
    "i": "721156234",
    "n": "AMERICAN INNS OF COURT FOUNDATION",
    "a": "900 E St Mary Blvd Ste 200",
    "l": "Lafayette LA 70503",
    "cs": [
      11,
      100
    ],
    "f": 30
  },
  {
    "lg": -93.70989,
    "lt": 32.456691,
    "t": "AMATEUR ATHLETIC UNION OF THE UNITED STATES",
    "id": "800570460",
    "i": "800570460",
    "n": "AMATEUR ATHLETIC UNION OF THE UNITED STATES",
    "a": "273 Pierremont Rd",
    "l": "Shreveport LA 71105",
    "cs": [
      7
    ],
    "f": 32
  },
  {
    "lg": -89.958342,
    "lt": 29.906318,
    "t": "AMERICAN FEDERATION OF GOVERNMENT EMPLOYEES",
    "id": "237060494",
    "i": "237060494",
    "n": "AMERICAN FEDERATION OF GOVERNMENT EMPLOYEES",
    "a": "365 Canal Street Ste 2820",
    "l": "New Orleans LA 70131",
    "cs": [
      6
    ],
    "f": 29
  },
  {
    "lg": -90.134065,
    "lt": 29.999416,
    "t": "AMATEUR ATHLETIC UNION OF THE UNITED STATES",
    "id": "260792962",
    "i": "260792962",
    "n": "AMATEUR ATHLETIC UNION OF THE UNITED STATES",
    "a": "1337 Huron Ave",
    "l": "Metairie LA 70005",
    "cs": [
      7
    ],
    "f": 29
  },
  {
    "lg": -90.027313,
    "lt": 29.88738,
    "t": "AMATEUR ATHLETIC UNION OF THE US INC",
    "id": "852941566",
    "i": "852941566",
    "n": "AMATEUR ATHLETIC UNION OF THE US INC",
    "a": "2208 Guardian Ave",
    "l": "Gretna LA 70056",
    "cs": [
      7
    ],
    "f": 29,
    "u": "www.nolarush2019.com"
  },
  {
    "lg": -92.261544,
    "lt": 30.231922,
    "t": "AMATEUR ATHLETIC UNION OF THE UNITED STATES INC",
    "id": "371795989",
    "i": "371795989",
    "n": "AMATEUR ATHLETIC UNION OF THE UNITED STATES INC",
    "a": "PO Box 871",
    "l": "Rayne LA 70578",
    "cs": [
      7
    ],
    "f": 30
  },
  {
    "lg": -91.927467,
    "lt": 30.134781,
    "t": "AMATEUR ATHLETIC UNION OF THE UNITED STATES INC",
    "id": "464612762",
    "i": "464612762",
    "n": "AMATEUR ATHLETIC UNION OF THE UNITED STATES INC",
    "a": "311 Stags Leap Lane",
    "l": "Broussard LA 70518",
    "cs": [
      7
    ],
    "f": 30
  },
  {
    "lg": -92.028037,
    "lt": 30.278319,
    "t": "AMATEUR ATHLETIC UNION OF THE UNITED STATES INC",
    "id": "461844885",
    "i": "461844885",
    "n": "AMATEUR ATHLETIC UNION OF THE UNITED STATES INC",
    "a": "101 Flores Court",
    "l": "Lafayette LA 70507",
    "cs": [
      7
    ],
    "f": 30
  },
  {
    "lg": -93.190125,
    "lt": 30.038425,
    "t": "AMATEUR ATHLETIC UNION OF THE UNITED STATES INC",
    "id": "811766835",
    "i": "811766835",
    "n": "AMATEUR ATHLETIC UNION OF THE UNITED STATES INC",
    "a": "3613 Greinwich Blvd",
    "l": "Lake Charles LA 70607",
    "cs": [
      7
    ],
    "f": 30
  },
  {
    "lg": -90.102484,
    "lt": 29.92393,
    "t": "AMERICAN COLLEGE OF DENTISTS INC",
    "id": "521415954",
    "i": "521415954",
    "n": "AMERICAN COLLEGE OF DENTISTS INC",
    "a": "3634 Coliseum Street",
    "l": "New Orleans LA 70115",
    "cs": [
      5
    ],
    "u": "WWW.AHOMEAMONGFRIENDS.ORG",
    "f": 29
  },
  {
    "lg": -90.062798,
    "lt": 30.013437,
    "t": "AMATEUR ATHLETIC UNION OF THE UNITED STATES INC",
    "id": "208882918",
    "i": "208882918",
    "n": "AMATEUR ATHLETIC UNION OF THE UNITED STATES INC",
    "a": "5335 Eads St",
    "l": "New Orleans LA 70122",
    "cs": [
      7
    ],
    "f": 30,
    "u": "www.itsspeeddynamics.com"
  },
  {
    "lg": -93.293312,
    "lt": 32.676883,
    "t": "AMATEUR ATHLETIC UNION OF THE UNITED STATES INC",
    "id": "820945452",
    "i": "820945452",
    "n": "AMATEUR ATHLETIC UNION OF THE UNITED STATES INC",
    "a": "155 Lorex Rd",
    "l": "Minden LA 71055",
    "cs": [
      7
    ],
    "f": 32
  },
  {
    "lg": -93.371695,
    "lt": 30.290269,
    "t": "AMERICAN FEDERATION OF STATE COUNTY & MUNICIPAL EMPLOYEES",
    "id": "726034910",
    "i": "726034910",
    "n": "AMERICAN FEDERATION OF STATE COUNTY & MUNICIPAL EMPLOYEES",
    "a": "460 W BRIMSTONE",
    "l": "SULPHUR LA 70663",
    "cs": [
      6
    ],
    "f": 30
  },
  {
    "lg": -91.546936,
    "lt": 29.849782,
    "t": "AMATEUR ATHLETIC UNION OF THE UNITED STATES INC",
    "id": "473125184",
    "i": "473125184",
    "n": "AMATEUR ATHLETIC UNION OF THE UNITED STATES INC",
    "a": "PO BOX 613",
    "l": "BALDWIN LA 70514",
    "cs": [
      7
    ],
    "f": 29
  },
  {
    "lg": -93.126507,
    "lt": 30.255414,
    "t": "AMATEUR ATHLETIC UNION OF THE UNITED STATES INC",
    "id": "813787439",
    "i": "813787439",
    "n": "AMATEUR ATHLETIC UNION OF THE UNITED STATES INC",
    "a": "2928 GENERAL DOOLITTLE",
    "l": "LAKE CHARLES LA 70615",
    "cs": [
      7
    ],
    "f": 30
  },
  {
    "lg": -93.215443,
    "lt": 30.226792,
    "t": "AMERICAN INNS OF COURT FOUNDATION",
    "id": "721280180",
    "i": "721280180",
    "n": "AMERICAN INNS OF COURT FOUNDATION",
    "a": "1011 Lakeshore Dr Ste 402",
    "l": "Lake Charles LA 70601",
    "cs": [
      11,
      100
    ],
    "f": 30,
    "u": "wilbert_landry@yahoo.com"
  },
  {
    "lg": -91.920497,
    "lt": 30.415729,
    "t": "AMATEUR ATHLETIC UNION OF THE UNITED STATES INC",
    "id": "811784526",
    "i": "811784526",
    "n": "AMATEUR ATHLETIC UNION OF THE UNITED STATES INC",
    "a": "PO Box 62",
    "l": "Arnaudville LA 70512",
    "cs": [
      7
    ],
    "f": 30
  },
  {
    "lg": -90.907369,
    "lt": 30.607223,
    "t": "AMATEUR ATHLETIC UNION OF THE UNITED STATES INC",
    "id": "823434654",
    "i": "823434654",
    "n": "AMATEUR ATHLETIC UNION OF THE UNITED STATES INC",
    "a": "36287 Greenville Ave",
    "l": "Denham Springs LA 70706",
    "cs": [
      7
    ],
    "f": 30
  },
  {
    "lg": -90.58074,
    "lt": 30.376279,
    "t": "AMATEUR ATHLETIC UNION OF THE UNITED STATES INC",
    "id": "811764827",
    "i": "811764827",
    "n": "AMATEUR ATHLETIC UNION OF THE UNITED STATES INC",
    "a": "18095 Balfantz Rd",
    "l": "Springfield LA 70462",
    "cs": [
      7
    ],
    "f": 30
  },
  {
    "lg": -90.616116,
    "lt": 29.692682,
    "t": "AMATEUR ATHLETIC UNION OF THE UNITED STATES INC",
    "id": "460709109",
    "i": "460709109",
    "n": "AMATEUR ATHLETIC UNION OF THE UNITED STATES INC",
    "a": "329 ASPEN DR",
    "l": "RACELAND LA 70394",
    "cs": [
      7
    ],
    "f": 29
  },
  {
    "lg": -90.616116,
    "lt": 29.692682,
    "t": "AMATEUR ATHLETIC UNION OF THE UNITED STATES INC",
    "id": "460709109",
    "i": "460709109",
    "n": "AMATEUR ATHLETIC UNION OF THE UNITED STATES INC",
    "a": "329 ASPEN DR",
    "l": "RACELAND LA 70394",
    "cs": [
      7
    ],
    "f": 29
  },
  {
    "lg": -90.616116,
    "lt": 29.692682,
    "t": "AMATEUR ATHLETIC UNION OF THE UNITED STATES INC",
    "id": "460709109",
    "i": "460709109",
    "n": "AMATEUR ATHLETIC UNION OF THE UNITED STATES INC",
    "a": "329 ASPEN DR",
    "l": "RACELAND LA 70394",
    "cs": [
      7
    ],
    "f": 29
  },
  {
    "lg": -91.991039,
    "lt": 30.241832,
    "t": "AMERICAN INNS OF COURT FOUNDATION",
    "id": "721378257",
    "i": "721378257",
    "n": "AMERICAN INNS OF COURT FOUNDATION",
    "a": "600 Jefferson St Ste 800",
    "l": "Lafayette LA 70501",
    "cs": [
      11,
      100
    ],
    "u": "www.redhotsbasketball.com",
    "f": 30
  },
  {
    "lg": -92.012361,
    "lt": 30.080623,
    "t": "AMERICAN COLLEGE OF HEALTHCARE EXECUTIVES",
    "id": "721513187",
    "i": "721513187",
    "n": "AMERICAN COLLEGE OF HEALTHCARE EXECUTIVES",
    "a": "109 Fountian View Dr",
    "l": "Youngsville LA 70592",
    "cs": [
      5,
      10
    ],
    "f": 30,
    "u": "http://lheg.ache.org/"
  },
  {
    "lg": -90.616116,
    "lt": 29.692682,
    "t": "AMATEUR ATHLETIC UNION OF THE UNITED STATES INC",
    "id": "460709109",
    "i": "460709109",
    "n": "AMATEUR ATHLETIC UNION OF THE UNITED STATES INC",
    "a": "329 ASPEN DR",
    "l": "RACELAND LA 70394",
    "cs": [
      7
    ],
    "f": 29
  },
  {
    "lg": -90.053201,
    "lt": 29.913421,
    "t": "AMATEUR ATHLETIC UNION OF THE UNITED STATES INC",
    "id": "462878682",
    "i": "462878682",
    "n": "AMATEUR ATHLETIC UNION OF THE UNITED STATES INC",
    "a": "2416 HUEY P LONG AVE",
    "l": "GRETNA LA 70053",
    "cs": [
      7
    ],
    "f": 29,
    "u": "LOUISIANASTORMTC.ORG"
  },
  {
    "lg": -91.070972,
    "lt": 30.394045,
    "t": "AMATEUR ATHLETIC UNION OF THE UNITED STATES INC",
    "id": "454931226",
    "i": "454931226",
    "n": "AMATEUR ATHLETIC UNION OF THE UNITED STATES INC",
    "a": "5242 butter creek on g6",
    "l": "Baton rouge LA LA 70809",
    "cs": [
      7
    ],
    "f": 30,
    "u": "www.dynastynation.org"
  },
  {
    "lg": -90.25345,
    "lt": 30.027292,
    "t": "AMATEUR ATHLETIC UNION OF THE UNITED STATES INC",
    "id": "300721125",
    "i": "300721125",
    "n": "AMATEUR ATHLETIC UNION OF THE UNITED STATES INC",
    "a": "66 Chateau Mouton",
    "l": "Kenner LA 70065",
    "cs": [
      7
    ],
    "f": 30
  },
  {
    "lg": -92.018358,
    "lt": 32.582209,
    "t": "AMATEUR ATHLETIC UNION OF THE UNITED STATES INC",
    "id": "464968300",
    "i": "464968300",
    "n": "AMATEUR ATHLETIC UNION OF THE UNITED STATES INC",
    "a": "112 Shady Lane",
    "l": "Monroe LA 71203",
    "cs": [
      7
    ],
    "u": "russellgbsn2@gmail.com",
    "f": 32
  },
  {
    "lg": -90.940643,
    "lt": 30.30743,
    "t": "AMER FEDERATION OF UNION JOINT APPRENTICESHIP TRAINING PROGRAM",
    "id": "720807029",
    "i": "720807029",
    "n": "AMER FEDERATION OF UNION JOINT APPRENTICESHIP TRAINING PROGRAM",
    "a": "PO Box 1002",
    "l": "Prairieville LA 70769",
    "cs": [
      6
    ],
    "f": 30
  },
  {
    "lg": -90.032322,
    "lt": 29.937445,
    "t": "10 RAHAB COURT",
    "id": "720977105",
    "i": "720977105",
    "n": "10 RAHAB COURT",
    "a": "1757 PACE BLVD",
    "l": "NEW ORLEANS LA 70114",
    "cs": [
      11
    ],
    "f": 29,
    "u": "WWW.AMAZONSPORTS.ORG"
  },
  {
    "lg": -90.125661,
    "lt": 29.944727,
    "t": "AMERICAN INNS OF COURT FOUNDATION",
    "id": "521638663",
    "i": "521638663",
    "n": "AMERICAN INNS OF COURT FOUNDATION",
    "a": "7214 St Charles Avenue Box 901",
    "l": "New Orleans LA 70118",
    "cs": [
      11,
      100
    ],
    "f": 29
  },
  {
    "lg": -91.092135,
    "lt": 30.331942,
    "t": "AMAZING SICKLE CELL KIDS FOUNDATION",
    "id": "812473566",
    "i": "812473566",
    "n": "AMAZING SICKLE CELL KIDS FOUNDATION",
    "a": "9656 BURBANK DR SUITE B",
    "l": "BATON ROUGE LA 70810",
    "cs": [
      7,
      100
    ],
    "u": "WWW.ABCDADE.ORG",
    "f": 30
  },
  {
    "lg": -91.219682,
    "lt": 30.543725,
    "t": "AMATEUR ATHLETIC UNIONS OF THE US",
    "id": "463561695",
    "i": "463561695",
    "n": "AMATEUR ATHLETIC UNIONS OF THE US",
    "a": "1508 Sora St",
    "l": "Baton Rouge LA 70807",
    "cs": [
      7
    ],
    "f": 30
  },
  {
    "lg": -90.027313,
    "lt": 29.88738,
    "t": "AMATEUR ATHLETIC UNION OF THE US INC",
    "id": "852941566",
    "i": "852941566",
    "n": "AMATEUR ATHLETIC UNION OF THE US INC",
    "a": "2208 Guardian Ave",
    "l": "Gretna LA 70056",
    "cs": [
      7
    ],
    "f": 29,
    "u": "www.nolarush2019.com"
  },
  {
    "lg": -90.027313,
    "lt": 29.88738,
    "t": "AMATEUR ATHLETIC UNION OF THE US INC",
    "id": "852941566",
    "i": "852941566",
    "n": "AMATEUR ATHLETIC UNION OF THE US INC",
    "a": "2208 Guardian Ave",
    "l": "Gretna LA 70056",
    "cs": [
      7
    ],
    "f": 29,
    "u": "www.nolarush2019.com"
  },
  {
    "lg": -90.367309,
    "lt": 29.968947,
    "t": "AMATEUR ATHLETIC UNION OF THE US INC",
    "id": "851533832",
    "i": "851533832",
    "n": "AMATEUR ATHLETIC UNION OF THE US INC",
    "a": "114 Dunleith Dr",
    "l": "Destrehan LA 70047",
    "cs": [
      7
    ],
    "f": 29
  },
  {
    "lg": -90.996999,
    "lt": 30.206556,
    "t": "AMATEUR ATHLETIC UNION OF THE UNITED STATES INC",
    "id": "874725809",
    "i": "874725809",
    "n": "AMATEUR ATHLETIC UNION OF THE UNITED STATES INC",
    "a": "13558 Bluff Point Dr",
    "l": "Geismar LA 70734",
    "cs": [
      7
    ],
    "f": 30
  },
  {
    "lg": -91.369,
    "lt": 30.858253,
    "t": "AMATEUR ATHLETIC UNION OF THE UNITED STATES INC",
    "id": "872966624",
    "i": "872966624",
    "n": "AMATEUR ATHLETIC UNION OF THE UNITED STATES INC",
    "a": "PO Box 2401",
    "l": "St Francisville LA 70775",
    "cs": [
      7
    ],
    "f": 30
  },
  {
    "lg": -93.215443,
    "lt": 30.226792,
    "t": "AMERICAN INNS OF COURT FOUNDATION",
    "id": "721280180",
    "i": "721280180",
    "n": "AMERICAN INNS OF COURT FOUNDATION",
    "a": "1011 Lakeshore Dr Ste 402",
    "l": "Lake Charles LA 70601",
    "cs": [
      11,
      100
    ],
    "f": 30,
    "u": "wilbert_landry@yahoo.com"
  },
  {
    "lg": -92.033704,
    "lt": 30.330999,
    "t": "AMATEUR ATHLETIC UNION OF THE UNITED STATES INC",
    "id": "812488464",
    "i": "812488464",
    "n": "AMATEUR ATHLETIC UNION OF THE UNITED STATES INC",
    "a": "317 Prejean Rd",
    "l": "Carencro LA 70520",
    "cs": [
      7
    ],
    "f": 30
  },
  {
    "lg": -93.696982,
    "lt": 32.572857,
    "t": "AMATEUR ATHLETIC UNION OF THE UNITED STATES INC",
    "id": "843904809",
    "i": "843904809",
    "n": "AMATEUR ATHLETIC UNION OF THE UNITED STATES INC",
    "a": "4040 False River Dr",
    "l": "Bossier City LA 71111",
    "cs": [
      7
    ],
    "f": 32
  },
  {
    "lg": -91.259393,
    "lt": 30.353674,
    "t": "AMATEUR ATHLETIC UNION OF THE UNITED STATES INC",
    "id": "874323694",
    "i": "874323694",
    "n": "AMATEUR ATHLETIC UNION OF THE UNITED STATES INC",
    "a": "4792 E Sunset Loop",
    "l": "Addis LA 70710",
    "cs": [
      7
    ],
    "u": "www.yourgrowthplace.org",
    "f": 30
  },
  {
    "lg": -89.958342,
    "lt": 29.906318,
    "t": "AMERICAN FEDERATION OF GOVERNMENT EMPLOYEES",
    "id": "237060494",
    "i": "237060494",
    "n": "AMERICAN FEDERATION OF GOVERNMENT EMPLOYEES",
    "a": "365 Canal Street Ste 2820",
    "l": "New Orleans LA 70131",
    "cs": [
      6
    ],
    "f": 29
  },
  {
    "lg": -93.596138,
    "lt": 32.504882,
    "t": "AMERICAN FEDERATION OF GOVERNMENT EMPLOYEES",
    "id": "720706970",
    "i": "720706970",
    "n": "AMERICAN FEDERATION OF GOVERNMENT EMPLOYEES",
    "a": "Po Box 222",
    "l": "Barksdale AFB LA 71110",
    "cs": [
      6
    ],
    "u": "www.AFCEA.org",
    "f": 32
  },
  {
    "lg": -92.609872,
    "lt": 30.810055,
    "t": "AMERICAN FEDERATION OF GOVERNMENT EMPLOYEES",
    "id": "581774953",
    "i": "581774953",
    "n": "AMERICAN FEDERATION OF GOVERNMENT EMPLOYEES",
    "a": "POB 802",
    "l": "Oakdale LA 71463",
    "cs": [
      6
    ],
    "f": 30
  },
  {
    "lg": -90.076935,
    "lt": 29.957008,
    "t": "AMERICAN COLLEGE OF SURGEONS",
    "id": "362192800",
    "i": "362192800",
    "n": "AMERICAN COLLEGE OF SURGEONS",
    "a": "1542 Tulane Ave Rm 753",
    "l": "New Orleans LA 70112",
    "cs": [
      5
    ],
    "f": 29
  },
  {
    "lg": -90.10331,
    "lt": 29.952072,
    "t": "AMERICAN COLLEGE OF NURSE-MIDWIVES",
    "id": "272776953",
    "i": "272776953",
    "n": "AMERICAN COLLEGE OF NURSE-MIDWIVES",
    "a": "4439 S Miro St",
    "l": "New Orleans LA 70125",
    "cs": [
      5
    ],
    "f": 29
  },
  {
    "lg": -92.547344,
    "lt": 31.281321,
    "t": "AMERICAN FEDERATION OF STATE COUNTY & MUNICIPAL EMPLOYEES",
    "id": "726027123",
    "i": "726027123",
    "n": "AMERICAN FEDERATION OF STATE COUNTY & MUNICIPAL EMPLOYEES",
    "a": "1401 HICKORY CT",
    "l": "ALEXANDRIA LA 71303",
    "cs": [
      6
    ],
    "f": 31
  },
  {
    "lg": -91.124753,
    "lt": 30.448758,
    "t": "AMERICAN FEDERATION OF STATE COUNTY & MUNICIPAL EMPLOYEES",
    "id": "726034901",
    "i": "726034901",
    "n": "AMERICAN FEDERATION OF STATE COUNTY & MUNICIPAL EMPLOYEES",
    "a": "198 ALELLO DR",
    "l": "BATON ROUGE LA 70806",
    "cs": [
      6
    ],
    "f": 30
  },
  {
    "lg": -92.012361,
    "lt": 30.080623,
    "t": "AMERICAN COLLEGE OF HEALTHCARE EXECUTIVES",
    "id": "721513187",
    "i": "721513187",
    "n": "AMERICAN COLLEGE OF HEALTHCARE EXECUTIVES",
    "a": "109 Fountian View Dr",
    "l": "Youngsville LA 70592",
    "cs": [
      5,
      10
    ],
    "f": 30,
    "u": "http://lheg.ache.org/"
  },
  {
    "lg": -90.102484,
    "lt": 29.92393,
    "t": "AMERICAN COLLEGE OF DENTISTS INC",
    "id": "521415954",
    "i": "521415954",
    "n": "AMERICAN COLLEGE OF DENTISTS INC",
    "a": "3634 Coliseum Street",
    "l": "New Orleans LA 70115",
    "cs": [
      5
    ],
    "u": "WWW.AHOMEAMONGFRIENDS.ORG",
    "f": 29
  },
  {
    "lg": -91.177692,
    "lt": 30.444469,
    "t": "AMERICAN INNS OF COURT FOUNDATION",
    "id": "521636955",
    "i": "521636955",
    "n": "AMERICAN INNS OF COURT FOUNDATION",
    "a": "701 Main St",
    "l": "Baton Rouge LA 70802",
    "cs": [
      11,
      100
    ],
    "f": 30
  },
  {
    "lg": -91.177692,
    "lt": 30.444469,
    "t": "AMERICAN INNS OF COURT FOUNDATION",
    "id": "521636955",
    "i": "521636955",
    "n": "AMERICAN INNS OF COURT FOUNDATION",
    "a": "701 Main St",
    "l": "Baton Rouge LA 70802",
    "cs": [
      11,
      100
    ],
    "f": 30
  },
  {
    "lg": -91.177692,
    "lt": 30.444469,
    "t": "AMERICAN INNS OF COURT FOUNDATION",
    "id": "521636955",
    "i": "521636955",
    "n": "AMERICAN INNS OF COURT FOUNDATION",
    "a": "701 Main St",
    "l": "Baton Rouge LA 70802",
    "cs": [
      11,
      100
    ],
    "f": 30
  },
  {
    "lg": -91.177692,
    "lt": 30.444469,
    "t": "AMERICAN INNS OF COURT FOUNDATION",
    "id": "521636955",
    "i": "521636955",
    "n": "AMERICAN INNS OF COURT FOUNDATION",
    "a": "701 Main St",
    "l": "Baton Rouge LA 70802",
    "cs": [
      11,
      100
    ],
    "f": 30
  },
  {
    "lg": -91.177692,
    "lt": 30.444469,
    "t": "AMERICAN INNS OF COURT FOUNDATION",
    "id": "521636955",
    "i": "521636955",
    "n": "AMERICAN INNS OF COURT FOUNDATION",
    "a": "701 Main St",
    "l": "Baton Rouge LA 70802",
    "cs": [
      11,
      100
    ],
    "f": 30
  },
  {
    "lg": -91.177692,
    "lt": 30.444469,
    "t": "AMERICAN INNS OF COURT FOUNDATION",
    "id": "521636955",
    "i": "521636955",
    "n": "AMERICAN INNS OF COURT FOUNDATION",
    "a": "701 Main St",
    "l": "Baton Rouge LA 70802",
    "cs": [
      11,
      100
    ],
    "f": 30
  },
  {
    "lg": -91.177692,
    "lt": 30.444469,
    "t": "AMERICAN INNS OF COURT FOUNDATION",
    "id": "521636955",
    "i": "521636955",
    "n": "AMERICAN INNS OF COURT FOUNDATION",
    "a": "701 Main St",
    "l": "Baton Rouge LA 70802",
    "cs": [
      11,
      100
    ],
    "f": 30
  },
  {
    "lg": -91.177692,
    "lt": 30.444469,
    "t": "AMERICAN INNS OF COURT FOUNDATION",
    "id": "521636955",
    "i": "521636955",
    "n": "AMERICAN INNS OF COURT FOUNDATION",
    "a": "701 Main St",
    "l": "Baton Rouge LA 70802",
    "cs": [
      11,
      100
    ],
    "f": 30
  },
  {
    "lg": -91.177692,
    "lt": 30.444469,
    "t": "AMERICAN INNS OF COURT FOUNDATION",
    "id": "521636955",
    "i": "521636955",
    "n": "AMERICAN INNS OF COURT FOUNDATION",
    "a": "701 Main St",
    "l": "Baton Rouge LA 70802",
    "cs": [
      11,
      100
    ],
    "f": 30
  },
  {
    "lg": -91.177692,
    "lt": 30.444469,
    "t": "AMERICAN INNS OF COURT FOUNDATION",
    "id": "521636955",
    "i": "521636955",
    "n": "AMERICAN INNS OF COURT FOUNDATION",
    "a": "701 Main St",
    "l": "Baton Rouge LA 70802",
    "cs": [
      11,
      100
    ],
    "f": 30
  },
  {
    "lg": -91.177692,
    "lt": 30.444469,
    "t": "AMERICAN INNS OF COURT FOUNDATION",
    "id": "521636955",
    "i": "521636955",
    "n": "AMERICAN INNS OF COURT FOUNDATION",
    "a": "701 Main St",
    "l": "Baton Rouge LA 70802",
    "cs": [
      11,
      100
    ],
    "f": 30
  },
  {
    "lg": -91.177692,
    "lt": 30.444469,
    "t": "AMERICAN INNS OF COURT FOUNDATION",
    "id": "521636955",
    "i": "521636955",
    "n": "AMERICAN INNS OF COURT FOUNDATION",
    "a": "701 Main St",
    "l": "Baton Rouge LA 70802",
    "cs": [
      11,
      100
    ],
    "f": 30
  },
  {
    "lg": -91.177692,
    "lt": 30.444469,
    "t": "AMERICAN INNS OF COURT FOUNDATION",
    "id": "521636955",
    "i": "521636955",
    "n": "AMERICAN INNS OF COURT FOUNDATION",
    "a": "701 Main St",
    "l": "Baton Rouge LA 70802",
    "cs": [
      11,
      100
    ],
    "f": 30
  },
  {
    "lg": -91.177692,
    "lt": 30.444469,
    "t": "AMERICAN INNS OF COURT FOUNDATION",
    "id": "521636955",
    "i": "521636955",
    "n": "AMERICAN INNS OF COURT FOUNDATION",
    "a": "701 Main St",
    "l": "Baton Rouge LA 70802",
    "cs": [
      11,
      100
    ],
    "f": 30
  },
  {
    "lg": -91.177692,
    "lt": 30.444469,
    "t": "AMERICAN INNS OF COURT FOUNDATION",
    "id": "521636955",
    "i": "521636955",
    "n": "AMERICAN INNS OF COURT FOUNDATION",
    "a": "701 Main St",
    "l": "Baton Rouge LA 70802",
    "cs": [
      11,
      100
    ],
    "f": 30
  },
  {
    "lg": -90.162523,
    "lt": 30.012223,
    "t": "AMERICAN FEDERATION OF STATE COUNTY & MUNICIPAL EMPLOYEES",
    "id": "721354556",
    "i": "721354556",
    "n": "AMERICAN FEDERATION OF STATE COUNTY & MUNICIPAL EMPLOYEES",
    "a": "2541 N Arnoult Road Ste 129",
    "l": "Metairie LA 70002",
    "cs": [
      6
    ],
    "f": 30
  },
  {
    "lg": -92.05655,
    "lt": 32.399905,
    "t": "AMERICAN FEDERATION OF STATE COUNTY & MUNICIPAL EMPLOYEES",
    "id": "510155331",
    "i": "510155331",
    "n": "AMERICAN FEDERATION OF STATE COUNTY & MUNICIPAL EMPLOYEES",
    "a": "C/O Ms Mayme Corbin-Lawrence",
    "l": "Monroe LA 71202",
    "cs": [
      6
    ],
    "u": "mlawrence@ulm.edu",
    "f": 32
  },
  {
    "lg": -92.945596,
    "lt": 30.792345,
    "t": "AMERICAN FEDERATION OF GOVERNMENT EMPLOYEES",
    "id": "830355940",
    "i": "830355940",
    "n": "AMERICAN FEDERATION OF GOVERNMENT EMPLOYEES",
    "a": "PO BOX 332",
    "l": "GRANT LA 70644",
    "cs": [
      6
    ],
    "f": 30
  },
  {
    "lg": -91.960829,
    "lt": 31.184246,
    "t": "AMERICAN FEDERATION OF STATE COUNTY & MUNICIPAL EMPLOYEES",
    "id": "721222703",
    "i": "721222703",
    "n": "AMERICAN FEDERATION OF STATE COUNTY & MUNICIPAL EMPLOYEES",
    "a": "PO BOX 1284",
    "l": "MARKSVILLE LA 71351",
    "cs": [
      6
    ],
    "f": 31
  },
  {
    "lg": -92.467107,
    "lt": 31.274156,
    "t": "AMERICAN INNS OF COURT FOUNDATION",
    "id": "721176874",
    "i": "721176874",
    "n": "AMERICAN INNS OF COURT FOUNDATION",
    "a": "515 Murray St Room 331",
    "l": "Alexandria LA 71301",
    "cs": [
      11,
      100
    ],
    "f": 31,
    "u": "www.ahaa.us"
  },
  {
    "lg": -90.534579,
    "lt": 30.632673,
    "t": "AMERICAN FEDERATION OF STATE COUNTY & MUNICIPAL EMPLOYEES",
    "id": "510250522",
    "i": "510250522",
    "n": "AMERICAN FEDERATION OF STATE COUNTY & MUNICIPAL EMPLOYEES",
    "a": "PO BOX 1144",
    "l": "INDEPENDENCE LA 70443",
    "cs": [
      6
    ],
    "f": 30
  },
  {
    "lg": -91.96106,
    "lt": 30.899115,
    "t": "AMERICAN FEDERATION OF STATE COUNTY & MUNICIPAL EMPLOYEES",
    "id": "510250517",
    "i": "510250517",
    "n": "AMERICAN FEDERATION OF STATE COUNTY & MUNICIPAL EMPLOYEES",
    "a": "2467 HWY 1179",
    "l": "PLAUCHVILLE LA 71362",
    "cs": [
      6
    ],
    "f": 30
  },
  {
    "lg": -91.991039,
    "lt": 30.241832,
    "t": "AMERICAN INNS OF COURT FOUNDATION",
    "id": "721378257",
    "i": "721378257",
    "n": "AMERICAN INNS OF COURT FOUNDATION",
    "a": "600 Jefferson St Ste 800",
    "l": "Lafayette LA 70501",
    "cs": [
      11,
      100
    ],
    "u": "www.redhotsbasketball.com",
    "f": 30
  },
  {
    "lg": -91.124753,
    "lt": 30.448758,
    "t": "AMERICAN FEDERATION OF STATE COUNTY & MUNICIPAL EMPLOYEES",
    "id": "726034901",
    "i": "726034901",
    "n": "AMERICAN FEDERATION OF STATE COUNTY & MUNICIPAL EMPLOYEES",
    "a": "198 ALELLO DR",
    "l": "BATON ROUGE LA 70806",
    "cs": [
      6
    ],
    "f": 30
  },
  {
    "lg": -90.764888,
    "lt": 30.700689,
    "t": "AMERICAN FEDERATION OF STATE COUNTY & MUNICIPAL EMPLOYEES",
    "id": "237126891",
    "i": "237126891",
    "n": "AMERICAN FEDERATION OF STATE COUNTY & MUNICIPAL EMPLOYEES",
    "a": "694 CHANCE LANE",
    "l": "PINE GROVE LA 70453",
    "cs": [
      6
    ],
    "f": 30
  },
  {
    "lg": -91.021967,
    "lt": 30.431813,
    "t": "AMERICAN FEDERATION OF STATE COUNTY & MUNICIPAL EMPLOYEES",
    "id": "721220923",
    "i": "721220923",
    "n": "AMERICAN FEDERATION OF STATE COUNTY & MUNICIPAL EMPLOYEES",
    "a": "3888 S Sherwood Forest Blvd Bldg 3",
    "l": "Baton Rouge LA 70816",
    "cs": [
      6
    ],
    "f": 30
  },
  {
    "lg": -91.021967,
    "lt": 30.431813,
    "t": "AMERICAN FEDERATION OF STATE COUNTY & MUNICIPAL EMPLOYEES",
    "id": "721220923",
    "i": "721220923",
    "n": "AMERICAN FEDERATION OF STATE COUNTY & MUNICIPAL EMPLOYEES",
    "a": "3888 S Sherwood Forest Blvd Bldg 3",
    "l": "Baton Rouge LA 70816",
    "cs": [
      6
    ],
    "f": 30
  },
  {
    "lg": -91.021967,
    "lt": 30.431813,
    "t": "AMERICAN FEDERATION OF STATE COUNTY & MUNICIPAL EMPLOYEES",
    "id": "721220923",
    "i": "721220923",
    "n": "AMERICAN FEDERATION OF STATE COUNTY & MUNICIPAL EMPLOYEES",
    "a": "3888 S Sherwood Forest Blvd Bldg 3",
    "l": "Baton Rouge LA 70816",
    "cs": [
      6
    ],
    "f": 30
  },
  {
    "lg": -91.021967,
    "lt": 30.431813,
    "t": "AMERICAN FEDERATION OF STATE COUNTY & MUNICIPAL EMPLOYEES",
    "id": "721220923",
    "i": "721220923",
    "n": "AMERICAN FEDERATION OF STATE COUNTY & MUNICIPAL EMPLOYEES",
    "a": "3888 S Sherwood Forest Blvd Bldg 3",
    "l": "Baton Rouge LA 70816",
    "cs": [
      6
    ],
    "f": 30
  },
  {
    "lg": -91.021967,
    "lt": 30.431813,
    "t": "AMERICAN FEDERATION OF STATE COUNTY & MUNICIPAL EMPLOYEES",
    "id": "721220923",
    "i": "721220923",
    "n": "AMERICAN FEDERATION OF STATE COUNTY & MUNICIPAL EMPLOYEES",
    "a": "3888 S Sherwood Forest Blvd Bldg 3",
    "l": "Baton Rouge LA 70816",
    "cs": [
      6
    ],
    "f": 30
  },
  {
    "lg": -91.021967,
    "lt": 30.431813,
    "t": "AMERICAN FEDERATION OF STATE COUNTY & MUNICIPAL EMPLOYEES",
    "id": "721220923",
    "i": "721220923",
    "n": "AMERICAN FEDERATION OF STATE COUNTY & MUNICIPAL EMPLOYEES",
    "a": "3888 S Sherwood Forest Blvd Bldg 3",
    "l": "Baton Rouge LA 70816",
    "cs": [
      6
    ],
    "f": 30
  },
  {
    "lg": -92.968114,
    "lt": 30.961373,
    "t": "AMERICAN FEDERATION OF STATE COUNTY & MUNICIPAL EMPLOYEES",
    "id": "237431874",
    "i": "237431874",
    "n": "AMERICAN FEDERATION OF STATE COUNTY & MUNICIPAL EMPLOYEES",
    "a": "6716 HIGHWAY 463",
    "l": "PITKIN LA 70656",
    "cs": [
      6
    ],
    "f": 30
  },
  {
    "lg": -91.021967,
    "lt": 30.431813,
    "t": "AMERICAN FEDERATION OF STATE COUNTY & MUNICIPAL EMPLOYEES",
    "id": "721220923",
    "i": "721220923",
    "n": "AMERICAN FEDERATION OF STATE COUNTY & MUNICIPAL EMPLOYEES",
    "a": "3888 S Sherwood Forest Blvd Bldg 3",
    "l": "Baton Rouge LA 70816",
    "cs": [
      6
    ],
    "f": 30
  },
  {
    "lg": -91.177692,
    "lt": 30.444469,
    "t": "AMERICAN INNS OF COURT FOUNDATION",
    "id": "521636955",
    "i": "521636955",
    "n": "AMERICAN INNS OF COURT FOUNDATION",
    "a": "701 Main St",
    "l": "Baton Rouge LA 70802",
    "cs": [
      11,
      100
    ],
    "f": 30
  },
  {
    "lg": -91.177692,
    "lt": 30.444469,
    "t": "AMERICAN INNS OF COURT FOUNDATION",
    "id": "521636955",
    "i": "521636955",
    "n": "AMERICAN INNS OF COURT FOUNDATION",
    "a": "701 Main St",
    "l": "Baton Rouge LA 70802",
    "cs": [
      11,
      100
    ],
    "f": 30
  },
  {
    "lg": -91.177692,
    "lt": 30.444469,
    "t": "AMERICAN INNS OF COURT FOUNDATION",
    "id": "521636955",
    "i": "521636955",
    "n": "AMERICAN INNS OF COURT FOUNDATION",
    "a": "701 Main St",
    "l": "Baton Rouge LA 70802",
    "cs": [
      11,
      100
    ],
    "f": 30
  },
  {
    "lg": -91.177692,
    "lt": 30.444469,
    "t": "AMERICAN INNS OF COURT FOUNDATION",
    "id": "521636955",
    "i": "521636955",
    "n": "AMERICAN INNS OF COURT FOUNDATION",
    "a": "701 Main St",
    "l": "Baton Rouge LA 70802",
    "cs": [
      11,
      100
    ],
    "f": 30
  },
  {
    "lg": -91.177692,
    "lt": 30.444469,
    "t": "AMERICAN INNS OF COURT FOUNDATION",
    "id": "521636955",
    "i": "521636955",
    "n": "AMERICAN INNS OF COURT FOUNDATION",
    "a": "701 Main St",
    "l": "Baton Rouge LA 70802",
    "cs": [
      11,
      100
    ],
    "f": 30
  },
  {
    "lg": -91.177692,
    "lt": 30.444469,
    "t": "AMERICAN INNS OF COURT FOUNDATION",
    "id": "521636955",
    "i": "521636955",
    "n": "AMERICAN INNS OF COURT FOUNDATION",
    "a": "701 Main St",
    "l": "Baton Rouge LA 70802",
    "cs": [
      11,
      100
    ],
    "f": 30
  },
  {
    "lg": -91.177692,
    "lt": 30.444469,
    "t": "AMERICAN INNS OF COURT FOUNDATION",
    "id": "521636955",
    "i": "521636955",
    "n": "AMERICAN INNS OF COURT FOUNDATION",
    "a": "701 Main St",
    "l": "Baton Rouge LA 70802",
    "cs": [
      11,
      100
    ],
    "f": 30
  },
  {
    "lg": -91.177692,
    "lt": 30.444469,
    "t": "AMERICAN INNS OF COURT FOUNDATION",
    "id": "521636955",
    "i": "521636955",
    "n": "AMERICAN INNS OF COURT FOUNDATION",
    "a": "701 Main St",
    "l": "Baton Rouge LA 70802",
    "cs": [
      11,
      100
    ],
    "f": 30
  },
  {
    "lg": -91.177692,
    "lt": 30.444469,
    "t": "AMERICAN INNS OF COURT FOUNDATION",
    "id": "521636955",
    "i": "521636955",
    "n": "AMERICAN INNS OF COURT FOUNDATION",
    "a": "701 Main St",
    "l": "Baton Rouge LA 70802",
    "cs": [
      11,
      100
    ],
    "f": 30
  },
  {
    "lg": -91.177692,
    "lt": 30.444469,
    "t": "AMERICAN INNS OF COURT FOUNDATION",
    "id": "521636955",
    "i": "521636955",
    "n": "AMERICAN INNS OF COURT FOUNDATION",
    "a": "701 Main St",
    "l": "Baton Rouge LA 70802",
    "cs": [
      11,
      100
    ],
    "f": 30
  },
  {
    "lg": -90.125661,
    "lt": 29.944727,
    "t": "AMERICAN INNS OF COURT FOUNDATION",
    "id": "521638663",
    "i": "521638663",
    "n": "AMERICAN INNS OF COURT FOUNDATION",
    "a": "7214 St Charles Avenue Box 901",
    "l": "New Orleans LA 70118",
    "cs": [
      11,
      100
    ],
    "f": 29
  },
  {
    "lg": -89.912079,
    "lt": 30.744198,
    "t": "AMERICAN FEDERATION OF STATE COUNTY & MUNICIPAL EMPLOYEES",
    "id": "721182097",
    "i": "721182097",
    "n": "AMERICAN FEDERATION OF STATE COUNTY & MUNICIPAL EMPLOYEES",
    "a": "59483 LUCY BURT",
    "l": "BOGALUSA LA 70427",
    "cs": [
      6
    ],
    "f": 30
  },
  {
    "lg": -91.021967,
    "lt": 30.431813,
    "t": "AMERICAN FEDERATION OF STATE COUNTY & MUNICIPAL EMPLOYEES",
    "id": "721220923",
    "i": "721220923",
    "n": "AMERICAN FEDERATION OF STATE COUNTY & MUNICIPAL EMPLOYEES",
    "a": "3888 S Sherwood Forest Blvd Bldg 3",
    "l": "Baton Rouge LA 70816",
    "cs": [
      6
    ],
    "f": 30
  },
  {
    "lg": -93.215443,
    "lt": 30.226792,
    "t": "AMERICAN INNS OF COURT FOUNDATION",
    "id": "721280180",
    "i": "721280180",
    "n": "AMERICAN INNS OF COURT FOUNDATION",
    "a": "1011 Lakeshore Dr Ste 402",
    "l": "Lake Charles LA 70601",
    "cs": [
      11,
      100
    ],
    "f": 30,
    "u": "wilbert_landry@yahoo.com"
  },
  {
    "lg": -92.547344,
    "lt": 31.281321,
    "t": "AMERICAN FEDERATION OF STATE COUNTY & MUNICIPAL EMPLOYEES",
    "id": "726027123",
    "i": "726027123",
    "n": "AMERICAN FEDERATION OF STATE COUNTY & MUNICIPAL EMPLOYEES",
    "a": "1401 HICKORY CT",
    "l": "ALEXANDRIA LA 71303",
    "cs": [
      6
    ],
    "f": 31
  },
  {
    "lg": -89.912079,
    "lt": 30.744198,
    "t": "AMERICAN FEDERATION OF STATE COUNTY & MUNICIPAL EMPLOYEES",
    "id": "721182097",
    "i": "721182097",
    "n": "AMERICAN FEDERATION OF STATE COUNTY & MUNICIPAL EMPLOYEES",
    "a": "59483 LUCY BURT",
    "l": "BOGALUSA LA 70427",
    "cs": [
      6
    ],
    "f": 30
  },
  {
    "lg": -90.945939,
    "lt": 30.854787,
    "t": "AMERICAN FEDERATION OF STATE COUNTY & MUNICIPAL EMPLOYEES",
    "id": "941706060",
    "i": "941706060",
    "n": "AMERICAN FEDERATION OF STATE COUNTY & MUNICIPAL EMPLOYEES",
    "a": "10844 BAYOU ST",
    "l": "CLINTON LA 70722",
    "cs": [
      6
    ],
    "f": 30
  },
  {
    "lg": -93.784896,
    "lt": 32.195972,
    "t": "AMERICAN FEDERATION OF STATE COUNTY & MUNICIPAL EMPLOYEES",
    "id": "521650756",
    "i": "521650756",
    "n": "AMERICAN FEDERATION OF STATE COUNTY & MUNICIPAL EMPLOYEES",
    "a": "152 HENDERSON LANE",
    "l": "GLOSTER LA 71030",
    "cs": [
      6
    ],
    "f": 32
  },
  {
    "lg": -93.371695,
    "lt": 30.290269,
    "t": "AMERICAN FEDERATION OF STATE COUNTY & MUNICIPAL EMPLOYEES",
    "id": "726034910",
    "i": "726034910",
    "n": "AMERICAN FEDERATION OF STATE COUNTY & MUNICIPAL EMPLOYEES",
    "a": "460 W BRIMSTONE",
    "l": "SULPHUR LA 70663",
    "cs": [
      6
    ],
    "f": 30
  },
  {
    "lg": -91.519489,
    "lt": 30.489381,
    "t": "AMERICAN FEDERATION OF STATE COUNTY & MUNICIPAL EMPLOYEES",
    "id": "237192751",
    "i": "237192751",
    "n": "AMERICAN FEDERATION OF STATE COUNTY & MUNICIPAL EMPLOYEES",
    "a": "9059 J B LEFEAUX ROAD",
    "l": "MARINGOUIN LA 70757",
    "cs": [
      6
    ],
    "f": 30
  },
  {
    "lg": -92.374928,
    "lt": 31.118246,
    "t": "AMERICAN FEDERATION OF STATE COUNTY & MUNICIPAL EMPLOYEES",
    "id": "237118486",
    "i": "237118486",
    "n": "AMERICAN FEDERATION OF STATE COUNTY & MUNICIPAL EMPLOYEES",
    "a": "110 PENNY LANE",
    "l": "LECOMPTE LA 71346",
    "cs": [
      6
    ],
    "f": 31
  },
  {
    "lg": -90.069648,
    "lt": 29.937353,
    "t": "AMERICAN INNS OF COURT FOUNDATION",
    "id": "352369861",
    "i": "352369861",
    "n": "AMERICAN INNS OF COURT FOUNDATION",
    "a": "601 Poydras St Ste 2775",
    "l": "New Orleans LA 70130",
    "cs": [
      11,
      100
    ],
    "u": "www.moonshadowfest.com",
    "f": 29
  },
  {
    "lg": -91.177692,
    "lt": 30.444469,
    "t": "AMERICAN INNS OF COURT FOUNDATION",
    "id": "521636955",
    "i": "521636955",
    "n": "AMERICAN INNS OF COURT FOUNDATION",
    "a": "701 Main St",
    "l": "Baton Rouge LA 70802",
    "cs": [
      11,
      100
    ],
    "f": 30
  },
  {
    "lg": -90.069648,
    "lt": 29.937353,
    "t": "AMERICAN INNS OF COURT FOUNDATION",
    "id": "352369861",
    "i": "352369861",
    "n": "AMERICAN INNS OF COURT FOUNDATION",
    "a": "601 Poydras St Ste 2775",
    "l": "New Orleans LA 70130",
    "cs": [
      11,
      100
    ],
    "u": "www.moonshadowfest.com",
    "f": 29
  },
  {
    "lg": -90.156313,
    "lt": 30.458752,
    "t": "AMERICAN INNS OF COURT FOUNDATION",
    "id": "861102569",
    "i": "861102569",
    "n": "AMERICAN INNS OF COURT FOUNDATION",
    "a": "701 N Columbia St Rm 3068",
    "l": "Covington LA 70433",
    "cs": [
      11,
      100
    ],
    "f": 30
  },
  {
    "lg": -91.991039,
    "lt": 30.241832,
    "t": "AMERICAN INNS OF COURT FOUNDATION",
    "id": "721378257",
    "i": "721378257",
    "n": "AMERICAN INNS OF COURT FOUNDATION",
    "a": "600 Jefferson St Ste 800",
    "l": "Lafayette LA 70501",
    "cs": [
      11,
      100
    ],
    "u": "www.redhotsbasketball.com",
    "f": 30
  },
  {
    "lg": -90.125661,
    "lt": 29.944727,
    "t": "AMERICAN INNS OF COURT FOUNDATION",
    "id": "521638663",
    "i": "521638663",
    "n": "AMERICAN INNS OF COURT FOUNDATION",
    "a": "7214 St Charles Avenue Box 901",
    "l": "New Orleans LA 70118",
    "cs": [
      11,
      100
    ],
    "f": 29
  },
  {
    "lg": -90.205559,
    "lt": 29.949939,
    "t": "AMERICAN INNS OF COURT FOUNDATION",
    "id": "200552439",
    "i": "200552439",
    "n": "AMERICAN INNS OF COURT FOUNDATION",
    "a": "828 Celeste Avenue",
    "l": "River Ridge LA 70123",
    "cs": [
      11,
      100
    ],
    "f": 29
  },
  {
    "lg": -93.747221,
    "lt": 32.506371,
    "t": "AMERICAN INNS OF COURT FOUNDATION",
    "id": "721182914",
    "i": "721182914",
    "n": "AMERICAN INNS OF COURT FOUNDATION",
    "a": "300 Fannin Street Suite 3201",
    "l": "Shreveport LA 71101",
    "cs": [
      11,
      100
    ],
    "f": 32
  },
  {
    "lg": -92.105911,
    "lt": 32.532929,
    "t": "AMERICAN INNS OF COURT FOUNDATION",
    "id": "721195653",
    "i": "721195653",
    "n": "AMERICAN INNS OF COURT FOUNDATION",
    "a": "201 Jackson St Ste 201",
    "l": "Monroe LA 71201",
    "cs": [
      11,
      100
    ],
    "f": 32
  },
  {
    "lg": -90.069648,
    "lt": 29.937353,
    "t": "AMERICAN INNS OF COURT FOUNDATION",
    "id": "352369861",
    "i": "352369861",
    "n": "AMERICAN INNS OF COURT FOUNDATION",
    "a": "601 Poydras St Ste 2775",
    "l": "New Orleans LA 70130",
    "cs": [
      11,
      100
    ],
    "u": "www.moonshadowfest.com",
    "f": 29
  },
  {
    "lg": -90.349707,
    "lt": 30.630171,
    "t": "AMERICAN INNS OF COURT FOUNDATION",
    "id": "721493128",
    "i": "721493128",
    "n": "AMERICAN INNS OF COURT FOUNDATION",
    "a": "PO Box 769",
    "l": "Loranger LA 70446",
    "cs": [
      11,
      100
    ],
    "f": 30
  },
  {
    "lg": -93.215443,
    "lt": 30.226792,
    "t": "AMERICAN INNS OF COURT FOUNDATION",
    "id": "721280180",
    "i": "721280180",
    "n": "AMERICAN INNS OF COURT FOUNDATION",
    "a": "1011 Lakeshore Dr Ste 402",
    "l": "Lake Charles LA 70601",
    "cs": [
      11,
      100
    ],
    "f": 30,
    "u": "wilbert_landry@yahoo.com"
  },
  {
    "lg": -93.106492,
    "lt": 31.741703,
    "t": "AMERICAN INNS OF COURT FOUNDATION",
    "id": "562463847",
    "i": "562463847",
    "n": "AMERICAN INNS OF COURT FOUNDATION",
    "a": "1901 Texas St",
    "l": "Natchitoches LA 71457",
    "cs": [
      11,
      100
    ],
    "f": 31,
    "u": "http://www.achildsdesire.org"
  },
  {
    "lg": -92.467107,
    "lt": 31.274156,
    "t": "AMERICAN INNS OF COURT FOUNDATION",
    "id": "721176874",
    "i": "721176874",
    "n": "AMERICAN INNS OF COURT FOUNDATION",
    "a": "515 Murray St Room 331",
    "l": "Alexandria LA 71301",
    "cs": [
      11,
      100
    ],
    "f": 31,
    "u": "www.ahaa.us"
  },
  {
    "lg": -92.054784,
    "lt": 30.170874,
    "t": "AMERICAN INNS OF COURT FOUNDATION",
    "id": "721156234",
    "i": "721156234",
    "n": "AMERICAN INNS OF COURT FOUNDATION",
    "a": "900 E St Mary Blvd Ste 200",
    "l": "Lafayette LA 70503",
    "cs": [
      11,
      100
    ],
    "f": 30
  },
  {
    "lg": -91.177692,
    "lt": 30.444469,
    "t": "AMERICAN INNS OF COURT FOUNDATION",
    "id": "521636955",
    "i": "521636955",
    "n": "AMERICAN INNS OF COURT FOUNDATION",
    "a": "701 Main St",
    "l": "Baton Rouge LA 70802",
    "cs": [
      11,
      100
    ],
    "f": 30
  },
  {
    "lg": -91.83357,
    "lt": 30.298246,
    "t": "AMERICAN INNS OF COURT FOUNDATION",
    "id": "203598802",
    "i": "203598802",
    "n": "AMERICAN INNS OF COURT FOUNDATION",
    "a": "PO Box 877",
    "l": "Breaux Bridge LA 70517",
    "cs": [
      11,
      100
    ],
    "f": 30
  },
  {
    "lg": -90.032322,
    "lt": 29.937445,
    "t": "10 RAHAB COURT",
    "id": "720977105",
    "i": "720977105",
    "n": "10 RAHAB COURT",
    "a": "1757 PACE BLVD",
    "l": "NEW ORLEANS LA 70114",
    "cs": [
      11
    ],
    "f": 29,
    "u": "WWW.AMAZONSPORTS.ORG"
  },
  {
    "lg": -92.028225,
    "lt": 30.155238,
    "t": "10797 LAFAYETTE BREAKFAST SERTOMA CLUB SPONSORSHIP FUND",
    "id": "260373962",
    "i": "260373962",
    "n": "10797 LAFAYETTE BREAKFAST SERTOMA CLUB SPONSORSHIP FUND",
    "a": "201 Paddington Dr",
    "l": "Lafayette LA 70508",
    "cs": [
      9,
      100
    ],
    "f": 30
  },
  {
    "lg": -90.032322,
    "lt": 29.937445,
    "t": "10 RAHAB COURT",
    "id": "720977105",
    "i": "720977105",
    "n": "10 RAHAB COURT",
    "a": "1757 PACE BLVD",
    "l": "NEW ORLEANS LA 70114",
    "cs": [
      11
    ],
    "f": 29,
    "u": "WWW.AMAZONSPORTS.ORG"
  }
]