[
  {
    "lg": -100.9353,
    "lt": 46.742723,
    "t": "164TH INFANTRY ASSOCIATION OF THE UNITED STATES OF AMERICA",
    "id": "450379851",
    "i": "450379851",
    "n": "164TH INFANTRY ASSOCIATION OF THE UNITED STATES OF AMERICA",
    "a": "4231 Shaun Lane Unit 4",
    "l": "Mandan ND 58554",
    "cs": [
      3
    ],
    "f": 46
  },
  {
    "lg": -102.593657,
    "lt": 46.095007,
    "t": "ADAMS COUNTY DEVELOPMENT FOUNDATION INC",
    "id": "450461591",
    "i": "450461591",
    "n": "ADAMS COUNTY DEVELOPMENT FOUNDATION INC",
    "a": "PO Box 1323",
    "l": "Hettinger ND 58639",
    "cs": [
      100
    ],
    "f": 46
  },
  {
    "lg": -102.593657,
    "lt": 46.095007,
    "t": "ADAMS COUNTY DEVELOPMENT FOUNDATION INC",
    "id": "450461591",
    "i": "450461591",
    "n": "ADAMS COUNTY DEVELOPMENT FOUNDATION INC",
    "a": "PO Box 1323",
    "l": "Hettinger ND 58639",
    "cs": [
      100
    ],
    "f": 46
  },
  {
    "lg": -99.899917,
    "lt": 46.853459,
    "t": "ACTIVE SENIORS",
    "id": "450424158",
    "i": "450424158",
    "n": "ACTIVE SENIORS",
    "a": "202 1st Ave NW",
    "l": "Steele ND 58482",
    "cs": [
      15
    ],
    "f": 46
  },
  {
    "lg": -101.306666,
    "lt": 48.334073,
    "t": "ACTION AGILITY DOG TRAINING CLUB",
    "id": "050533124",
    "i": "050533124",
    "n": "ACTION AGILITY DOG TRAINING CLUB",
    "a": "5300 19th Ave NW",
    "l": "Minot ND 58703",
    "cs": [
      6
    ],
    "u": "www.actionagility.weebly.com",
    "f": 48
  },
  {
    "lg": -96.822073,
    "lt": 46.85614,
    "t": "ACADEMY FOR CHILDREN ELEMENTARY",
    "id": "412011656",
    "i": "412011656",
    "n": "ACADEMY FOR CHILDREN ELEMENTARY",
    "a": "20 8TH ST S",
    "l": "FARGO ND 58103",
    "cs": [
      5,
      3
    ],
    "f": 46
  },
  {
    "lg": -100.689563,
    "lt": 46.109619,
    "t": "AKICHITA YOUTH ATHLETIC ACADEMY INC",
    "id": "872714776",
    "i": "872714776",
    "n": "AKICHITA YOUTH ATHLETIC ACADEMY INC",
    "a": "8219 Highway 24",
    "l": "Fort Yates ND 58538",
    "cs": [
      7
    ],
    "f": 46
  },
  {
    "lg": -101.326016,
    "lt": 48.144826,
    "t": "3 KINGS WORKSHOP",
    "id": "462406431",
    "i": "462406431",
    "n": "3 KINGS WORKSHOP",
    "a": "2409 4th Ave SW",
    "l": "Minot ND 58701",
    "cs": [
      6
    ],
    "f": 48,
    "u": "https://www.facebook.com/AidansPromiseInc"
  },
  {
    "lg": -101.326016,
    "lt": 48.144826,
    "t": "3 KINGS WORKSHOP",
    "id": "462406431",
    "i": "462406431",
    "n": "3 KINGS WORKSHOP",
    "a": "2409 4th Ave SW",
    "l": "Minot ND 58701",
    "cs": [
      6
    ],
    "f": 48,
    "u": "https://www.facebook.com/AidansPromiseInc"
  },
  {
    "lg": -101.326016,
    "lt": 48.144826,
    "t": "3 KINGS WORKSHOP",
    "id": "462406431",
    "i": "462406431",
    "n": "3 KINGS WORKSHOP",
    "a": "2409 4th Ave SW",
    "l": "Minot ND 58701",
    "cs": [
      6
    ],
    "f": 48,
    "u": "https://www.facebook.com/AidansPromiseInc"
  },
  {
    "lg": -101.326016,
    "lt": 48.144826,
    "t": "3 KINGS WORKSHOP",
    "id": "462406431",
    "i": "462406431",
    "n": "3 KINGS WORKSHOP",
    "a": "2409 4th Ave SW",
    "l": "Minot ND 58701",
    "cs": [
      6
    ],
    "f": 48,
    "u": "https://www.facebook.com/AidansPromiseInc"
  },
  {
    "lg": -100.947714,
    "lt": 48.029571,
    "t": "AGGIE FOUNDATION",
    "id": "460644499",
    "i": "460644499",
    "n": "AGGIE FOUNDATION",
    "a": "501 Main Street",
    "l": "Velva ND 58790",
    "cs": [
      100
    ],
    "f": 48
  },
  {
    "lg": -97.324941,
    "lt": 46.868239,
    "t": "4 CORNERS SENIOR CITIZEN CLUB",
    "id": "352386541",
    "i": "352386541",
    "n": "4 CORNERS SENIOR CITIZEN CLUB",
    "a": "1447 42 st SE",
    "l": "EMBDEN ND 58079",
    "cs": [
      15
    ],
    "f": 46
  },
  {
    "lg": -101.326016,
    "lt": 48.144826,
    "t": "3 KINGS WORKSHOP",
    "id": "462406431",
    "i": "462406431",
    "n": "3 KINGS WORKSHOP",
    "a": "2409 4th Ave SW",
    "l": "Minot ND 58701",
    "cs": [
      6
    ],
    "f": 48,
    "u": "https://www.facebook.com/AidansPromiseInc"
  },
  {
    "lg": -98.687205,
    "lt": 46.880348,
    "t": "20TH REGIMENTAL INFANTRY COMPANY A",
    "id": "363429309",
    "i": "363429309",
    "n": "20TH REGIMENTAL INFANTRY COMPANY A",
    "a": "PO Box 1393",
    "l": "Jamestown ND 58402",
    "cs": [
      3
    ],
    "f": 46
  },
  {
    "lg": -100.9353,
    "lt": 46.742723,
    "t": "164TH INFANTRY ASSOCIATION OF THE UNITED STATES OF AMERICA",
    "id": "450379851",
    "i": "450379851",
    "n": "164TH INFANTRY ASSOCIATION OF THE UNITED STATES OF AMERICA",
    "a": "4231 Shaun Lane Unit 4",
    "l": "Mandan ND 58554",
    "cs": [
      3
    ],
    "f": 46
  }
]