[
  {
    "lg": -71.703708,
    "lt": 43.078057,
    "t": "AGRARIAN LAND TRUST",
    "id": "475508054",
    "i": "475508054",
    "n": "AGRARIAN LAND TRUST",
    "a": "22 Buxton School Road",
    "l": "Weare NH 03281",
    "cs": [
      100
    ],
    "f": 43,
    "u": "WWW.AGRARIANTRUST.ORG"
  },
  {
    "lg": -70.987522,
    "lt": 42.978415,
    "t": "4 LIL PAWS FERRET SHELTER INC",
    "id": "020480680",
    "i": "020480680",
    "n": "4 LIL PAWS FERRET SHELTER INC",
    "a": "49 Prescott Road",
    "l": "Brentwood NH 03833",
    "cs": [
      1
    ],
    "f": 42
  },
  {
    "lg": -70.887944,
    "lt": 43.253476,
    "t": "AMATURE ATHLETIC UNION OF THE UNITED STATES INC",
    "id": "300766799",
    "i": "300766799",
    "n": "AMATURE ATHLETIC UNION OF THE UNITED STATES INC",
    "a": "PO Box 527",
    "l": "Somersworth NH 03878",
    "cs": [
      7
    ],
    "f": 43
  },
  {
    "lg": -71.458266,
    "lt": 42.741087,
    "t": "3MOMS 1MISSION INC",
    "id": "461621468",
    "i": "461621468",
    "n": "3MOMS 1MISSION INC",
    "a": "10 Paul Avenue",
    "l": "Nashua NH 03060",
    "cs": [
      1
    ],
    "f": 42
  },
  {
    "lg": -72.29636,
    "lt": 42.858271,
    "t": "372 MARLBORO ST HOME ASSOC",
    "id": "020154974",
    "i": "020154974",
    "n": "372 MARLBORO ST HOME ASSOC",
    "a": "19 Flat Roof Mill Road",
    "l": "Swanzey NH 03446",
    "cs": [
      1
    ],
    "f": 42
  },
  {
    "lg": -71.518043,
    "lt": 42.782084,
    "t": "ALBANO SCHOLARSHIP FOR MASTERS LEVEL ACHIEVEMENT IN TEACHING",
    "id": "264547134",
    "i": "264547134",
    "n": "ALBANO SCHOLARSHIP FOR MASTERS LEVEL ACHIEVEMENT IN TEACHING",
    "a": "7 Bartemus Trail Unit 303",
    "l": "Nashua NH 03063",
    "cs": [
      5,
      100
    ],
    "f": 42
  },
  {
    "lg": -71.491063,
    "lt": 43.011907,
    "t": "80ROCK CHARITABLE FOUNDATION LTD",
    "id": "872727504",
    "i": "872727504",
    "n": "80ROCK CHARITABLE FOUNDATION LTD",
    "a": "74 Louis St",
    "l": "Manchester NH 03102",
    "cs": [
      100
    ],
    "u": "www.80rock.org",
    "f": 43
  },
  {
    "lg": -71.221726,
    "lt": 42.788264,
    "t": "ACADEMIC BASKETBALL AWARENESS",
    "id": "813656134",
    "i": "813656134",
    "n": "ACADEMIC BASKETBALL AWARENESS",
    "a": "182 MAIN ST",
    "l": "SALEM NH 03079",
    "cs": [
      7
    ],
    "f": 42
  },
  {
    "lg": -71.518043,
    "lt": 42.782084,
    "t": "ALBANO SCHOLARSHIP FOR MASTERS LEVEL ACHIEVEMENT IN TEACHING",
    "id": "264547134",
    "i": "264547134",
    "n": "ALBANO SCHOLARSHIP FOR MASTERS LEVEL ACHIEVEMENT IN TEACHING",
    "a": "7 Bartemus Trail Unit 303",
    "l": "Nashua NH 03063",
    "cs": [
      5,
      100
    ],
    "f": 42
  },
  {
    "lg": -71.221726,
    "lt": 42.788264,
    "t": "ACADEMIC BASKETBALL AWARENESS",
    "id": "813656134",
    "i": "813656134",
    "n": "ACADEMIC BASKETBALL AWARENESS",
    "a": "182 MAIN ST",
    "l": "SALEM NH 03079",
    "cs": [
      7
    ],
    "f": 42
  },
  {
    "lg": -71.474918,
    "lt": 42.779378,
    "t": "ABSTINENCE EDUCATION RESOURCE INSTITUTE",
    "id": "043389900",
    "i": "043389900",
    "n": "ABSTINENCE EDUCATION RESOURCE INSTITUTE",
    "a": "71 Watson St",
    "l": "Nashua NH 03064",
    "cs": [
      5
    ],
    "f": 42
  },
  {
    "lg": -71.545865,
    "lt": 44.483853,
    "t": "ABOVE THE NOTCH FOOTBALL ASSOCIATION",
    "id": "450559682",
    "i": "450559682",
    "n": "ABOVE THE NOTCH FOOTBALL ASSOCIATION",
    "a": "5 Williams Street",
    "l": "Lancaster NH 03584",
    "cs": [
      7
    ],
    "u": "wolvesnorth.com",
    "f": 44
  },
  {
    "lg": -71.177139,
    "lt": 43.603773,
    "t": "AFGHAN CHILDRENS PROJECT",
    "id": "510608734",
    "i": "510608734",
    "n": "AFGHAN CHILDRENS PROJECT",
    "a": "2 Partridge Dr",
    "l": "Wolfeboro NH 03894",
    "cs": [
      3
    ],
    "u": "http://www.abenakilacrosse.com/",
    "f": 43
  },
  {
    "lg": -72.093129,
    "lt": 43.390088,
    "t": "ABBOTT LIBRARY FOUNDATION",
    "id": "453253595",
    "i": "453253595",
    "n": "ABBOTT LIBRARY FOUNDATION",
    "a": "PO Box 66",
    "l": "Sunapee NH 03782",
    "cs": [
      100
    ],
    "u": "abbottlibraryfoundation.org",
    "f": 43
  },
  {
    "lg": -71.555988,
    "lt": 43.238549,
    "t": "AMERICAN INNS OF COURT FOUNDATION",
    "id": "020463960",
    "i": "020463960",
    "n": "AMERICAN INNS OF COURT FOUNDATION",
    "a": "One Charles Doe Dr",
    "l": "Concord NH 03301",
    "cs": [
      11,
      100
    ],
    "f": 43,
    "u": "www.nneahe.ache.org"
  },
  {
    "lg": -71.205107,
    "lt": 43.038038,
    "t": "A BETTER WAY OF LIFE FOUNDATION",
    "id": "205964296",
    "i": "205964296",
    "n": "A BETTER WAY OF LIFE FOUNDATION",
    "a": "9 LOWER SCOTLAND DR",
    "l": "RAYMOND NH 03077",
    "cs": [
      100
    ],
    "f": 43
  },
  {
    "lg": -71.177139,
    "lt": 43.603773,
    "t": "AFGHAN CHILDRENS PROJECT",
    "id": "510608734",
    "i": "510608734",
    "n": "AFGHAN CHILDRENS PROJECT",
    "a": "2 Partridge Dr",
    "l": "Wolfeboro NH 03894",
    "cs": [
      3
    ],
    "u": "http://www.abenakilacrosse.com/",
    "f": 43
  },
  {
    "lg": -71.369179,
    "lt": 43.717721,
    "t": "ADVANCING CANCER TREATMENT",
    "id": "832886283",
    "i": "832886283",
    "n": "ADVANCING CANCER TREATMENT",
    "a": "42 RUPPERT RD",
    "l": "MOULTONBOROUGH NH 03254",
    "cs": [
      9
    ],
    "u": "www.actclinicaltrials.org",
    "f": 43
  },
  {
    "lg": -71.555988,
    "lt": 43.238549,
    "t": "AMERICAN INNS OF COURT FOUNDATION",
    "id": "020463960",
    "i": "020463960",
    "n": "AMERICAN INNS OF COURT FOUNDATION",
    "a": "One Charles Doe Dr",
    "l": "Concord NH 03301",
    "cs": [
      11,
      100
    ],
    "f": 43,
    "u": "www.nneahe.ache.org"
  },
  {
    "lg": -71.673354,
    "lt": 42.818645,
    "t": "ADDICTION RECOVERY COALITION OF NEW HAMPSHIRE",
    "id": "823773693",
    "i": "823773693",
    "n": "ADDICTION RECOVERY COALITION OF NEW HAMPSHIRE",
    "a": "180 Elm Street",
    "l": "Milford NH 03055",
    "cs": [
      51
    ],
    "u": ".https://arcnh.org/",
    "f": 42
  },
  {
    "lg": -72.286124,
    "lt": 43.238837,
    "t": "ACWORTH COMMUNITY CHARITABLE TRUST",
    "id": "010886554",
    "i": "010886554",
    "n": "ACWORTH COMMUNITY CHARITABLE TRUST",
    "a": "PO Box 10",
    "l": "Acworth NH 03601",
    "cs": [
      100
    ],
    "f": 43
  },
  {
    "lg": -71.940102,
    "lt": 42.868369,
    "t": "ACTORS CIRCLE THEATER",
    "id": "043381991",
    "i": "043381991",
    "n": "ACTORS CIRCLE THEATER",
    "a": "PO Box 374",
    "l": "Peterborough NH 03458",
    "cs": [
      9
    ],
    "u": "www.actorscircletheatre.org",
    "f": 42
  },
  {
    "lg": -70.805443,
    "lt": 43.074812,
    "t": "ALLIANCE FOR GREATER GOOD",
    "id": "880761357",
    "i": "880761357",
    "n": "ALLIANCE FOR GREATER GOOD",
    "a": "213 GATES STREET UNIT 1",
    "l": "PORTSMOUTH NH 03801",
    "cs": [
      9
    ],
    "f": 43,
    "u": "allianceforgreatergood.org"
  },
  {
    "lg": -71.789139,
    "lt": 43.642709,
    "t": "ALEXANDRIA RECREATIONAL ADVISORY COUNCIL",
    "id": "263158231",
    "i": "263158231",
    "n": "ALEXANDRIA RECREATIONAL ADVISORY COUNCIL",
    "a": "286 Foster Pond Road Alexandria",
    "l": "Alexandria NH 03222",
    "cs": [
      7,
      9
    ],
    "f": 43
  },
  {
    "lg": -71.446658,
    "lt": 43.333988,
    "t": "ALEC J WHITE MEMORIAL SCHOLARSHIP FUND",
    "id": "844855951",
    "i": "844855951",
    "n": "ALEC J WHITE MEMORIAL SCHOLARSHIP FUND",
    "a": "PO Box 7025",
    "l": "Loudon NH 03307",
    "cs": [
      5,
      100
    ],
    "u": "alecsantics.org",
    "f": 43
  },
  {
    "lg": -71.519876,
    "lt": 42.852034,
    "t": "AMATEUR ATHLETIC UNION OF THE UNITED STATES INC",
    "id": "465134523",
    "i": "465134523",
    "n": "AMATEUR ATHLETIC UNION OF THE UNITED STATES INC",
    "a": "66 PEASLEE ROAD",
    "l": "MERRIMACK NH 03054",
    "cs": [
      7
    ],
    "f": 42
  },
  {
    "lg": -71.518043,
    "lt": 42.782084,
    "t": "ALBANO SCHOLARSHIP FOR MASTERS LEVEL ACHIEVEMENT IN TEACHING",
    "id": "264547134",
    "i": "264547134",
    "n": "ALBANO SCHOLARSHIP FOR MASTERS LEVEL ACHIEVEMENT IN TEACHING",
    "a": "7 Bartemus Trail Unit 303",
    "l": "Nashua NH 03063",
    "cs": [
      5,
      100
    ],
    "f": 42
  },
  {
    "lg": -71.446878,
    "lt": 43.082584,
    "t": "AIR FORCE ASSOCIATION",
    "id": "237278903",
    "i": "237278903",
    "n": "AIR FORCE ASSOCIATION",
    "a": "140 Hackett Hill Road",
    "l": "Hooksett NH 03106",
    "cs": [
      16
    ],
    "f": 43
  },
  {
    "lg": -71.519876,
    "lt": 42.852034,
    "t": "AMATEUR ATHLETIC UNION OF THE UNITED STATES INC",
    "id": "465134523",
    "i": "465134523",
    "n": "AMATEUR ATHLETIC UNION OF THE UNITED STATES INC",
    "a": "66 PEASLEE ROAD",
    "l": "MERRIMACK NH 03054",
    "cs": [
      7
    ],
    "f": 42
  },
  {
    "lg": -71.703708,
    "lt": 43.078057,
    "t": "AGRARIAN LAND TRUST",
    "id": "475508054",
    "i": "475508054",
    "n": "AGRARIAN LAND TRUST",
    "a": "22 Buxton School Road",
    "l": "Weare NH 03281",
    "cs": [
      100
    ],
    "f": 43,
    "u": "WWW.AGRARIANTRUST.ORG"
  },
  {
    "lg": -70.805443,
    "lt": 43.074812,
    "t": "ALLIANCE FOR GREATER GOOD",
    "id": "880761357",
    "i": "880761357",
    "n": "ALLIANCE FOR GREATER GOOD",
    "a": "213 GATES STREET UNIT 1",
    "l": "PORTSMOUTH NH 03801",
    "cs": [
      9
    ],
    "f": 43,
    "u": "allianceforgreatergood.org"
  },
  {
    "lg": -71.007082,
    "lt": 43.119202,
    "t": "ALLIANCE FOR BETTER CHILD CARE",
    "id": "020452265",
    "i": "020452265",
    "n": "ALLIANCE FOR BETTER CHILD CARE",
    "a": "114 Mast Road",
    "l": "Lee NH 03861",
    "cs": [
      3
    ],
    "u": "abcseacoast.org",
    "f": 43
  },
  {
    "lg": -71.417063,
    "lt": 43.170513,
    "t": "ALLENSTOWN AND PEMBROKE INTERFAITH FOOD PANTRY",
    "id": "311647912",
    "i": "311647912",
    "n": "ALLENSTOWN AND PEMBROKE INTERFAITH FOOD PANTRY",
    "a": "147 Main Street",
    "l": "Pembroke NH 03275",
    "cs": [
      9
    ],
    "f": 43
  },
  {
    "lg": -71.417063,
    "lt": 43.170513,
    "t": "ALLENSTOWN AND PEMBROKE INTERFAITH FOOD PANTRY",
    "id": "311647912",
    "i": "311647912",
    "n": "ALLENSTOWN AND PEMBROKE INTERFAITH FOOD PANTRY",
    "a": "147 Main Street",
    "l": "Pembroke NH 03275",
    "cs": [
      9
    ],
    "f": 43
  },
  {
    "lg": -71.296068,
    "lt": 43.864038,
    "t": "ALTRUSA INTERNATIONAL FOUNDATION INC",
    "id": "263124933",
    "i": "263124933",
    "n": "ALTRUSA INTERNATIONAL FOUNDATION INC",
    "a": "PO BOX 202",
    "l": "TAMWORTH NH 03886",
    "cs": [
      100
    ],
    "f": 43
  },
  {
    "lg": -71.498585,
    "lt": 43.631211,
    "t": "1855 BLUE AND GOLD HOUSE CORPORATION",
    "id": "320408778",
    "i": "320408778",
    "n": "1855 BLUE AND GOLD HOUSE CORPORATION",
    "a": "PO BOX 528",
    "l": "MEREDITH NH 03253",
    "cs": [
      15,
      1
    ],
    "f": 43
  },
  {
    "lg": -71.200405,
    "lt": 43.464959,
    "t": "ALTON POLICE ASSOCIATION",
    "id": "020366021",
    "i": "020366021",
    "n": "ALTON POLICE ASSOCIATION",
    "a": "15 Depot Street",
    "l": "Alton NH 03809",
    "cs": [
      11
    ],
    "f": 43
  },
  {
    "lg": -71.200405,
    "lt": 43.464959,
    "t": "ALTON POLICE ASSOCIATION",
    "id": "020366021",
    "i": "020366021",
    "n": "ALTON POLICE ASSOCIATION",
    "a": "15 Depot Street",
    "l": "Alton NH 03809",
    "cs": [
      11
    ],
    "f": 43
  },
  {
    "lg": -70.887944,
    "lt": 43.253476,
    "t": "AMATURE ATHLETIC UNION OF THE UNITED STATES INC",
    "id": "300766799",
    "i": "300766799",
    "n": "AMATURE ATHLETIC UNION OF THE UNITED STATES INC",
    "a": "PO Box 527",
    "l": "Somersworth NH 03878",
    "cs": [
      7
    ],
    "f": 43
  },
  {
    "lg": -71.519876,
    "lt": 42.852034,
    "t": "AMATEUR ATHLETIC UNION OF THE UNITED STATES INC",
    "id": "465134523",
    "i": "465134523",
    "n": "AMATEUR ATHLETIC UNION OF THE UNITED STATES INC",
    "a": "66 PEASLEE ROAD",
    "l": "MERRIMACK NH 03054",
    "cs": [
      7
    ],
    "f": 42
  },
  {
    "lg": -71.439782,
    "lt": 43.009552,
    "t": "AMATEUR ATHLETIC UNION OF THE UNITED STATES",
    "id": "271733771",
    "i": "271733771",
    "n": "AMATEUR ATHLETIC UNION OF THE UNITED STATES",
    "a": "354 E High St",
    "l": "Manchester NH 03104",
    "cs": [
      7
    ],
    "u": "bishopelite@gmail.com",
    "f": 43
  },
  {
    "lg": -72.30649,
    "lt": 43.638325,
    "t": "AMATEUR ATHLETIC UNION OF THE UNITED STATES INC",
    "id": "800862810",
    "i": "800862810",
    "n": "AMATEUR ATHLETIC UNION OF THE UNITED STATES INC",
    "a": "8 APPLE BLOSSOM DRIVE",
    "l": "WEST LEBANON NH 03784",
    "cs": [
      7
    ],
    "u": "HTTPS://HANOVERHEATBBALL.TEAMPAGES.COM",
    "f": 43
  },
  {
    "lg": -72.172904,
    "lt": 42.901769,
    "t": "AMATEUR ATHLETIC UNION OF THE UNITED STATES INC",
    "id": "472935468",
    "i": "472935468",
    "n": "AMATEUR ATHLETIC UNION OF THE UNITED STATES INC",
    "a": "365 Old Dublin Rd",
    "l": "Marlborough NH 03455",
    "cs": [
      7
    ],
    "f": 42
  },
  {
    "lg": -71.563462,
    "lt": 43.021515,
    "t": "AMATEUR ATHLETIC UNION OF THE UNITED STATES INC",
    "id": "822966704",
    "i": "822966704",
    "n": "AMATEUR ATHLETIC UNION OF THE UNITED STATES INC",
    "a": "52 DURANGO DRIVE",
    "l": "GOFFSTOWN NH 03045",
    "cs": [
      7
    ],
    "f": 43
  },
  {
    "lg": -71.519876,
    "lt": 42.852034,
    "t": "AMATEUR ATHLETIC UNION OF THE UNITED STATES INC",
    "id": "465134523",
    "i": "465134523",
    "n": "AMATEUR ATHLETIC UNION OF THE UNITED STATES INC",
    "a": "66 PEASLEE ROAD",
    "l": "MERRIMACK NH 03054",
    "cs": [
      7
    ],
    "f": 42
  },
  {
    "lg": -72.294803,
    "lt": 42.965044,
    "t": "AMATEUR ATHLETIC UNION OF THE UNITED STATES INC",
    "id": "822565866",
    "i": "822565866",
    "n": "AMATEUR ATHLETIC UNION OF THE UNITED STATES INC",
    "a": "149 Howard Street",
    "l": "Keene NH 03431",
    "cs": [
      7
    ],
    "f": 42
  },
  {
    "lg": -71.536871,
    "lt": 42.935584,
    "t": "AMATEUR ATHLETIC UNION OF THE UNITED STATES",
    "id": "421758315",
    "i": "421758315",
    "n": "AMATEUR ATHLETIC UNION OF THE UNITED STATES",
    "a": "76 Plummer Road",
    "l": "Bedford NH 03110",
    "cs": [
      7
    ],
    "f": 42
  },
  {
    "lg": -72.001291,
    "lt": 43.96185,
    "t": "AMATEUR ATHLETIC UNION OF THE UNITED STATES INC",
    "id": "810709380",
    "i": "810709380",
    "n": "AMATEUR ATHLETIC UNION OF THE UNITED STATES INC",
    "a": "61 Arron rd",
    "l": "Piermont NH 03779",
    "cs": [
      7
    ],
    "f": 43
  },
  {
    "lg": -72.234816,
    "lt": 43.632568,
    "t": "AMERICAN BOARD OF CLINICAL PHARMOCOLOGY INC",
    "id": "222124506",
    "i": "222124506",
    "n": "AMERICAN BOARD OF CLINICAL PHARMOCOLOGY INC",
    "a": "39 WESTVIEW LANE",
    "l": "LEBANON NH 03766",
    "cs": [
      10
    ],
    "f": 43,
    "u": "WWW.ABCP.NET"
  },
  {
    "lg": -71.468283,
    "lt": 42.846081,
    "t": "AMATEUR ATHLETIC UNION OF THE UNITED STATES",
    "id": "043728840",
    "i": "043728840",
    "n": "AMATEUR ATHLETIC UNION OF THE UNITED STATES",
    "a": "97 Talent Road",
    "l": "Litchfield NH 03052",
    "cs": [
      7
    ],
    "f": 42
  },
  {
    "lg": -71.501176,
    "lt": 42.722323,
    "t": "AMERICAN COLLEGE OF DENTISTS NE SECTION",
    "id": "521384702",
    "i": "521384702",
    "n": "AMERICAN COLLEGE OF DENTISTS NE SECTION",
    "a": "17 Cameron Drive",
    "l": "Nashua NH 03062",
    "cs": [
      5
    ],
    "f": 42
  },
  {
    "lg": -71.537242,
    "lt": 43.133177,
    "t": "AMATEUR ATHLETIC UNION OF THE UNITED STATES",
    "id": "461606223",
    "i": "461606223",
    "n": "AMATEUR ATHLETIC UNION OF THE UNITED STATES",
    "a": "13 Hunter Dr",
    "l": "Bow NH 03304",
    "cs": [
      7
    ],
    "f": 43
  },
  {
    "lg": -70.829441,
    "lt": 42.979934,
    "t": "AMATEUR ATHLETIC UNION OF THE UNITED STATES",
    "id": "461600707",
    "i": "461600707",
    "n": "AMATEUR ATHLETIC UNION OF THE UNITED STATES",
    "a": "72 Walnut Ave",
    "l": "North Hampton NH 03862",
    "cs": [
      7
    ],
    "u": "www.NHSpartans.com",
    "f": 42
  },
  {
    "lg": -71.409494,
    "lt": 42.760508,
    "t": "AMATEUR ATHLETIC UNION OF THE UNITED STATES",
    "id": "711003104",
    "i": "711003104",
    "n": "AMATEUR ATHLETIC UNION OF THE UNITED STATES",
    "a": "38 St Laurent Dr",
    "l": "Hudson NH 03051",
    "cs": [
      7
    ],
    "f": 42
  },
  {
    "lg": -71.142619,
    "lt": 43.179131,
    "t": "AMATEUR ATHLETIC UNION OF THE UNITED STATES",
    "id": "204289950",
    "i": "204289950",
    "n": "AMATEUR ATHLETIC UNION OF THE UNITED STATES",
    "a": "PO Box 168",
    "l": "West Nottingham NH 03291",
    "cs": [
      7
    ],
    "f": 43
  },
  {
    "lg": -71.536871,
    "lt": 42.935584,
    "t": "AMATEUR ATHLETIC UNION OF THE UNITED STATES",
    "id": "421758315",
    "i": "421758315",
    "n": "AMATEUR ATHLETIC UNION OF THE UNITED STATES",
    "a": "76 Plummer Road",
    "l": "Bedford NH 03110",
    "cs": [
      7
    ],
    "f": 42
  },
  {
    "lg": -71.409494,
    "lt": 42.760508,
    "t": "AMATEUR ATHLETIC UNION OF THE UNITED STATES",
    "id": "711003104",
    "i": "711003104",
    "n": "AMATEUR ATHLETIC UNION OF THE UNITED STATES",
    "a": "38 St Laurent Dr",
    "l": "Hudson NH 03051",
    "cs": [
      7
    ],
    "f": 42
  },
  {
    "lg": -71.468283,
    "lt": 42.846081,
    "t": "AMATEUR ATHLETIC UNION OF THE UNITED STATES",
    "id": "043728840",
    "i": "043728840",
    "n": "AMATEUR ATHLETIC UNION OF THE UNITED STATES",
    "a": "97 Talent Road",
    "l": "Litchfield NH 03052",
    "cs": [
      7
    ],
    "f": 42
  },
  {
    "lg": -71.439782,
    "lt": 43.009552,
    "t": "AMATEUR ATHLETIC UNION OF THE UNITED STATES",
    "id": "271733771",
    "i": "271733771",
    "n": "AMATEUR ATHLETIC UNION OF THE UNITED STATES",
    "a": "354 E High St",
    "l": "Manchester NH 03104",
    "cs": [
      7
    ],
    "u": "bishopelite@gmail.com",
    "f": 43
  },
  {
    "lg": -71.555988,
    "lt": 43.238549,
    "t": "AMERICAN INNS OF COURT FOUNDATION",
    "id": "020463960",
    "i": "020463960",
    "n": "AMERICAN INNS OF COURT FOUNDATION",
    "a": "One Charles Doe Dr",
    "l": "Concord NH 03301",
    "cs": [
      11,
      100
    ],
    "f": 43,
    "u": "www.nneahe.ache.org"
  },
  {
    "lg": -71.501176,
    "lt": 42.722323,
    "t": "AMERICAN COLLEGE OF DENTISTS NE SECTION",
    "id": "521384702",
    "i": "521384702",
    "n": "AMERICAN COLLEGE OF DENTISTS NE SECTION",
    "a": "17 Cameron Drive",
    "l": "Nashua NH 03062",
    "cs": [
      5
    ],
    "f": 42
  },
  {
    "lg": -72.142753,
    "lt": 43.727746,
    "t": "AMERICAN CENTER FOR EDUCATION AND KNOWLEDGE FUND",
    "id": "821128442",
    "i": "821128442",
    "n": "AMERICAN CENTER FOR EDUCATION AND KNOWLEDGE FUND",
    "a": "41 S Park Street",
    "l": "Hanover NH 03755",
    "cs": [
      5,
      100
    ],
    "f": 43
  },
  {
    "lg": -72.142753,
    "lt": 43.727746,
    "t": "AMERICAN CENTER FOR EDUCATION AND KNOWLEDGE FUND",
    "id": "821128442",
    "i": "821128442",
    "n": "AMERICAN CENTER FOR EDUCATION AND KNOWLEDGE FUND",
    "a": "41 S Park Street",
    "l": "Hanover NH 03755",
    "cs": [
      5,
      100
    ],
    "f": 43
  },
  {
    "lg": -72.234816,
    "lt": 43.632568,
    "t": "AMERICAN BOARD OF CLINICAL PHARMOCOLOGY INC",
    "id": "222124506",
    "i": "222124506",
    "n": "AMERICAN BOARD OF CLINICAL PHARMOCOLOGY INC",
    "a": "39 WESTVIEW LANE",
    "l": "LEBANON NH 03766",
    "cs": [
      10
    ],
    "f": 43,
    "u": "WWW.ABCP.NET"
  },
  {
    "lg": -70.988238,
    "lt": 43.303528,
    "t": "AMERICAN ASSOCIATION OF HEALTHCARE ADMINISTRATIVE MANAGEMENT",
    "id": "473342554",
    "i": "473342554",
    "n": "AMERICAN ASSOCIATION OF HEALTHCARE ADMINISTRATIVE MANAGEMENT",
    "a": "Po Box 60",
    "l": "Rochester NH 03867",
    "cs": [
      10
    ],
    "u": "www.aahamts.org",
    "f": 43
  },
  {
    "lg": -72.069849,
    "lt": 42.889279,
    "t": "AMERICAN ACHILLES FOUNDATION",
    "id": "133098308",
    "i": "133098308",
    "n": "AMERICAN ACHILLES FOUNDATION",
    "a": "PO Box 84",
    "l": "Dublin NH 03444",
    "cs": [
      100
    ],
    "f": 42
  },
  {
    "lg": -71.276763,
    "lt": 42.892761,
    "t": "AMERICAN FEDERATION OF GOVERNMENT EMPLOYEES",
    "id": "900525999",
    "i": "900525999",
    "n": "AMERICAN FEDERATION OF GOVERNMENT EMPLOYEES",
    "a": "28 Brady Ave",
    "l": "Derry NH 03038",
    "cs": [
      6
    ],
    "f": 42
  },
  {
    "lg": -72.326929,
    "lt": 43.360727,
    "t": "AMERICAN FEDERATION OF STATE COUNTY & MUNICIPAL EMPLOYEES",
    "id": "521650650",
    "i": "521650650",
    "n": "AMERICAN FEDERATION OF STATE COUNTY & MUNICIPAL EMPLOYEES",
    "a": "8 Trinity Street",
    "l": "claremont NH 03743",
    "cs": [
      6
    ],
    "u": "AFSCME33438@aol.com",
    "f": 43
  },
  {
    "lg": -71.155466,
    "lt": 44.504596,
    "t": "AMERICAN FEDERATION OF GOVERNMENT EMPLOYEES",
    "id": "510159151",
    "i": "510159151",
    "n": "AMERICAN FEDERATION OF GOVERNMENT EMPLOYEES",
    "a": "140 Howard Street",
    "l": "Berlin NH 03570",
    "cs": [
      6
    ],
    "f": 44
  },
  {
    "lg": -71.276763,
    "lt": 42.892761,
    "t": "AMERICAN FEDERATION OF GOVERNMENT EMPLOYEES",
    "id": "900525999",
    "i": "900525999",
    "n": "AMERICAN FEDERATION OF GOVERNMENT EMPLOYEES",
    "a": "28 Brady Ave",
    "l": "Derry NH 03038",
    "cs": [
      6
    ],
    "f": 42
  },
  {
    "lg": -71.155466,
    "lt": 44.504596,
    "t": "AMERICAN FEDERATION OF GOVERNMENT EMPLOYEES",
    "id": "510159151",
    "i": "510159151",
    "n": "AMERICAN FEDERATION OF GOVERNMENT EMPLOYEES",
    "a": "140 Howard Street",
    "l": "Berlin NH 03570",
    "cs": [
      6
    ],
    "f": 44
  },
  {
    "lg": -71.466111,
    "lt": 42.989027,
    "t": "AMERICAN FEDERATION OF GOVERNMENT EMPLOYEES",
    "id": "020332137",
    "i": "020332137",
    "n": "AMERICAN FEDERATION OF GOVERNMENT EMPLOYEES",
    "a": "275 CHESTNUT STREET",
    "l": "MANCHESTER NH 03101",
    "cs": [
      6
    ],
    "f": 42
  },
  {
    "lg": -70.902586,
    "lt": 43.014997,
    "t": "AMERICAN COUNCIL FOR PROFESSIONAL EDUCATION AND TRAINING",
    "id": "300537410",
    "i": "300537410",
    "n": "AMERICAN COUNCIL FOR PROFESSIONAL EDUCATION AND TRAINING",
    "a": "PO Box 87",
    "l": "Stratham NH 03885",
    "cs": [
      5,
      6
    ],
    "f": 43
  },
  {
    "lg": -71.555988,
    "lt": 43.238549,
    "t": "AMERICAN INNS OF COURT FOUNDATION",
    "id": "020463960",
    "i": "020463960",
    "n": "AMERICAN INNS OF COURT FOUNDATION",
    "a": "One Charles Doe Dr",
    "l": "Concord NH 03301",
    "cs": [
      11,
      100
    ],
    "f": 43,
    "u": "www.nneahe.ache.org"
  },
  {
    "lg": -70.918788,
    "lt": 43.117186,
    "t": "AMERICAN COLLEGE OF NURSE-MIDWIVES",
    "id": "320318460",
    "i": "320318460",
    "n": "AMERICAN COLLEGE OF NURSE-MIDWIVES",
    "a": "PO BOX 119",
    "l": "Durham NH 03824",
    "cs": [
      5
    ],
    "f": 43
  },
  {
    "lg": -71.555988,
    "lt": 43.238549,
    "t": "AMERICAN INNS OF COURT FOUNDATION",
    "id": "020463960",
    "i": "020463960",
    "n": "AMERICAN INNS OF COURT FOUNDATION",
    "a": "One Charles Doe Dr",
    "l": "Concord NH 03301",
    "cs": [
      11,
      100
    ],
    "f": 43,
    "u": "www.nneahe.ache.org"
  },
  {
    "lg": -71.555988,
    "lt": 43.238549,
    "t": "AMERICAN INNS OF COURT FOUNDATION",
    "id": "020463960",
    "i": "020463960",
    "n": "AMERICAN INNS OF COURT FOUNDATION",
    "a": "One Charles Doe Dr",
    "l": "Concord NH 03301",
    "cs": [
      11,
      100
    ],
    "f": 43,
    "u": "www.nneahe.ache.org"
  },
  {
    "lg": -71.555988,
    "lt": 43.238549,
    "t": "AMERICAN INNS OF COURT FOUNDATION",
    "id": "020463960",
    "i": "020463960",
    "n": "AMERICAN INNS OF COURT FOUNDATION",
    "a": "One Charles Doe Dr",
    "l": "Concord NH 03301",
    "cs": [
      11,
      100
    ],
    "f": 43,
    "u": "www.nneahe.ache.org"
  },
  {
    "lg": -71.498585,
    "lt": 43.631211,
    "t": "1855 BLUE AND GOLD HOUSE CORPORATION",
    "id": "320408778",
    "i": "320408778",
    "n": "1855 BLUE AND GOLD HOUSE CORPORATION",
    "a": "PO BOX 528",
    "l": "MEREDITH NH 03253",
    "cs": [
      15,
      1
    ],
    "f": 43
  }
]