[
  {
    "lg": -105.96875,
    "lt": 35.527445,
    "t": "ADVANCED CANCER THERAPY FOUNDATION",
    "id": "432097889",
    "i": "432097889",
    "n": "ADVANCED CANCER THERAPY FOUNDATION",
    "a": "23 E Gold Canyon Road",
    "l": "Santa Fe NM 87508",
    "cs": [
      100
    ],
    "u": "http://www.advanced-cancer-therapy.org/",
    "f": 35
  },
  {
    "lg": -108.178691,
    "lt": 36.740321,
    "t": "4 CORNERS JOB SERVICE EMPLOYER CONNECTION",
    "id": "208471678",
    "i": "208471678",
    "n": "4 CORNERS JOB SERVICE EMPLOYER CONNECTION",
    "a": "311 La Cuesta Avenue",
    "l": "Farmington NM 87401",
    "cs": [
      6
    ],
    "f": 36
  },
  {
    "lg": -106.020215,
    "lt": 35.993887,
    "t": "3HO FOUNDATION OF NEW MEXICO INCORPORATED",
    "id": "850213280",
    "i": "850213280",
    "n": "3HO FOUNDATION OF NEW MEXICO INCORPORATED",
    "a": "PO Box 483",
    "l": "Santa Cruz NM 87567",
    "cs": [
      100
    ],
    "f": 35
  },
  {
    "lg": -106.987431,
    "lt": 32.223096,
    "t": "A CHILDRENS THEATRE OF THE MESILLA VALLEY INC",
    "id": "850475459",
    "i": "850475459",
    "n": "A CHILDRENS THEATRE OF THE MESILLA VALLEY INC",
    "a": "PO Box 1792",
    "l": "Las Cruces NM 88004",
    "cs": [
      3,
      9
    ],
    "u": "WWW.MAYFIELDBASKETBALL.COM",
    "f": 32
  },
  {
    "lg": -104.396622,
    "lt": 33.643275,
    "t": "ABC FOUNDATION INC",
    "id": "472523803",
    "i": "472523803",
    "n": "ABC FOUNDATION INC",
    "a": "67 Riverside Dr",
    "l": "Roswell NM 88201",
    "cs": [
      100
    ],
    "f": 33
  },
  {
    "lg": -107.017993,
    "lt": 34.691701,
    "t": "A CHILDS MIRACLE MIND INC",
    "id": "261306178",
    "i": "261306178",
    "n": "A CHILDS MIRACLE MIND INC",
    "a": "10 Puente Ct",
    "l": "Los Lunas NM 87031",
    "cs": [
      3
    ],
    "f": 34,
    "u": "www.childsmiraclemind.org"
  },
  {
    "lg": -105.984455,
    "lt": 35.813114,
    "t": "ADOBE ROSE THEATRE INC",
    "id": "473125109",
    "i": "473125109",
    "n": "ADOBE ROSE THEATRE INC",
    "a": "PO Box 23348",
    "l": "Santa Fe NM 87506",
    "cs": [
      9
    ],
    "f": 35,
    "u": "adoberosetheatre.org"
  },
  {
    "lg": -106.685666,
    "lt": 35.19364,
    "t": "ALBUQUERQUE POLICE DEPARTMENT HORSE UNIT FUND",
    "id": "850457097",
    "i": "850457097",
    "n": "ALBUQUERQUE POLICE DEPARTMENT HORSE UNIT FUND",
    "a": "9906 Loretta Dr NW",
    "l": "Albuquerque NM 87114",
    "cs": [
      11,
      100
    ],
    "f": 35
  },
  {
    "lg": -106.783682,
    "lt": 35.268498,
    "t": "1ST NM VOLUNTEER INFANTRY",
    "id": "850467896",
    "i": "850467896",
    "n": "1ST NM VOLUNTEER INFANTRY",
    "a": "3508 32nd Cir SE",
    "l": "Rio Rancho NM 87124",
    "cs": [
      3
    ],
    "f": 35,
    "u": "WWW.ALEXKIRKFOUNDATION.COM"
  },
  {
    "lg": -108.088619,
    "lt": 35.351817,
    "t": "A ROOM OF HER OWN FOUNDATION",
    "id": "850475649",
    "i": "850475649",
    "n": "A ROOM OF HER OWN FOUNDATION",
    "a": "PO Box 778",
    "l": "Placitas NM 87045",
    "cs": [
      100
    ],
    "u": "aroomofherownfoundation.org",
    "f": 35
  },
  {
    "lg": -107.017993,
    "lt": 34.691701,
    "t": "A CHILDS MIRACLE MIND INC",
    "id": "261306178",
    "i": "261306178",
    "n": "A CHILDS MIRACLE MIND INC",
    "a": "10 Puente Ct",
    "l": "Los Lunas NM 87031",
    "cs": [
      3
    ],
    "f": 34,
    "u": "www.childsmiraclemind.org"
  },
  {
    "lg": -107.017993,
    "lt": 34.691701,
    "t": "A CHILDS MIRACLE MIND INC",
    "id": "261306178",
    "i": "261306178",
    "n": "A CHILDS MIRACLE MIND INC",
    "a": "10 Puente Ct",
    "l": "Los Lunas NM 87031",
    "cs": [
      3
    ],
    "f": 34,
    "u": "www.childsmiraclemind.org"
  },
  {
    "lg": -106.987431,
    "lt": 32.223096,
    "t": "A CHILDRENS THEATRE OF THE MESILLA VALLEY INC",
    "id": "850475459",
    "i": "850475459",
    "n": "A CHILDRENS THEATRE OF THE MESILLA VALLEY INC",
    "a": "PO Box 1792",
    "l": "Las Cruces NM 88004",
    "cs": [
      3,
      9
    ],
    "u": "WWW.MAYFIELDBASKETBALL.COM",
    "f": 32
  },
  {
    "lg": -106.608153,
    "lt": 34.977206,
    "t": "ADOBE ACRES HOME ASSOCIATION",
    "id": "900581125",
    "i": "900581125",
    "n": "ADOBE ACRES HOME ASSOCIATION",
    "a": "PO Box 12361",
    "l": "Albuquerque NM 87105",
    "cs": [
      1
    ],
    "f": 34
  },
  {
    "lg": -103.485066,
    "lt": 32.703782,
    "t": "ACADEMIC FOUNDATIONS 365",
    "id": "823502420",
    "i": "823502420",
    "n": "ACADEMIC FOUNDATIONS 365",
    "a": "2621 Propps Drive",
    "l": "Hobbs NM 88240",
    "cs": [
      100
    ],
    "f": 32
  },
  {
    "lg": -106.685666,
    "lt": 35.19364,
    "t": "ALBUQUERQUE POLICE DEPARTMENT HORSE UNIT FUND",
    "id": "850457097",
    "i": "850457097",
    "n": "ALBUQUERQUE POLICE DEPARTMENT HORSE UNIT FUND",
    "a": "9906 Loretta Dr NW",
    "l": "Albuquerque NM 87114",
    "cs": [
      11,
      100
    ],
    "f": 35
  },
  {
    "lg": -105.789765,
    "lt": 35.930826,
    "t": "ABRAZO DEL SANTUARIO FOUNDATION",
    "id": "842889659",
    "i": "842889659",
    "n": "ABRAZO DEL SANTUARIO FOUNDATION",
    "a": "1027 STATE ROAD 503",
    "l": "CUNDIYO NM 87522",
    "cs": [
      100
    ],
    "f": 35
  },
  {
    "lg": -106.516275,
    "lt": 35.100609,
    "t": "ALBUQUERQUE NETWORK OF SPIRITUAL PROGRESSIVES",
    "id": "412194184",
    "i": "412194184",
    "n": "ALBUQUERQUE NETWORK OF SPIRITUAL PROGRESSIVES",
    "a": "8407 Los Arboles Ave",
    "l": "Albuquerque NM 87112",
    "cs": [
      6
    ],
    "u": "www.ahsasports.org",
    "f": 35
  },
  {
    "lg": -106.516275,
    "lt": 35.100609,
    "t": "ALBUQUERQUE NETWORK OF SPIRITUAL PROGRESSIVES",
    "id": "412194184",
    "i": "412194184",
    "n": "ALBUQUERQUE NETWORK OF SPIRITUAL PROGRESSIVES",
    "a": "8407 Los Arboles Ave",
    "l": "Albuquerque NM 87112",
    "cs": [
      6
    ],
    "u": "www.ahsasports.org",
    "f": 35
  },
  {
    "lg": -106.871772,
    "lt": 35.08917,
    "t": "AHEPA 501 FOUNDATION INC",
    "id": "850482597",
    "i": "850482597",
    "n": "AHEPA 501 FOUNDATION INC",
    "a": "6700 Los Volcanes NW",
    "l": "Albuquerque NM 87121",
    "cs": [
      100
    ],
    "f": 35
  },
  {
    "lg": -105.984455,
    "lt": 35.813114,
    "t": "ADOBE ROSE THEATRE INC",
    "id": "473125109",
    "i": "473125109",
    "n": "ADOBE ROSE THEATRE INC",
    "a": "PO Box 23348",
    "l": "Santa Fe NM 87506",
    "cs": [
      9
    ],
    "f": 35,
    "u": "adoberosetheatre.org"
  },
  {
    "lg": -106.608153,
    "lt": 34.977206,
    "t": "ADOBE ACRES HOME ASSOCIATION",
    "id": "900581125",
    "i": "900581125",
    "n": "ADOBE ACRES HOME ASSOCIATION",
    "a": "PO Box 12361",
    "l": "Albuquerque NM 87105",
    "cs": [
      1
    ],
    "f": 34
  },
  {
    "lg": -107.781385,
    "lt": 33.369427,
    "t": "ADAM PETERSEN MEMORIAL FUND",
    "id": "300921844",
    "i": "300921844",
    "n": "ADAM PETERSEN MEMORIAL FUND",
    "a": "PO Box 116",
    "l": "Winston NM 87943",
    "cs": [
      100
    ],
    "u": "petersenrodeoandcookoff.weebly.com",
    "f": 33
  },
  {
    "lg": -106.760969,
    "lt": 35.140539,
    "t": "ALBUQUERQUE FORCE BASKETBALL",
    "id": "850481922",
    "i": "850481922",
    "n": "ALBUQUERQUE FORCE BASKETBALL",
    "a": "6335 Comfrey Dr NW",
    "l": "Albuquerque NM 87120",
    "cs": [
      7
    ],
    "f": 35
  },
  {
    "lg": -107.095436,
    "lt": 33.215964,
    "t": "ACKNOWLEDGE CREATE TEACH CORPORATION",
    "id": "464320335",
    "i": "464320335",
    "n": "ACKNOWLEDGE CREATE TEACH CORPORATION",
    "a": "422 N Broadway St",
    "l": "Truth or Consequences NM 87901",
    "cs": [
      9
    ],
    "f": 33
  },
  {
    "lg": -106.470746,
    "lt": 35.067584,
    "t": "ALBUQUERQUE INTERNATIONAL FOLK DANCE FOUNDATION",
    "id": "850402551",
    "i": "850402551",
    "n": "ALBUQUERQUE INTERNATIONAL FOLK DANCE FOUNDATION",
    "a": "11215 Canyonlands Rd SE",
    "l": "Albuquerque NM 87123",
    "cs": [
      100
    ],
    "f": 35,
    "u": "www.abqfolkdance.org"
  },
  {
    "lg": -106.575536,
    "lt": 35.152882,
    "t": "ALBUQUERQUE REALTY EDUCATION ASSOCIATION",
    "id": "850374825",
    "i": "850374825",
    "n": "ALBUQUERQUE REALTY EDUCATION ASSOCIATION",
    "a": "6705 LOS TRECHOS CT NE",
    "l": "ALBUQUERQUE NM 87109",
    "cs": [
      5
    ],
    "u": "www.africanmissionmobilizingcenter.org",
    "f": 35
  },
  {
    "lg": -106.578362,
    "lt": 35.072479,
    "t": "ALBUQUERQUE YOUTH RUGBY UNITED",
    "id": "204073825",
    "i": "204073825",
    "n": "ALBUQUERQUE YOUTH RUGBY UNITED",
    "a": "4845 Southern Ave SE",
    "l": "Albuquerque NM 87108",
    "cs": [
      7
    ],
    "u": "WWW.ABQFILMEXPERIENCE.COM",
    "f": 35
  },
  {
    "lg": -106.516275,
    "lt": 35.100609,
    "t": "ALBUQUERQUE NETWORK OF SPIRITUAL PROGRESSIVES",
    "id": "412194184",
    "i": "412194184",
    "n": "ALBUQUERQUE NETWORK OF SPIRITUAL PROGRESSIVES",
    "a": "8407 Los Arboles Ave",
    "l": "Albuquerque NM 87112",
    "cs": [
      6
    ],
    "u": "www.ahsasports.org",
    "f": 35
  },
  {
    "lg": -106.578362,
    "lt": 35.072479,
    "t": "ALBUQUERQUE YOUTH RUGBY UNITED",
    "id": "204073825",
    "i": "204073825",
    "n": "ALBUQUERQUE YOUTH RUGBY UNITED",
    "a": "4845 Southern Ave SE",
    "l": "Albuquerque NM 87108",
    "cs": [
      7
    ],
    "u": "WWW.ABQFILMEXPERIENCE.COM",
    "f": 35
  },
  {
    "lg": -108.737949,
    "lt": 35.534984,
    "t": "AEQUITAS EDUCATION",
    "id": "831080761",
    "i": "831080761",
    "n": "AEQUITAS EDUCATION",
    "a": "104 E Aztec Ave",
    "l": "Gallup NM 87301",
    "cs": [
      5
    ],
    "f": 35
  },
  {
    "lg": -106.646575,
    "lt": 35.081357,
    "t": "ALBUQUERQUE POLICE DEPARTMENT CHAPLAIN UNIT FUND",
    "id": "460703555",
    "i": "460703555",
    "n": "ALBUQUERQUE POLICE DEPARTMENT CHAPLAIN UNIT FUND",
    "a": "400 Roma Avenue NW",
    "l": "Albuquerque NM 87102",
    "cs": [
      11,
      100
    ],
    "f": 35
  },
  {
    "lg": -105.96875,
    "lt": 35.527445,
    "t": "ADVANCED CANCER THERAPY FOUNDATION",
    "id": "432097889",
    "i": "432097889",
    "n": "ADVANCED CANCER THERAPY FOUNDATION",
    "a": "23 E Gold Canyon Road",
    "l": "Santa Fe NM 87508",
    "cs": [
      100
    ],
    "u": "http://www.advanced-cancer-therapy.org/",
    "f": 35
  },
  {
    "lg": -106.620735,
    "lt": 35.057863,
    "t": "AHA HOUSING DEVELOPMENT CORPORATION",
    "id": "830860909",
    "i": "830860909",
    "n": "AHA HOUSING DEVELOPMENT CORPORATION",
    "a": "1840 UNIVERSITY BOULEVARD SE",
    "l": "ALBUQUERQUE NM 87106",
    "cs": [
      1
    ],
    "f": 35
  },
  {
    "lg": -105.442212,
    "lt": 36.39598,
    "t": "AGRICULTURE IMPLEMENTATION RESEARCH & EDUCATION",
    "id": "274417875",
    "i": "274417875",
    "n": "AGRICULTURE IMPLEMENTATION RESEARCH & EDUCATION",
    "a": "908 Sol Feliz",
    "l": "Taos NM 87571",
    "cs": [
      5
    ],
    "f": 36
  },
  {
    "lg": -106.501625,
    "lt": 35.191009,
    "t": "ALTERNATIVE FUELS VEHICLE NETWORK",
    "id": "742813288",
    "i": "742813288",
    "n": "ALTERNATIVE FUELS VEHICLE NETWORK",
    "a": "11621 San Antonio Drive SE",
    "l": "Albuquerque NM 87122",
    "cs": [
      6
    ],
    "f": 35
  },
  {
    "lg": -103.381536,
    "lt": 32.991328,
    "t": "AFTER SCHOOL ADVENTURES",
    "id": "473799019",
    "i": "473799019",
    "n": "AFTER SCHOOL ADVENTURES",
    "a": "P O Box 715",
    "l": "Lovington NM 88260",
    "cs": [
      5
    ],
    "f": 32
  },
  {
    "lg": -106.088977,
    "lt": 35.993867,
    "t": "AKAL FOUNDATION INC",
    "id": "813082771",
    "i": "813082771",
    "n": "AKAL FOUNDATION INC",
    "a": "7 Infinity Loop",
    "l": "Espanola NM 87532",
    "cs": [
      100
    ],
    "f": 35
  },
  {
    "lg": -103.275272,
    "lt": 34.499384,
    "t": "ALTRUSA CLUB OF CLOVIS NEW MEXICO FOUNDATION",
    "id": "421634580",
    "i": "421634580",
    "n": "ALTRUSA CLUB OF CLOVIS NEW MEXICO FOUNDATION",
    "a": "PO Box 775",
    "l": "Clovis NM 88101",
    "cs": [
      100
    ],
    "f": 34
  },
  {
    "lg": -103.275272,
    "lt": 34.499384,
    "t": "ALTRUSA CLUB OF CLOVIS NEW MEXICO FOUNDATION",
    "id": "421634580",
    "i": "421634580",
    "n": "ALTRUSA CLUB OF CLOVIS NEW MEXICO FOUNDATION",
    "a": "PO Box 775",
    "l": "Clovis NM 88101",
    "cs": [
      100
    ],
    "f": 34
  },
  {
    "lg": -106.48746,
    "lt": 35.143913,
    "t": "ALBUQUERQUE REGIONAL COALITION FOR HEALTHCARE PREPAREDNESS ARCH-P",
    "id": "811661083",
    "i": "811661083",
    "n": "ALBUQUERQUE REGIONAL COALITION FOR HEALTHCARE PREPAREDNESS ARCH-P",
    "a": "5205 Molokai NE",
    "l": "Albuquerque NM 87111",
    "cs": [
      10
    ],
    "f": 35
  },
  {
    "lg": -106.593627,
    "lt": 35.180966,
    "t": "AIR FORCE ASSOCIATION",
    "id": "510236778",
    "i": "510236778",
    "n": "AIR FORCE ASSOCIATION",
    "a": "1119 Casa Tomas Rd",
    "l": "Albuquerque NM 87113",
    "cs": [
      16
    ],
    "f": 35
  },
  {
    "lg": -106.072883,
    "lt": 32.641272,
    "t": "ALAMOGORDO TENNIS ASSOCIATION",
    "id": "850415731",
    "i": "850415731",
    "n": "ALAMOGORDO TENNIS ASSOCIATION",
    "a": "PO 684",
    "l": "Alamogordo NM 88310",
    "cs": [
      7
    ],
    "f": 32
  },
  {
    "lg": -106.28809,
    "lt": 35.840713,
    "t": "AID FOR AFRICA",
    "id": "680621889",
    "i": "680621889",
    "n": "AID FOR AFRICA",
    "a": "116 Aspen Drive",
    "l": "Los Alamos NM 87544",
    "cs": [
      12
    ],
    "f": 35
  },
  {
    "lg": -106.871772,
    "lt": 35.08917,
    "t": "AHEPA 501 FOUNDATION INC",
    "id": "850482597",
    "i": "850482597",
    "n": "AHEPA 501 FOUNDATION INC",
    "a": "6700 Los Volcanes NW",
    "l": "Albuquerque NM 87121",
    "cs": [
      100
    ],
    "f": 35
  },
  {
    "lg": -106.072883,
    "lt": 32.641272,
    "t": "ALAMOGORDO TENNIS ASSOCIATION",
    "id": "850415731",
    "i": "850415731",
    "n": "ALAMOGORDO TENNIS ASSOCIATION",
    "a": "PO 684",
    "l": "Alamogordo NM 88310",
    "cs": [
      7
    ],
    "f": 32
  },
  {
    "lg": -106.072883,
    "lt": 32.641272,
    "t": "ALAMOGORDO TENNIS ASSOCIATION",
    "id": "850415731",
    "i": "850415731",
    "n": "ALAMOGORDO TENNIS ASSOCIATION",
    "a": "PO 684",
    "l": "Alamogordo NM 88310",
    "cs": [
      7
    ],
    "f": 32
  },
  {
    "lg": -105.990607,
    "lt": 32.812102,
    "t": "ALAMOGORDO MUSIC THEATER INC",
    "id": "850395506",
    "i": "850395506",
    "n": "ALAMOGORDO MUSIC THEATER INC",
    "a": "PO Box 266",
    "l": "Alamogordo NM 88311",
    "cs": [
      9
    ],
    "f": 32,
    "u": "www.alamogordomusictheatre.org"
  },
  {
    "lg": -105.990607,
    "lt": 32.812102,
    "t": "ALAMOGORDO MUSIC THEATER INC",
    "id": "850395506",
    "i": "850395506",
    "n": "ALAMOGORDO MUSIC THEATER INC",
    "a": "PO Box 266",
    "l": "Alamogordo NM 88311",
    "cs": [
      9
    ],
    "f": 32,
    "u": "www.alamogordomusictheatre.org"
  },
  {
    "lg": -106.642543,
    "lt": 35.1378,
    "t": "ALBUQUERQUE FEDERAL BUREAU OF INVESTIGATION RECREATION ASSOCIATI",
    "id": "881824738",
    "i": "881824738",
    "n": "ALBUQUERQUE FEDERAL BUREAU OF INVESTIGATION RECREATION ASSOCIATI",
    "a": "4200 Luecking Park Avenue",
    "l": "ALBUQUERQUE NM 87107",
    "cs": [
      7,
      9
    ],
    "f": 35
  },
  {
    "lg": -106.675548,
    "lt": 35.103183,
    "t": "ALICE KING COMMUNITY SCHOOL FOUNDATION",
    "id": "260902688",
    "i": "260902688",
    "n": "ALICE KING COMMUNITY SCHOOL FOUNDATION",
    "a": "1905 Mountain Rd NW",
    "l": "Albuquerque NM 87104",
    "cs": [
      5,
      100
    ],
    "u": "www.abqlt.org",
    "f": 35
  },
  {
    "lg": -106.578147,
    "lt": 35.108194,
    "t": "21ST CENTURY PUBLIC ACADEMY FOUNDATION",
    "id": "030515377",
    "i": "030515377",
    "n": "21ST CENTURY PUBLIC ACADEMY FOUNDATION",
    "a": "4300 Cutler Ave NE",
    "l": "Albuquerque NM 87110",
    "cs": [
      100
    ],
    "f": 35
  },
  {
    "lg": -106.470746,
    "lt": 35.067584,
    "t": "ALBUQUERQUE INTERNATIONAL FOLK DANCE FOUNDATION",
    "id": "850402551",
    "i": "850402551",
    "n": "ALBUQUERQUE INTERNATIONAL FOLK DANCE FOUNDATION",
    "a": "11215 Canyonlands Rd SE",
    "l": "Albuquerque NM 87123",
    "cs": [
      100
    ],
    "f": 35,
    "u": "www.abqfolkdance.org"
  },
  {
    "lg": -106.642543,
    "lt": 35.1378,
    "t": "ALBUQUERQUE FEDERAL BUREAU OF INVESTIGATION RECREATION ASSOCIATI",
    "id": "881824738",
    "i": "881824738",
    "n": "ALBUQUERQUE FEDERAL BUREAU OF INVESTIGATION RECREATION ASSOCIATI",
    "a": "4200 Luecking Park Avenue",
    "l": "ALBUQUERQUE NM 87107",
    "cs": [
      7,
      9
    ],
    "f": 35
  },
  {
    "lg": -106.516275,
    "lt": 35.100609,
    "t": "ALBUQUERQUE NETWORK OF SPIRITUAL PROGRESSIVES",
    "id": "412194184",
    "i": "412194184",
    "n": "ALBUQUERQUE NETWORK OF SPIRITUAL PROGRESSIVES",
    "a": "8407 Los Arboles Ave",
    "l": "Albuquerque NM 87112",
    "cs": [
      6
    ],
    "u": "www.ahsasports.org",
    "f": 35
  },
  {
    "lg": -106.760969,
    "lt": 35.140539,
    "t": "ALBUQUERQUE FORCE BASKETBALL",
    "id": "850481922",
    "i": "850481922",
    "n": "ALBUQUERQUE FORCE BASKETBALL",
    "a": "6335 Comfrey Dr NW",
    "l": "Albuquerque NM 87120",
    "cs": [
      7
    ],
    "f": 35
  },
  {
    "lg": -106.642543,
    "lt": 35.1378,
    "t": "ALBUQUERQUE FEDERAL BUREAU OF INVESTIGATION RECREATION ASSOCIATI",
    "id": "881824738",
    "i": "881824738",
    "n": "ALBUQUERQUE FEDERAL BUREAU OF INVESTIGATION RECREATION ASSOCIATI",
    "a": "4200 Luecking Park Avenue",
    "l": "ALBUQUERQUE NM 87107",
    "cs": [
      7,
      9
    ],
    "f": 35
  },
  {
    "lg": -106.646575,
    "lt": 35.081357,
    "t": "ALBUQUERQUE POLICE DEPARTMENT CHAPLAIN UNIT FUND",
    "id": "460703555",
    "i": "460703555",
    "n": "ALBUQUERQUE POLICE DEPARTMENT CHAPLAIN UNIT FUND",
    "a": "400 Roma Avenue NW",
    "l": "Albuquerque NM 87102",
    "cs": [
      11,
      100
    ],
    "f": 35
  },
  {
    "lg": -106.516275,
    "lt": 35.100609,
    "t": "ALBUQUERQUE NETWORK OF SPIRITUAL PROGRESSIVES",
    "id": "412194184",
    "i": "412194184",
    "n": "ALBUQUERQUE NETWORK OF SPIRITUAL PROGRESSIVES",
    "a": "8407 Los Arboles Ave",
    "l": "Albuquerque NM 87112",
    "cs": [
      6
    ],
    "u": "www.ahsasports.org",
    "f": 35
  },
  {
    "lg": -106.48746,
    "lt": 35.143913,
    "t": "ALBUQUERQUE REGIONAL COALITION FOR HEALTHCARE PREPAREDNESS ARCH-P",
    "id": "811661083",
    "i": "811661083",
    "n": "ALBUQUERQUE REGIONAL COALITION FOR HEALTHCARE PREPAREDNESS ARCH-P",
    "a": "5205 Molokai NE",
    "l": "Albuquerque NM 87111",
    "cs": [
      10
    ],
    "f": 35
  },
  {
    "lg": -106.575536,
    "lt": 35.152882,
    "t": "ALBUQUERQUE REALTY EDUCATION ASSOCIATION",
    "id": "850374825",
    "i": "850374825",
    "n": "ALBUQUERQUE REALTY EDUCATION ASSOCIATION",
    "a": "6705 LOS TRECHOS CT NE",
    "l": "ALBUQUERQUE NM 87109",
    "cs": [
      5
    ],
    "u": "www.africanmissionmobilizingcenter.org",
    "f": 35
  },
  {
    "lg": -106.685666,
    "lt": 35.19364,
    "t": "ALBUQUERQUE POLICE DEPARTMENT HORSE UNIT FUND",
    "id": "850457097",
    "i": "850457097",
    "n": "ALBUQUERQUE POLICE DEPARTMENT HORSE UNIT FUND",
    "a": "9906 Loretta Dr NW",
    "l": "Albuquerque NM 87114",
    "cs": [
      11,
      100
    ],
    "f": 35
  },
  {
    "lg": -106.646575,
    "lt": 35.081357,
    "t": "ALBUQUERQUE POLICE DEPARTMENT CHAPLAIN UNIT FUND",
    "id": "460703555",
    "i": "460703555",
    "n": "ALBUQUERQUE POLICE DEPARTMENT CHAPLAIN UNIT FUND",
    "a": "400 Roma Avenue NW",
    "l": "Albuquerque NM 87102",
    "cs": [
      11,
      100
    ],
    "f": 35
  },
  {
    "lg": -106.516275,
    "lt": 35.100609,
    "t": "ALBUQUERQUE NETWORK OF SPIRITUAL PROGRESSIVES",
    "id": "412194184",
    "i": "412194184",
    "n": "ALBUQUERQUE NETWORK OF SPIRITUAL PROGRESSIVES",
    "a": "8407 Los Arboles Ave",
    "l": "Albuquerque NM 87112",
    "cs": [
      6
    ],
    "u": "www.ahsasports.org",
    "f": 35
  },
  {
    "lg": -106.675548,
    "lt": 35.103183,
    "t": "ALICE KING COMMUNITY SCHOOL FOUNDATION",
    "id": "260902688",
    "i": "260902688",
    "n": "ALICE KING COMMUNITY SCHOOL FOUNDATION",
    "a": "1905 Mountain Rd NW",
    "l": "Albuquerque NM 87104",
    "cs": [
      5,
      100
    ],
    "u": "www.abqlt.org",
    "f": 35
  },
  {
    "lg": -106.337081,
    "lt": 35.376617,
    "t": "ALGODONES MUTUAL DOMESTIC WATER CONSUMERS AND MUTUAL SEWAGE WORKS",
    "id": "850222188",
    "i": "850222188",
    "n": "ALGODONES MUTUAL DOMESTIC WATER CONSUMERS AND MUTUAL SEWAGE WORKS",
    "a": "PO Box 618",
    "l": "Algodones NM 87001",
    "cs": [
      6
    ],
    "f": 35
  },
  {
    "lg": -105.856809,
    "lt": 35.744137,
    "t": "ALEXS HOUSE",
    "id": "943470536",
    "i": "943470536",
    "n": "ALEXS HOUSE",
    "a": "128 GRANT AVE",
    "l": "SANTA FE NM 87501",
    "cs": [
      1
    ],
    "f": 35
  },
  {
    "lg": -106.783682,
    "lt": 35.268498,
    "t": "1ST NM VOLUNTEER INFANTRY",
    "id": "850467896",
    "i": "850467896",
    "n": "1ST NM VOLUNTEER INFANTRY",
    "a": "3508 32nd Cir SE",
    "l": "Rio Rancho NM 87124",
    "cs": [
      3
    ],
    "f": 35,
    "u": "WWW.ALEXKIRKFOUNDATION.COM"
  },
  {
    "lg": -106.578362,
    "lt": 35.072479,
    "t": "ALBUQUERQUE YOUTH RUGBY UNITED",
    "id": "204073825",
    "i": "204073825",
    "n": "ALBUQUERQUE YOUTH RUGBY UNITED",
    "a": "4845 Southern Ave SE",
    "l": "Albuquerque NM 87108",
    "cs": [
      7
    ],
    "u": "WWW.ABQFILMEXPERIENCE.COM",
    "f": 35
  },
  {
    "lg": -103.178639,
    "lt": 34.843131,
    "t": "ALMOST FURGOTTEN ANIMAL NETWORK INC",
    "id": "454070781",
    "i": "454070781",
    "n": "ALMOST FURGOTTEN ANIMAL NETWORK INC",
    "a": "3878 SR 209",
    "l": "Broadview NM 88112",
    "cs": [
      6
    ],
    "f": 34
  },
  {
    "lg": -106.656276,
    "lt": 32.322443,
    "t": "2 KIDS 4 KIDS",
    "id": "113757479",
    "i": "113757479",
    "n": "2 KIDS 4 KIDS",
    "a": "1152 Portico Trl",
    "l": "Las Cruces NM 88011",
    "cs": [
      7
    ],
    "f": 32
  },
  {
    "lg": -105.877135,
    "lt": 35.616964,
    "t": "ALL SPECIES PROJECT INCORPORATED",
    "id": "850366750",
    "i": "850366750",
    "n": "ALL SPECIES PROJECT INCORPORATED",
    "a": "615 Cortez Street",
    "l": "Santa Fe NM 87505",
    "cs": [
      100
    ],
    "f": 35
  },
  {
    "lg": -104.475568,
    "lt": 33.067332,
    "t": "ALL HEARTS 4 PAWS SHELTER",
    "id": "824306449",
    "i": "824306449",
    "n": "ALL HEARTS 4 PAWS SHELTER",
    "a": "849 Aberdeen",
    "l": "Hagerman NM 88232",
    "cs": [
      1
    ],
    "f": 33
  },
  {
    "lg": -105.667375,
    "lt": 33.360416,
    "t": "ALTRUSA INTERNATIONAL FOUNDATION INC",
    "id": "850385250",
    "i": "850385250",
    "n": "ALTRUSA INTERNATIONAL FOUNDATION INC",
    "a": "PO BOX 1143",
    "l": "Ruidoso NM 88355",
    "cs": [
      100
    ],
    "u": "AltrusaRuidoso.com",
    "f": 33
  },
  {
    "lg": -103.275272,
    "lt": 34.499384,
    "t": "ALTRUSA CLUB OF CLOVIS NEW MEXICO FOUNDATION",
    "id": "421634580",
    "i": "421634580",
    "n": "ALTRUSA CLUB OF CLOVIS NEW MEXICO FOUNDATION",
    "a": "PO Box 775",
    "l": "Clovis NM 88101",
    "cs": [
      100
    ],
    "f": 34
  },
  {
    "lg": -106.501625,
    "lt": 35.191009,
    "t": "ALTERNATIVE FUELS VEHICLE NETWORK",
    "id": "742813288",
    "i": "742813288",
    "n": "ALTERNATIVE FUELS VEHICLE NETWORK",
    "a": "11621 San Antonio Drive SE",
    "l": "Albuquerque NM 87122",
    "cs": [
      6
    ],
    "f": 35
  },
  {
    "lg": -106.627078,
    "lt": 35.239583,
    "t": "ALPHA NU ALUMNI SCHOLARSHIP FOUNDATION",
    "id": "811316903",
    "i": "811316903",
    "n": "ALPHA NU ALUMNI SCHOLARSHIP FOUNDATION",
    "a": "PO BOX 2332",
    "l": "CORRALES NM 87048",
    "cs": [
      5,
      100
    ],
    "f": 35
  },
  {
    "lg": -106.578147,
    "lt": 35.108194,
    "t": "21ST CENTURY PUBLIC ACADEMY FOUNDATION",
    "id": "030515377",
    "i": "030515377",
    "n": "21ST CENTURY PUBLIC ACADEMY FOUNDATION",
    "a": "4300 Cutler Ave NE",
    "l": "Albuquerque NM 87110",
    "cs": [
      100
    ],
    "f": 35
  },
  {
    "lg": -106.656276,
    "lt": 32.322443,
    "t": "2 KIDS 4 KIDS",
    "id": "113757479",
    "i": "113757479",
    "n": "2 KIDS 4 KIDS",
    "a": "1152 Portico Trl",
    "l": "Las Cruces NM 88011",
    "cs": [
      7
    ],
    "f": 32
  },
  {
    "lg": -106.783682,
    "lt": 35.268498,
    "t": "1ST NM VOLUNTEER INFANTRY",
    "id": "850467896",
    "i": "850467896",
    "n": "1ST NM VOLUNTEER INFANTRY",
    "a": "3508 32nd Cir SE",
    "l": "Rio Rancho NM 87124",
    "cs": [
      3
    ],
    "f": 35,
    "u": "WWW.ALEXKIRKFOUNDATION.COM"
  },
  {
    "lg": -106.921281,
    "lt": 32.441109,
    "t": "10X YOUTH SHOOTING CLUB",
    "id": "270546233",
    "i": "270546233",
    "n": "10X YOUTH SHOOTING CLUB",
    "a": "1585 Trails End Road",
    "l": "Las Cruces NM 88007",
    "cs": [
      7
    ],
    "f": 32
  }
]