[
  {
    "lg": -82.318108,
    "lt": 36.338162,
    "t": "AMERICAN COLLEGE OF HEALTHCARE EXECUTIVES",
    "id": "352223453",
    "i": "352223453",
    "n": "AMERICAN COLLEGE OF HEALTHCARE EXECUTIVES",
    "a": "1009 Lark Street",
    "l": "Johnson City TN 37601",
    "cs": [
      5,
      10
    ],
    "u": "2ndcenturyfoundation.org",
    "f": 36
  },
  {
    "lg": -86.607922,
    "lt": 36.339969,
    "t": "AMATEUR ATHLETIC UNION OF THE UNITED STATES",
    "id": "471674164",
    "i": "471674164",
    "n": "AMATEUR ATHLETIC UNION OF THE UNITED STATES",
    "a": "1233B Jenkins Lane",
    "l": "Hendersonville TN 37075",
    "cs": [
      7
    ],
    "u": "SECONDBASE.ORG",
    "f": 36
  },
  {
    "lg": -89.788637,
    "lt": 35.025913,
    "t": "AMATEUR ATHLETIC UNION OF THE UNITED STATES INC",
    "id": "800303060",
    "i": "800303060",
    "n": "AMATEUR ATHLETIC UNION OF THE UNITED STATES INC",
    "a": "5378 Philgrove Way",
    "l": "Memphis TN 38125",
    "cs": [
      7
    ],
    "u": "www.2911youthcenter.org",
    "f": 35
  },
  {
    "lg": -86.580895,
    "lt": 35.166452,
    "t": "AMATEUR ATHLETIC UNION OF THE UNITED STATES",
    "id": "462029732",
    "i": "462029732",
    "n": "AMATEUR ATHLETIC UNION OF THE UNITED STATES",
    "a": "P O Box 1092",
    "l": "Fayetteville TN 37334",
    "cs": [
      7
    ],
    "f": 35
  },
  {
    "lg": -87.433736,
    "lt": 35.290788,
    "t": "3D BATTALION 11TH MARINES 3-11 FOUNDATION",
    "id": "464240572",
    "i": "464240572",
    "n": "3D BATTALION 11TH MARINES 3-11 FOUNDATION",
    "a": "300 Grandview Drive",
    "l": "Lawrenceburg TN 38464",
    "cs": [
      16,
      100
    ],
    "f": 35
  },
  {
    "lg": -86.53159,
    "lt": 35.959541,
    "t": "17-15 SPORTS",
    "id": "814854167",
    "i": "814854167",
    "n": "17-15 SPORTS",
    "a": "1002 Seven Oaks Blvd",
    "l": "smyrna TN 37167",
    "cs": [
      7
    ],
    "f": 35,
    "u": "www.1715sports.com"
  },
  {
    "lg": -86.785062,
    "lt": 35.999288,
    "t": "AMERICAN HEALTH DECISIONS INC",
    "id": "223019027",
    "i": "223019027",
    "n": "AMERICAN HEALTH DECISIONS INC",
    "a": "9302 Grist Mill Ct",
    "l": "Brentwood TN 37027",
    "cs": [
      10
    ],
    "f": 35,
    "u": "https://masshealthdecisions.org/american-health-decisions/"
  },
  {
    "lg": -86.280498,
    "lt": 35.954824,
    "t": "3RD QUARTERMASTER VETERANS ASSOCIATION",
    "id": "453663534",
    "i": "453663534",
    "n": "3RD QUARTERMASTER VETERANS ASSOCIATION",
    "a": "7220 Dunway Chapel Rd",
    "l": "lascassas TN 37085",
    "cs": [
      16
    ],
    "f": 35
  },
  {
    "lg": -86.607922,
    "lt": 36.339969,
    "t": "AMATEUR ATHLETIC UNION OF THE UNITED STATES",
    "id": "471674164",
    "i": "471674164",
    "n": "AMATEUR ATHLETIC UNION OF THE UNITED STATES",
    "a": "1233B Jenkins Lane",
    "l": "Hendersonville TN 37075",
    "cs": [
      7
    ],
    "u": "SECONDBASE.ORG",
    "f": 36
  },
  {
    "lg": -83.337823,
    "lt": 36.233317,
    "t": "3RD JUDICIAL DISTRICT RECOVERY SUPPORT SERVICES INC",
    "id": "882838024",
    "i": "882838024",
    "n": "3RD JUDICIAL DISTRICT RECOVERY SUPPORT SERVICES INC",
    "a": "2415 N Davy Crockett Pkwy",
    "l": "Morristown TN 37814",
    "cs": [
      42
    ],
    "f": 36
  },
  {
    "lg": -87.237235,
    "lt": 36.489761,
    "t": "AMERICAN COLLEGE OF NURSE-MIDWIVES",
    "id": "452588276",
    "i": "452588276",
    "n": "AMERICAN COLLEGE OF NURSE-MIDWIVES",
    "a": "855 Iron Wood Circle",
    "l": "Clarksville TN 37043",
    "cs": [
      5
    ],
    "f": 36
  },
  {
    "lg": -87.237235,
    "lt": 36.489761,
    "t": "AMERICAN COLLEGE OF NURSE-MIDWIVES",
    "id": "452588276",
    "i": "452588276",
    "n": "AMERICAN COLLEGE OF NURSE-MIDWIVES",
    "a": "855 Iron Wood Circle",
    "l": "Clarksville TN 37043",
    "cs": [
      5
    ],
    "f": 36
  },
  {
    "lg": -87.433736,
    "lt": 35.290788,
    "t": "3D BATTALION 11TH MARINES 3-11 FOUNDATION",
    "id": "464240572",
    "i": "464240572",
    "n": "3D BATTALION 11TH MARINES 3-11 FOUNDATION",
    "a": "300 Grandview Drive",
    "l": "Lawrenceburg TN 38464",
    "cs": [
      16,
      100
    ],
    "f": 35
  },
  {
    "lg": -82.498988,
    "lt": 36.520428,
    "t": "AMERICAN COLLEGE OF GENERAL MEDICINE INC",
    "id": "541892549",
    "i": "541892549",
    "n": "AMERICAN COLLEGE OF GENERAL MEDICINE INC",
    "a": "4407 Glen Eden Road",
    "l": "kingsport TN 37664",
    "cs": [
      5,
      10
    ],
    "f": 36,
    "u": "alespto.com"
  },
  {
    "lg": -86.45554,
    "lt": 36.398757,
    "t": "32ND CAVALRY AND ARMOR ASSOCIATION INCORPORATED",
    "id": "832234136",
    "i": "832234136",
    "n": "32ND CAVALRY AND ARMOR ASSOCIATION INCORPORATED",
    "a": "920 S Westland Ave",
    "l": "Gallatin TN 37066",
    "cs": [
      100
    ],
    "f": 36
  },
  {
    "lg": -86.774283,
    "lt": 36.106735,
    "t": "AMERICAN INNS OF COURT FOUNDATION",
    "id": "621437201",
    "i": "621437201",
    "n": "AMERICAN INNS OF COURT FOUNDATION",
    "a": "4013 Armory Oaks Dr",
    "l": "Nashville TN 37204",
    "cs": [
      11,
      100
    ],
    "f": 36,
    "u": "adoptionhopefoundation.org"
  },
  {
    "lg": -86.221295,
    "lt": 35.343672,
    "t": "5 LOAVES 4 KIDS",
    "id": "261192325",
    "i": "261192325",
    "n": "5 LOAVES 4 KIDS",
    "a": "317 Sharondale Dr",
    "l": "Tullahoma TN 37388",
    "cs": [
      7
    ],
    "u": "www.5loaves4kidscharity.com",
    "f": 35
  },
  {
    "lg": -89.759757,
    "lt": 35.411411,
    "t": "AMATEUR ATHLETIC UNION OF THE UNITED STATES",
    "id": "270117747",
    "i": "270117747",
    "n": "AMATEUR ATHLETIC UNION OF THE UNITED STATES",
    "a": "464 Colton Ridge Lane",
    "l": "Atoka TN 38004",
    "cs": [
      7
    ],
    "f": 35
  },
  {
    "lg": -86.489369,
    "lt": 35.784183,
    "t": "AMATEUR ATHLETIC UNION OF THE UNITED STATES INC",
    "id": "352572271",
    "i": "352572271",
    "n": "AMATEUR ATHLETIC UNION OF THE UNITED STATES INC",
    "a": "4958 CLOVER HILL DRIVE",
    "l": "MURFREESBORO TN 37128",
    "cs": [
      7
    ],
    "f": 35,
    "u": "abovetherimgym.com"
  },
  {
    "lg": -85.485795,
    "lt": 35.618527,
    "t": "447 FOUNDATION",
    "id": "824585432",
    "i": "824585432",
    "n": "447 FOUNDATION",
    "a": "49 Connell Road",
    "l": "Spemcer TN 38585",
    "cs": [
      100
    ],
    "f": 35
  },
  {
    "lg": -89.856938,
    "lt": 35.01365,
    "t": "AMATEUR ATHLETIC UNION OF THE UNITED STATES INC",
    "id": "465072195",
    "i": "465072195",
    "n": "AMATEUR ATHLETIC UNION OF THE UNITED STATES INC",
    "a": "4451 Kayla Cove",
    "l": "Memphis TN 38141",
    "cs": [
      7
    ],
    "u": "leaguelineup.com/memphisdream",
    "f": 35
  },
  {
    "lg": -86.559384,
    "lt": 36.022237,
    "t": "AMATEUR ATHLETIC UNION OF THE UNITED STATES INC",
    "id": "472135889",
    "i": "472135889",
    "n": "AMATEUR ATHLETIC UNION OF THE UNITED STATES INC",
    "a": "690 ALMONDWOOD PL",
    "l": "LA VERGNE TN 37086",
    "cs": [
      7
    ],
    "f": 36,
    "u": "WWW.RCTRACKCLUB.ORG"
  },
  {
    "lg": -82.9414,
    "lt": 36.424289,
    "t": "AMERICAN CAIRO ANIMAL RESCUE FOUNDATION",
    "id": "861291212",
    "i": "861291212",
    "n": "AMERICAN CAIRO ANIMAL RESCUE FOUNDATION",
    "a": "559 Shanks Gap Rd",
    "l": "Rogersville TN 37857",
    "cs": [
      100
    ],
    "f": 36
  },
  {
    "lg": -84.492265,
    "lt": 35.82023,
    "t": "4 PAWS FOOD DELIVERY",
    "id": "472861878",
    "i": "472861878",
    "n": "4 PAWS FOOD DELIVERY",
    "a": "193 Old Johnston Valley Rd",
    "l": "Kingston TN 37763",
    "cs": [
      9
    ],
    "f": 35
  },
  {
    "lg": -89.700274,
    "lt": 35.286355,
    "t": "ALLURE BY MIA INCORPORATED",
    "id": "823566391",
    "i": "823566391",
    "n": "ALLURE BY MIA INCORPORATED",
    "a": "2719 Misty Bar Drive",
    "l": "Memphis TN 38002",
    "cs": [
      100
    ],
    "f": 35
  },
  {
    "lg": -82.383193,
    "lt": 36.299586,
    "t": "A LEG UP RE-ENTRY SERVICES",
    "id": "882773445",
    "i": "882773445",
    "n": "A LEG UP RE-ENTRY SERVICES",
    "a": "3011 Vicksurg Rd",
    "l": "Johnson City TN 37604",
    "cs": [
      42
    ],
    "f": 36
  },
  {
    "lg": -86.808023,
    "lt": 36.177714,
    "t": "ALPHA OMEGA ALPHA HONOR MEDICAL SOCIETY",
    "id": "626073904",
    "i": "626073904",
    "n": "ALPHA OMEGA ALPHA HONOR MEDICAL SOCIETY",
    "a": "1005 DB Todd Blvd",
    "l": "Nashville TN 37208",
    "cs": [
      10
    ],
    "f": 36,
    "u": "http://www.alphaomegaalph.org/meharry.html"
  },
  {
    "lg": -84.167752,
    "lt": 35.861344,
    "t": "5-STAR EDUCATION FOUNDATION",
    "id": "813349370",
    "i": "813349370",
    "n": "5-STAR EDUCATION FOUNDATION",
    "a": "12568 KINGSTON PIKE",
    "l": "KNOXVILLE TN 37934",
    "cs": [
      5,
      100
    ],
    "f": 35
  },
  {
    "lg": -89.856938,
    "lt": 35.01365,
    "t": "AMATEUR ATHLETIC UNION OF THE UNITED STATES INC",
    "id": "465072195",
    "i": "465072195",
    "n": "AMATEUR ATHLETIC UNION OF THE UNITED STATES INC",
    "a": "4451 Kayla Cove",
    "l": "Memphis TN 38141",
    "cs": [
      7
    ],
    "u": "leaguelineup.com/memphisdream",
    "f": 35
  },
  {
    "lg": -86.790618,
    "lt": 36.149614,
    "t": "AMERICAN FEDERATION OF GOVERNMENT EMPLOYEES",
    "id": "626063187",
    "i": "626063187",
    "n": "AMERICAN FEDERATION OF GOVERNMENT EMPLOYEES",
    "a": "110 9th Avenue South",
    "l": "Nashville TN 37203",
    "cs": [
      6
    ],
    "f": 36
  },
  {
    "lg": -89.700274,
    "lt": 35.286355,
    "t": "ALLURE BY MIA INCORPORATED",
    "id": "823566391",
    "i": "823566391",
    "n": "ALLURE BY MIA INCORPORATED",
    "a": "2719 Misty Bar Drive",
    "l": "Memphis TN 38002",
    "cs": [
      100
    ],
    "f": 35
  },
  {
    "lg": -87.416322,
    "lt": 36.568751,
    "t": "A BREATH OF FRESH AIR",
    "id": "871788175",
    "i": "871788175",
    "n": "A BREATH OF FRESH AIR",
    "a": "106 Lynx Drive",
    "l": "Clarksville TN 37042",
    "cs": [
      9
    ],
    "f": 36
  },
  {
    "lg": -86.790618,
    "lt": 36.149614,
    "t": "AMERICAN FEDERATION OF GOVERNMENT EMPLOYEES",
    "id": "626063187",
    "i": "626063187",
    "n": "AMERICAN FEDERATION OF GOVERNMENT EMPLOYEES",
    "a": "110 9th Avenue South",
    "l": "Nashville TN 37203",
    "cs": [
      6
    ],
    "f": 36
  },
  {
    "lg": -85.149064,
    "lt": 36.56213,
    "t": "911 WINTER WORKSHOP",
    "id": "464389987",
    "i": "464389987",
    "n": "911 WINTER WORKSHOP",
    "a": "101 WALT RICH LANE",
    "l": "BYRDSTOWN TN 38549",
    "cs": [
      6
    ],
    "f": 36
  },
  {
    "lg": -88.893792,
    "lt": 35.438396,
    "t": "A HEALTHY YOU",
    "id": "815373467",
    "i": "815373467",
    "n": "A HEALTHY YOU",
    "a": "515 Bowman Road",
    "l": "MEDON TN 38356",
    "cs": [
      10
    ],
    "f": 35
  },
  {
    "lg": -82.448079,
    "lt": 36.094488,
    "t": "A HAPPIER & HEALTHIER PLACE",
    "id": "823532543",
    "i": "823532543",
    "n": "A HAPPIER & HEALTHIER PLACE",
    "a": "326 Crosswhite Lane",
    "l": "Erwin TN 37650",
    "cs": [
      10
    ],
    "f": 36
  },
  {
    "lg": -86.723711,
    "lt": 36.067234,
    "t": "AMERICAN COLLEGE OF HEALTHCARE EXECUTIVES",
    "id": "320132513",
    "i": "320132513",
    "n": "AMERICAN COLLEGE OF HEALTHCARE EXECUTIVES",
    "a": "5041 Meta Drive",
    "l": "Nashville TN 37211",
    "cs": [
      5,
      10
    ],
    "f": 36,
    "u": "https://achemt.org/"
  },
  {
    "lg": -87.401828,
    "lt": 36.378818,
    "t": "A FARM CALLED HOME INC",
    "id": "412169457",
    "i": "412169457",
    "n": "A FARM CALLED HOME INC",
    "a": "5433 Lee Women Rd",
    "l": "Cunningham TN 37052",
    "cs": [
      1
    ],
    "f": 36
  },
  {
    "lg": -89.848589,
    "lt": 35.238915,
    "t": "AMATEUR ATHLETIC UNION OF THE UNITED STATES",
    "id": "844211971",
    "i": "844211971",
    "n": "AMATEUR ATHLETIC UNION OF THE UNITED STATES",
    "a": "4526 Tall Meadow cove",
    "l": "Bartlett TN 38135",
    "cs": [
      7
    ],
    "f": 35
  },
  {
    "lg": -86.793127,
    "lt": 36.068447,
    "t": "12 WOMEN FOUNDATION INC",
    "id": "621870480",
    "i": "621870480",
    "n": "12 WOMEN FOUNDATION INC",
    "a": "5057 Kingsview Court",
    "l": "Nashville TN 37220",
    "cs": [
      100
    ],
    "f": 36
  },
  {
    "lg": -89.848589,
    "lt": 35.238915,
    "t": "AMATEUR ATHLETIC UNION OF THE UNITED STATES",
    "id": "844211971",
    "i": "844211971",
    "n": "AMATEUR ATHLETIC UNION OF THE UNITED STATES",
    "a": "4526 Tall Meadow cove",
    "l": "Bartlett TN 38135",
    "cs": [
      7
    ],
    "f": 35
  },
  {
    "lg": -89.951498,
    "lt": 35.346626,
    "t": "AMATEUR ATHLETIC UNION OF THE UNITED STATES INC",
    "id": "812098789",
    "i": "812098789",
    "n": "AMATEUR ATHLETIC UNION OF THE UNITED STATES INC",
    "a": "6890 Alderwood Dr S",
    "l": "Millington TN 38053",
    "cs": [
      7
    ],
    "f": 35
  },
  {
    "lg": -86.834803,
    "lt": 36.29888,
    "t": "AMATEUR ATHLETIC UNION OF THE UNITED STATES",
    "id": "800564536",
    "i": "800564536",
    "n": "AMATEUR ATHLETIC UNION OF THE UNITED STATES",
    "a": "555 Hickory Hills Blvd",
    "l": "Whites Creek TN 37189",
    "cs": [
      7
    ],
    "f": 36
  },
  {
    "lg": -88.853395,
    "lt": 35.588164,
    "t": "AMERICAN INNS OF COURT FOUNDATION",
    "id": "272030999",
    "i": "272030999",
    "n": "AMERICAN INNS OF COURT FOUNDATION",
    "a": "111 S Highland Avenue",
    "l": "Jackson TN 38301",
    "cs": [
      11,
      100
    ],
    "f": 35,
    "u": "https://www.americanmusicandhealing.org"
  },
  {
    "lg": -86.269244,
    "lt": 36.263852,
    "t": "AMATEUR ATHLETIC UNION OF THE UNITED STATES INC",
    "id": "475348729",
    "i": "475348729",
    "n": "AMATEUR ATHLETIC UNION OF THE UNITED STATES INC",
    "a": "514 Sheath Circle",
    "l": "Lebanon TN 37087",
    "cs": [
      7
    ],
    "u": "magenrae@gmail.com",
    "f": 36
  },
  {
    "lg": -82.383193,
    "lt": 36.299586,
    "t": "A LEG UP RE-ENTRY SERVICES",
    "id": "882773445",
    "i": "882773445",
    "n": "A LEG UP RE-ENTRY SERVICES",
    "a": "3011 Vicksurg Rd",
    "l": "Johnson City TN 37604",
    "cs": [
      42
    ],
    "f": 36
  },
  {
    "lg": -90.035468,
    "lt": 35.151419,
    "t": "A HOUSE OF HOPE",
    "id": "830931256",
    "i": "830931256",
    "n": "A HOUSE OF HOPE",
    "a": "592 North Third Street",
    "l": "Memphis TN 38105",
    "cs": [
      1
    ],
    "f": 35
  },
  {
    "lg": -89.926689,
    "lt": 35.224574,
    "t": "AMATEUR ATHLETIC UNION OF THE UNITED STATES",
    "id": "320399996",
    "i": "320399996",
    "n": "AMATEUR ATHLETIC UNION OF THE UNITED STATES",
    "a": "4302 N Grand Cedar Lane",
    "l": "Memphis TN 38128",
    "cs": [
      7
    ],
    "f": 35,
    "u": "Teamtoughclassic.com"
  },
  {
    "lg": -83.734853,
    "lt": 35.851094,
    "t": "ALL AMERICAN VOLLEYBALL INC",
    "id": "651028565",
    "i": "651028565",
    "n": "ALL AMERICAN VOLLEYBALL INC",
    "a": "1664 DRIPPING SPRINGS ROAD",
    "l": "SEYMOUR TN 37865",
    "cs": [
      7
    ],
    "f": 35
  },
  {
    "lg": -86.632515,
    "lt": 36.052231,
    "t": "AMERICAN ENTERTAINMENT WORKS INC",
    "id": "462353020",
    "i": "462353020",
    "n": "AMERICAN ENTERTAINMENT WORKS INC",
    "a": "3400 Roundwood Forest Dr",
    "l": "Antioch TN 37013",
    "cs": [
      6
    ],
    "f": 36,
    "u": "https://www.aeworks.org"
  },
  {
    "lg": -87.021526,
    "lt": 35.629164,
    "t": "A YOUTH EDUCATIONAL FOUNDATION INC",
    "id": "462645696",
    "i": "462645696",
    "n": "A YOUTH EDUCATIONAL FOUNDATION INC",
    "a": "816 S Garden St",
    "l": "Columbia TN 38401",
    "cs": [
      7,
      5,
      100
    ],
    "f": 35
  },
  {
    "lg": -86.481794,
    "lt": 36.180589,
    "t": "AMATEUR ATHLETIC UNION OF THE UNITED STATES INC",
    "id": "832981993",
    "i": "832981993",
    "n": "AMATEUR ATHLETIC UNION OF THE UNITED STATES INC",
    "a": "110 SE Springdale Drive",
    "l": "Mount Juliet TN 37122",
    "cs": [
      7
    ],
    "f": 36
  },
  {
    "lg": -86.656722,
    "lt": 36.108666,
    "t": "AMATEUR ATHLETIC UNIONS OF THE US INC",
    "id": "383914682",
    "i": "383914682",
    "n": "AMATEUR ATHLETIC UNIONS OF THE US INC",
    "a": "208 Loxley Lane",
    "l": "Murfreesboro TN 37217",
    "cs": [
      7
    ],
    "f": 36,
    "u": "www.leaguelineup.com/nashvillejazz"
  },
  {
    "lg": -87.334932,
    "lt": 36.522633,
    "t": "AMERICA AGAINST DRUGS",
    "id": "621843951",
    "i": "621843951",
    "n": "AMERICA AGAINST DRUGS",
    "a": "2053 B Wilma Rudolph",
    "l": "Clarksville TN 37040",
    "cs": [
      51
    ],
    "f": 36,
    "u": "https://www.cseyouthsports.com/"
  },
  {
    "lg": -88.768058,
    "lt": 35.701654,
    "t": "AMATEUR ATHLETIC UNION OF THE UNITED STATES INC",
    "id": "473240864",
    "i": "473240864",
    "n": "AMATEUR ATHLETIC UNION OF THE UNITED STATES INC",
    "a": "75 Avondale Cove",
    "l": "Jackson TN 38305",
    "cs": [
      7
    ],
    "u": "www.tnpridewest.com",
    "f": 35
  },
  {
    "lg": -89.926689,
    "lt": 35.224574,
    "t": "AMATEUR ATHLETIC UNION OF THE UNITED STATES",
    "id": "320399996",
    "i": "320399996",
    "n": "AMATEUR ATHLETIC UNION OF THE UNITED STATES",
    "a": "4302 N Grand Cedar Lane",
    "l": "Memphis TN 38128",
    "cs": [
      7
    ],
    "f": 35,
    "u": "Teamtoughclassic.com"
  },
  {
    "lg": -85.073294,
    "lt": 35.224176,
    "t": "A PLACE FOR ME FOUNDATION",
    "id": "842373470",
    "i": "842373470",
    "n": "A PLACE FOR ME FOUNDATION",
    "a": "PO BOX 186",
    "l": "Harrison TN 37341",
    "cs": [
      100
    ],
    "f": 35
  },
  {
    "lg": -88.768058,
    "lt": 35.701654,
    "t": "AMATEUR ATHLETIC UNION OF THE UNITED STATES INC",
    "id": "473240864",
    "i": "473240864",
    "n": "AMATEUR ATHLETIC UNION OF THE UNITED STATES INC",
    "a": "75 Avondale Cove",
    "l": "Jackson TN 38305",
    "cs": [
      7
    ],
    "u": "www.tnpridewest.com",
    "f": 35
  },
  {
    "lg": -86.53159,
    "lt": 35.959541,
    "t": "17-15 SPORTS",
    "id": "814854167",
    "i": "814854167",
    "n": "17-15 SPORTS",
    "a": "1002 Seven Oaks Blvd",
    "l": "smyrna TN 37167",
    "cs": [
      7
    ],
    "f": 35,
    "u": "www.1715sports.com"
  },
  {
    "lg": -86.53159,
    "lt": 35.959541,
    "t": "17-15 SPORTS",
    "id": "814854167",
    "i": "814854167",
    "n": "17-15 SPORTS",
    "a": "1002 Seven Oaks Blvd",
    "l": "smyrna TN 37167",
    "cs": [
      7
    ],
    "f": 35,
    "u": "www.1715sports.com"
  },
  {
    "lg": -86.767472,
    "lt": 35.489239,
    "t": "ABF CHARITIES",
    "id": "260021597",
    "i": "260021597",
    "n": "ABF CHARITIES",
    "a": "2840 Glasscock Road",
    "l": "Lewisburg TN 37091",
    "cs": [
      100
    ],
    "f": 35
  },
  {
    "lg": -86.576632,
    "lt": 36.145195,
    "t": "ALPHA DELTA ALUMNI FOUNDATION",
    "id": "453674192",
    "i": "453674192",
    "n": "ALPHA DELTA ALUMNI FOUNDATION",
    "a": "2029 HAWKS NEST DRIVE",
    "l": "HERMITAGE TN 37076",
    "cs": [
      100
    ],
    "u": "https://aberdeenfoundation.org",
    "f": 36
  },
  {
    "lg": -83.869153,
    "lt": 35.908752,
    "t": "ABBY GIBSON MEMORIAL FOUNDATION",
    "id": "464471987",
    "i": "464471987",
    "n": "ABBY GIBSON MEMORIAL FOUNDATION",
    "a": "317 Allen Rd",
    "l": "KNOXVILLE TN 37920",
    "cs": [
      100
    ],
    "f": 35
  },
  {
    "lg": -85.613998,
    "lt": 35.864761,
    "t": "AARON SHAFER MEMORIAL FOUNDATION",
    "id": "272790881",
    "i": "272790881",
    "n": "AARON SHAFER MEMORIAL FOUNDATION",
    "a": "316 Orchid Lane",
    "l": "Walling TN 38587",
    "cs": [
      100
    ],
    "u": "AaronShaferBikeFest.com",
    "f": 35
  },
  {
    "lg": -85.14578,
    "lt": 35.030496,
    "t": "AGAPE KOSMOS FOUNDATION INC",
    "id": "811382873",
    "i": "811382873",
    "n": "AGAPE KOSMOS FOUNDATION INC",
    "a": "6520 Van Ness Rd",
    "l": "Chattanooga TN 37421",
    "cs": [
      100
    ],
    "u": "Am. Assn of Chr. Schools",
    "f": 35
  },
  {
    "lg": -86.801254,
    "lt": 36.133877,
    "t": "AMATEUR ATHLETIC UNION OF THE UNITED STATES INC",
    "id": "900925400",
    "i": "900925400",
    "n": "AMATEUR ATHLETIC UNION OF THE UNITED STATES INC",
    "a": "2512 Barton Ave",
    "l": "Nashville TN 37212",
    "cs": [
      7
    ],
    "f": 36,
    "u": "nashvilleyouthathletics.org"
  },
  {
    "lg": -86.774283,
    "lt": 36.106735,
    "t": "AMERICAN INNS OF COURT FOUNDATION",
    "id": "621437201",
    "i": "621437201",
    "n": "AMERICAN INNS OF COURT FOUNDATION",
    "a": "4013 Armory Oaks Dr",
    "l": "Nashville TN 37204",
    "cs": [
      11,
      100
    ],
    "f": 36,
    "u": "adoptionhopefoundation.org"
  },
  {
    "lg": -90.011396,
    "lt": 35.033181,
    "t": "ALPHA 100 INCORPORATED",
    "id": "311688879",
    "i": "311688879",
    "n": "ALPHA 100 INCORPORATED",
    "a": "4552 St Honore Dr",
    "l": "Memphis TN 38116",
    "cs": [
      100
    ],
    "f": 35,
    "u": "AFRICAN ENGAGEMENT COMMUNITY DEVELOPMENT NETWORK, INC."
  },
  {
    "lg": -89.951498,
    "lt": 35.346626,
    "t": "AMATEUR ATHLETIC UNION OF THE UNITED STATES INC",
    "id": "812098789",
    "i": "812098789",
    "n": "AMATEUR ATHLETIC UNION OF THE UNITED STATES INC",
    "a": "6890 Alderwood Dr S",
    "l": "Millington TN 38053",
    "cs": [
      7
    ],
    "f": 35
  },
  {
    "lg": -90.094687,
    "lt": 35.102064,
    "t": "ACADEMIC AND COMMUNITY EXCELLENCE INCORPORATED",
    "id": "030537370",
    "i": "030537370",
    "n": "ACADEMIC AND COMMUNITY EXCELLENCE INCORPORATED",
    "a": "1485 Gausco Road",
    "l": "Memphis TN 38106",
    "cs": [
      100
    ],
    "f": 35
  },
  {
    "lg": -86.785062,
    "lt": 35.999288,
    "t": "AMERICAN HEALTH DECISIONS INC",
    "id": "223019027",
    "i": "223019027",
    "n": "AMERICAN HEALTH DECISIONS INC",
    "a": "9302 Grist Mill Ct",
    "l": "Brentwood TN 37027",
    "cs": [
      10
    ],
    "f": 35,
    "u": "https://masshealthdecisions.org/american-health-decisions/"
  },
  {
    "lg": -90.011396,
    "lt": 35.033181,
    "t": "ALPHA 100 INCORPORATED",
    "id": "311688879",
    "i": "311688879",
    "n": "ALPHA 100 INCORPORATED",
    "a": "4552 St Honore Dr",
    "l": "Memphis TN 38116",
    "cs": [
      100
    ],
    "f": 35,
    "u": "AFRICAN ENGAGEMENT COMMUNITY DEVELOPMENT NETWORK, INC."
  },
  {
    "lg": -82.498988,
    "lt": 36.520428,
    "t": "AMERICAN COLLEGE OF GENERAL MEDICINE INC",
    "id": "541892549",
    "i": "541892549",
    "n": "AMERICAN COLLEGE OF GENERAL MEDICINE INC",
    "a": "4407 Glen Eden Road",
    "l": "kingsport TN 37664",
    "cs": [
      5,
      10
    ],
    "f": 36,
    "u": "alespto.com"
  },
  {
    "lg": -86.790618,
    "lt": 36.149614,
    "t": "AMERICAN FEDERATION OF GOVERNMENT EMPLOYEES",
    "id": "626063187",
    "i": "626063187",
    "n": "AMERICAN FEDERATION OF GOVERNMENT EMPLOYEES",
    "a": "110 9th Avenue South",
    "l": "Nashville TN 37203",
    "cs": [
      6
    ],
    "f": 36
  },
  {
    "lg": -86.785062,
    "lt": 35.999288,
    "t": "AMERICAN HEALTH DECISIONS INC",
    "id": "223019027",
    "i": "223019027",
    "n": "AMERICAN HEALTH DECISIONS INC",
    "a": "9302 Grist Mill Ct",
    "l": "Brentwood TN 37027",
    "cs": [
      10
    ],
    "f": 35,
    "u": "https://masshealthdecisions.org/american-health-decisions/"
  },
  {
    "lg": -86.954138,
    "lt": 35.884862,
    "t": "AMERICAN INNS OF COURT FOUNDATION",
    "id": "621699920",
    "i": "621699920",
    "n": "AMERICAN INNS OF COURT FOUNDATION",
    "a": "125 Fourth Ave S",
    "l": "Franklin TN 37064",
    "cs": [
      11,
      100
    ],
    "f": 35,
    "u": "www.mambabaseball.com"
  },
  {
    "lg": -86.968798,
    "lt": 36.051294,
    "t": "ACT 1 THEATER CO",
    "id": "581955172",
    "i": "581955172",
    "n": "ACT 1 THEATER CO",
    "a": "865 Bellevue Rd H24",
    "l": "Nashville TN 37221",
    "cs": [
      9
    ],
    "u": "www.act1nashville.com",
    "f": 36
  },
  {
    "lg": -84.175183,
    "lt": 36.097124,
    "t": "ACHS BOYS BASKETBALL BOOSTERS",
    "id": "471127698",
    "i": "471127698",
    "n": "ACHS BOYS BASKETBALL BOOSTERS",
    "a": "128 smith rdRd",
    "l": "Clinton TN 37716",
    "cs": [
      7
    ],
    "f": 36
  },
  {
    "lg": -90.054979,
    "lt": 35.15305,
    "t": "AMERICAN INNS OF COURT FOUNDATION",
    "id": "621587757",
    "i": "621587757",
    "n": "AMERICAN INNS OF COURT FOUNDATION",
    "a": "167 North Main St Rm 1111",
    "l": "Memphis TN 38103",
    "cs": [
      11,
      100
    ],
    "f": 35,
    "u": "www.alcomgt.com"
  },
  {
    "lg": -83.92061,
    "lt": 35.963643,
    "t": "ADOPT-A-SCHOOL PARTNERSHIPS INC",
    "id": "621377201",
    "i": "621377201",
    "n": "ADOPT-A-SCHOOL PARTNERSHIPS INC",
    "a": "505 Summer Place",
    "l": "Knoxville TN 37902",
    "cs": [
      5
    ],
    "u": "www.knoxschoolspie.org",
    "f": 35
  },
  {
    "lg": -86.780262,
    "lt": 35.91229,
    "t": "ADOPT A BOOK FOUNDATION INC",
    "id": "200174954",
    "i": "200174954",
    "n": "ADOPT A BOOK FOUNDATION INC",
    "a": "1517 Towne Park Lane",
    "l": "Franklin TN 37067",
    "cs": [
      100
    ],
    "u": "www.adoptabook.org",
    "f": 35
  },
  {
    "lg": -87.149896,
    "lt": 35.768825,
    "t": "ADKISON CEMETERY FUND",
    "id": "581879024",
    "i": "581879024",
    "n": "ADKISON CEMETERY FUND",
    "a": "5466 GASKILL BRANCH RD",
    "l": "SANTA FE TN 38482",
    "cs": [
      100
    ],
    "f": 35
  },
  {
    "lg": -82.09404,
    "lt": 36.549613,
    "t": "AMATEUR ATHLETIC UNIONS OF THE US INC",
    "id": "463201155",
    "i": "463201155",
    "n": "AMATEUR ATHLETIC UNIONS OF THE US INC",
    "a": "1362 Bullock Hollow Road",
    "l": "Bristol TN 37620",
    "cs": [
      7
    ],
    "u": "theaddictsfamily.org",
    "f": 36
  },
  {
    "lg": -89.859879,
    "lt": 35.174957,
    "t": "AMERICAN FEDERATION OF GOVERNMENT EMPLOYEES",
    "id": "621056650",
    "i": "621056650",
    "n": "AMERICAN FEDERATION OF GOVERNMENT EMPLOYEES",
    "a": "1101 John A Denie Rd",
    "l": "Memphis TN 38134",
    "cs": [
      6
    ],
    "f": 35,
    "u": "www.local3731.org"
  },
  {
    "lg": -83.981389,
    "lt": 35.660842,
    "t": "ALMOST HOME ANIMAL RESCUE",
    "id": "320122741",
    "i": "320122741",
    "n": "ALMOST HOME ANIMAL RESCUE",
    "a": "112 York Circle",
    "l": "Maryville TN 37803",
    "cs": [
      1
    ],
    "u": "www.almosthometn.org",
    "f": 35
  },
  {
    "lg": -87.263545,
    "lt": 36.042705,
    "t": "ACTS OF MERCY FOUNDATION",
    "id": "274635372",
    "i": "274635372",
    "n": "ACTS OF MERCY FOUNDATION",
    "a": "PO Box 186",
    "l": "Burns TN 37029",
    "cs": [
      100
    ],
    "f": 36
  },
  {
    "lg": -85.05155,
    "lt": 35.048266,
    "t": "ADVENTIST RETIRED WORKERS OF THE COLLEGEDALE AREA",
    "id": "581436992",
    "i": "581436992",
    "n": "ADVENTIST RETIRED WORKERS OF THE COLLEGEDALE AREA",
    "a": "PO Box 1476",
    "l": "Collegedale TN 37315",
    "cs": [
      5,
      6
    ],
    "f": 35
  },
  {
    "lg": -85.226165,
    "lt": 35.028764,
    "t": "AMATEUR ATHLETIC UNION OF THE UNITED STATES",
    "id": "320337552",
    "i": "320337552",
    "n": "AMATEUR ATHLETIC UNION OF THE UNITED STATES",
    "a": "9241 Shay Cv",
    "l": "Chattanooga TN 37411",
    "cs": [
      7
    ],
    "f": 35
  },
  {
    "lg": -86.269244,
    "lt": 36.263852,
    "t": "AMATEUR ATHLETIC UNION OF THE UNITED STATES INC",
    "id": "475348729",
    "i": "475348729",
    "n": "AMATEUR ATHLETIC UNION OF THE UNITED STATES INC",
    "a": "514 Sheath Circle",
    "l": "Lebanon TN 37087",
    "cs": [
      7
    ],
    "u": "magenrae@gmail.com",
    "f": 36
  },
  {
    "lg": -84.347385,
    "lt": 35.506329,
    "t": "ADULT BASIC LITERACY EDUCATION FOR MONROE COUNTY",
    "id": "275048651",
    "i": "275048651",
    "n": "ADULT BASIC LITERACY EDUCATION FOR MONROE COUNTY",
    "a": "PO Box 1105",
    "l": "Madisonville TN 37354",
    "cs": [
      5
    ],
    "f": 35
  },
  {
    "lg": -89.640503,
    "lt": 35.764057,
    "t": "ADULT BASIC EDUCATION COUNCIL OF LAUDERDALE COUNTY TENNESSEE-ABE-",
    "id": "582058832",
    "i": "582058832",
    "n": "ADULT BASIC EDUCATION COUNCIL OF LAUDERDALE COUNTY TENNESSEE-ABE-",
    "a": "127 Industrial Drive",
    "l": "Ripley TN 38063",
    "cs": [
      5
    ],
    "f": 35
  },
  {
    "lg": -86.774283,
    "lt": 36.106735,
    "t": "AMERICAN INNS OF COURT FOUNDATION",
    "id": "621437201",
    "i": "621437201",
    "n": "AMERICAN INNS OF COURT FOUNDATION",
    "a": "4013 Armory Oaks Dr",
    "l": "Nashville TN 37204",
    "cs": [
      11,
      100
    ],
    "f": 36,
    "u": "adoptionhopefoundation.org"
  },
  {
    "lg": -86.632515,
    "lt": 36.052231,
    "t": "AMERICAN ENTERTAINMENT WORKS INC",
    "id": "462353020",
    "i": "462353020",
    "n": "AMERICAN ENTERTAINMENT WORKS INC",
    "a": "3400 Roundwood Forest Dr",
    "l": "Antioch TN 37013",
    "cs": [
      6
    ],
    "f": 36,
    "u": "https://www.aeworks.org"
  },
  {
    "lg": -90.011396,
    "lt": 35.033181,
    "t": "ALPHA 100 INCORPORATED",
    "id": "311688879",
    "i": "311688879",
    "n": "ALPHA 100 INCORPORATED",
    "a": "4552 St Honore Dr",
    "l": "Memphis TN 38116",
    "cs": [
      100
    ],
    "f": 35,
    "u": "AFRICAN ENGAGEMENT COMMUNITY DEVELOPMENT NETWORK, INC."
  },
  {
    "lg": -90.02679,
    "lt": 35.242751,
    "t": "AFRICAN AMERICAN CHILDCARE ASSOCIATION",
    "id": "621510795",
    "i": "621510795",
    "n": "AFRICAN AMERICAN CHILDCARE ASSOCIATION",
    "a": "2390 Lisa Ave",
    "l": "Memphis TN 38127",
    "cs": [
      3
    ],
    "f": 35
  },
  {
    "lg": -86.898124,
    "lt": 35.719838,
    "t": "AMATEUR ATHLETIC UNION OF THE UNITED STATES INC",
    "id": "871671124",
    "i": "871671124",
    "n": "AMATEUR ATHLETIC UNION OF THE UNITED STATES INC",
    "a": "PO Box 483",
    "l": "Spring Hill TN 37174",
    "cs": [
      7
    ],
    "f": 35,
    "u": "skeetersbaseballclub.com"
  },
  {
    "lg": -85.177115,
    "lt": 35.29516,
    "t": "AFFINITY 42 FOUNDATION",
    "id": "823872732",
    "i": "823872732",
    "n": "AFFINITY 42 FOUNDATION",
    "a": "9619 Dayton Pike",
    "l": "Soddy Daisy TN 37379",
    "cs": [
      100
    ],
    "u": "Affinity42.org",
    "f": 35
  },
  {
    "lg": -86.138387,
    "lt": 35.181209,
    "t": "ALMOST HOME TRANSITIONAL HOUSING PROGRAM",
    "id": "272912474",
    "i": "272912474",
    "n": "ALMOST HOME TRANSITIONAL HOUSING PROGRAM",
    "a": "P O Box 906",
    "l": "Winchester TN 37398",
    "cs": [
      1
    ],
    "f": 35,
    "u": "www.almosthomethp.org"
  },
  {
    "lg": -86.731083,
    "lt": 36.179319,
    "t": "AMATEUR ATHLETIC UNION OF THE UNITED STATES INC",
    "id": "862858748",
    "i": "862858748",
    "n": "AMATEUR ATHLETIC UNION OF THE UNITED STATES INC",
    "a": "710 CLEO Miller Drive Apt-361",
    "l": "Nashville TN 37206",
    "cs": [
      7
    ],
    "u": "www.awaketn.org",
    "f": 36
  },
  {
    "lg": -82.7268,
    "lt": 36.530987,
    "t": "ADVOCACY FOR FAIRNESS IN SPORTS",
    "id": "834527989",
    "i": "834527989",
    "n": "ADVOCACY FOR FAIRNESS IN SPORTS",
    "a": "943 E Main Blvd",
    "l": "Church Hill TN 37642",
    "cs": [
      7
    ],
    "u": "advocacyforfairnessinsports.org",
    "f": 36
  },
  {
    "lg": -89.794288,
    "lt": 35.212893,
    "t": "ALMS SOCCER ACADEMY INC",
    "id": "475634868",
    "i": "475634868",
    "n": "ALMS SOCCER ACADEMY INC",
    "a": "2666 VANN LEER DRIVE",
    "l": "MEMPHIS TN 38133",
    "cs": [
      7
    ],
    "u": "www.agapenorthfoundation.org",
    "f": 35
  },
  {
    "lg": -86.723711,
    "lt": 36.067234,
    "t": "AMERICAN COLLEGE OF HEALTHCARE EXECUTIVES",
    "id": "320132513",
    "i": "320132513",
    "n": "AMERICAN COLLEGE OF HEALTHCARE EXECUTIVES",
    "a": "5041 Meta Drive",
    "l": "Nashville TN 37211",
    "cs": [
      5,
      10
    ],
    "f": 36,
    "u": "https://achemt.org/"
  },
  {
    "lg": -85.14578,
    "lt": 35.030496,
    "t": "AGAPE KOSMOS FOUNDATION INC",
    "id": "811382873",
    "i": "811382873",
    "n": "AGAPE KOSMOS FOUNDATION INC",
    "a": "6520 Van Ness Rd",
    "l": "Chattanooga TN 37421",
    "cs": [
      100
    ],
    "u": "Am. Assn of Chr. Schools",
    "f": 35
  },
  {
    "lg": -84.290549,
    "lt": 35.966483,
    "t": "ALTRUSA INTERNATIONAL FOUNDATION INC",
    "id": "621619212",
    "i": "621619212",
    "n": "ALTRUSA INTERNATIONAL FOUNDATION INC",
    "a": "PO Box5763",
    "l": "Oak Ridge TN 37830",
    "cs": [
      100
    ],
    "f": 35
  },
  {
    "lg": -86.870442,
    "lt": 36.113195,
    "t": "AIR FORCE ASSOCIATION",
    "id": "626077981",
    "i": "626077981",
    "n": "AIR FORCE ASSOCIATION",
    "a": "4487 Post Place APT 173",
    "l": "Nashville TN 37205",
    "cs": [
      16
    ],
    "f": 36
  },
  {
    "lg": -88.156874,
    "lt": 35.143564,
    "t": "AIR FORCE ASSOCIATION",
    "id": "237088391",
    "i": "237088391",
    "n": "AIR FORCE ASSOCIATION",
    "a": "PO Box 57",
    "l": "Savannah TN 38372",
    "cs": [
      16
    ],
    "f": 35
  },
  {
    "lg": -84.000169,
    "lt": 35.914748,
    "t": "AIR FORCE ASSOCIATION",
    "id": "510249167",
    "i": "510249167",
    "n": "AIR FORCE ASSOCIATION",
    "a": "8120 Olive Tree Way",
    "l": "Knoxville TN 37919",
    "cs": [
      16
    ],
    "f": 35
  },
  {
    "lg": -89.967917,
    "lt": 35.176666,
    "t": "AINT NO PLACE LIKE HOME WOMEN & CHILDEN SHELTER",
    "id": "352707201",
    "i": "352707201",
    "n": "AINT NO PLACE LIKE HOME WOMEN & CHILDEN SHELTER",
    "a": "1671 Brookins St",
    "l": "Memphis TN 38108",
    "cs": [
      3,
      1
    ],
    "u": "https://anplhwkshelter2021.wixsite.com/my-site",
    "f": 35
  },
  {
    "lg": -82.856467,
    "lt": 36.068721,
    "t": "AHAVA VOLLEYBALL CORP",
    "id": "843585319",
    "i": "843585319",
    "n": "AHAVA VOLLEYBALL CORP",
    "a": "113 ROYCE ST",
    "l": "GREENEVILLE TN 37743",
    "cs": [
      7
    ],
    "f": 36
  },
  {
    "lg": -85.91734,
    "lt": 35.585288,
    "t": "AID FOR HAITI",
    "id": "262846707",
    "i": "262846707",
    "n": "AID FOR HAITI",
    "a": "1367 Old Manchester Rd",
    "l": "Morrison TN 37357",
    "cs": [
      12
    ],
    "f": 35
  },
  {
    "lg": -86.924482,
    "lt": 35.811405,
    "t": "AMATEUR ATHLETIC UNION OF THE UNITED STATES",
    "id": "471776336",
    "i": "471776336",
    "n": "AMATEUR ATHLETIC UNION OF THE UNITED STATES",
    "a": "1776 Declaration Way",
    "l": "Thompsons Station TN 37179",
    "cs": [
      7
    ],
    "f": 35
  },
  {
    "lg": -82.856467,
    "lt": 36.068721,
    "t": "AHAVA VOLLEYBALL CORP",
    "id": "843585319",
    "i": "843585319",
    "n": "AHAVA VOLLEYBALL CORP",
    "a": "113 ROYCE ST",
    "l": "GREENEVILLE TN 37743",
    "cs": [
      7
    ],
    "f": 36
  },
  {
    "lg": -83.987225,
    "lt": 35.791709,
    "t": "AMATEUR ATHLETIC UNION OF THE UNITED STATES",
    "id": "020811644",
    "i": "020811644",
    "n": "AMATEUR ATHLETIC UNION OF THE UNITED STATES",
    "a": "1721 Peppertree Drive",
    "l": "Alcoa TN 37701",
    "cs": [
      7
    ],
    "f": 35,
    "u": "http://www.alcoacityschoolsfoundation.org/"
  },
  {
    "lg": -83.987225,
    "lt": 35.791709,
    "t": "AMATEUR ATHLETIC UNION OF THE UNITED STATES",
    "id": "020811644",
    "i": "020811644",
    "n": "AMATEUR ATHLETIC UNION OF THE UNITED STATES",
    "a": "1721 Peppertree Drive",
    "l": "Alcoa TN 37701",
    "cs": [
      7
    ],
    "f": 35,
    "u": "http://www.alcoacityschoolsfoundation.org/"
  },
  {
    "lg": -83.987225,
    "lt": 35.791709,
    "t": "AMATEUR ATHLETIC UNION OF THE UNITED STATES",
    "id": "020811644",
    "i": "020811644",
    "n": "AMATEUR ATHLETIC UNION OF THE UNITED STATES",
    "a": "1721 Peppertree Drive",
    "l": "Alcoa TN 37701",
    "cs": [
      7
    ],
    "f": 35,
    "u": "http://www.alcoacityschoolsfoundation.org/"
  },
  {
    "lg": -90.054979,
    "lt": 35.15305,
    "t": "AMERICAN INNS OF COURT FOUNDATION",
    "id": "621587757",
    "i": "621587757",
    "n": "AMERICAN INNS OF COURT FOUNDATION",
    "a": "167 North Main St Rm 1111",
    "l": "Memphis TN 38103",
    "cs": [
      11,
      100
    ],
    "f": 35,
    "u": "www.alcomgt.com"
  },
  {
    "lg": -84.054192,
    "lt": 35.826849,
    "t": "AMATEUR ATHLETIC UNION OF THE UNITED STATES INC",
    "id": "320194021",
    "i": "320194021",
    "n": "AMATEUR ATHLETIC UNION OF THE UNITED STATES INC",
    "a": "2559 Robinson Drive",
    "l": "Louisville TN 37777",
    "cs": [
      7
    ],
    "f": 35,
    "u": "www.easttnair.com"
  },
  {
    "lg": -86.580895,
    "lt": 35.166452,
    "t": "AMATEUR ATHLETIC UNION OF THE UNITED STATES",
    "id": "462029732",
    "i": "462029732",
    "n": "AMATEUR ATHLETIC UNION OF THE UNITED STATES",
    "a": "P O Box 1092",
    "l": "Fayetteville TN 37334",
    "cs": [
      7
    ],
    "f": 35
  },
  {
    "lg": -86.656722,
    "lt": 36.108666,
    "t": "AMATEUR ATHLETIC UNIONS OF THE US INC",
    "id": "383914682",
    "i": "383914682",
    "n": "AMATEUR ATHLETIC UNIONS OF THE US INC",
    "a": "208 Loxley Lane",
    "l": "Murfreesboro TN 37217",
    "cs": [
      7
    ],
    "f": 36,
    "u": "www.leaguelineup.com/nashvillejazz"
  },
  {
    "lg": -86.954138,
    "lt": 35.884862,
    "t": "AMERICAN INNS OF COURT FOUNDATION",
    "id": "621699920",
    "i": "621699920",
    "n": "AMERICAN INNS OF COURT FOUNDATION",
    "a": "125 Fourth Ave S",
    "l": "Franklin TN 37064",
    "cs": [
      11,
      100
    ],
    "f": 35,
    "u": "www.mambabaseball.com"
  },
  {
    "lg": -89.985848,
    "lt": 35.096479,
    "t": "AIRWAYS AMBASSADORS FOR LAW ENFORCEMENT",
    "id": "800295359",
    "i": "800295359",
    "n": "AIRWAYS AMBASSADORS FOR LAW ENFORCEMENT",
    "a": "2234 Truitt",
    "l": "Memphis TN 38114",
    "cs": [
      11
    ],
    "f": 35
  },
  {
    "lg": -83.47897,
    "lt": 35.865101,
    "t": "AMERICAN CAVY BREEDERS ASSOCIATION YOUTH SCHOLARSHIP",
    "id": "842019354",
    "i": "842019354",
    "n": "AMERICAN CAVY BREEDERS ASSOCIATION YOUTH SCHOLARSHIP",
    "a": "425 Ingle Hollow Rd",
    "l": "Sevierville TN 37876",
    "cs": [
      7,
      5,
      100
    ],
    "f": 35
  },
  {
    "lg": -82.6206,
    "lt": 36.258014,
    "t": "AIR NATIONAL GUARD CIVIL ENGINEERS ASSOCIATION",
    "id": "581891196",
    "i": "581891196",
    "n": "AIR NATIONAL GUARD CIVIL ENGINEERS ASSOCIATION",
    "a": "PO Box 62",
    "l": "Limestone TN 37681",
    "cs": [
      16
    ],
    "u": "http://www.angcea.com",
    "f": 36
  },
  {
    "lg": -86.632515,
    "lt": 36.052231,
    "t": "AMERICAN ENTERTAINMENT WORKS INC",
    "id": "462353020",
    "i": "462353020",
    "n": "AMERICAN ENTERTAINMENT WORKS INC",
    "a": "3400 Roundwood Forest Dr",
    "l": "Antioch TN 37013",
    "cs": [
      6
    ],
    "f": 36,
    "u": "https://www.aeworks.org"
  },
  {
    "lg": -89.700274,
    "lt": 35.286355,
    "t": "ALLURE BY MIA INCORPORATED",
    "id": "823566391",
    "i": "823566391",
    "n": "ALLURE BY MIA INCORPORATED",
    "a": "2719 Misty Bar Drive",
    "l": "Memphis TN 38002",
    "cs": [
      100
    ],
    "f": 35
  },
  {
    "lg": -85.407828,
    "lt": 35.120403,
    "t": "AMATEUR ATHLETIC UNION OF THE UNITED STATES",
    "id": "453909101",
    "i": "453909101",
    "n": "AMATEUR ATHLETIC UNION OF THE UNITED STATES",
    "a": "832 Runyan Drive",
    "l": "Chattanooga TN 37405",
    "cs": [
      7
    ],
    "u": "thealicefund.org",
    "f": 35
  },
  {
    "lg": -85.433312,
    "lt": 36.187107,
    "t": "AMATEUR ATHLETIC UNION OF THE UNITED STATES",
    "id": "113734740",
    "i": "113734740",
    "n": "AMATEUR ATHLETIC UNION OF THE UNITED STATES",
    "a": "165 E Whitehall",
    "l": "Cookeville TN 38506",
    "cs": [
      7
    ],
    "f": 36,
    "u": "www.cookevilleyouthwrestling.com"
  },
  {
    "lg": -85.433312,
    "lt": 36.187107,
    "t": "AMATEUR ATHLETIC UNION OF THE UNITED STATES",
    "id": "113734740",
    "i": "113734740",
    "n": "AMATEUR ATHLETIC UNION OF THE UNITED STATES",
    "a": "165 E Whitehall",
    "l": "Cookeville TN 38506",
    "cs": [
      7
    ],
    "f": 36,
    "u": "www.cookevilleyouthwrestling.com"
  },
  {
    "lg": -85.433312,
    "lt": 36.187107,
    "t": "AMATEUR ATHLETIC UNION OF THE UNITED STATES",
    "id": "113734740",
    "i": "113734740",
    "n": "AMATEUR ATHLETIC UNION OF THE UNITED STATES",
    "a": "165 E Whitehall",
    "l": "Cookeville TN 38506",
    "cs": [
      7
    ],
    "f": 36,
    "u": "www.cookevilleyouthwrestling.com"
  },
  {
    "lg": -85.442214,
    "lt": 35.94454,
    "t": "ALFRED THE GREAT CONCLAVE PILGRIM PRECEPTORS",
    "id": "830593637",
    "i": "830593637",
    "n": "ALFRED THE GREAT CONCLAVE PILGRIM PRECEPTORS",
    "a": "216 Oak St",
    "l": "Sparta TN 38583",
    "cs": [
      9
    ],
    "f": 35
  },
  {
    "lg": -86.656722,
    "lt": 36.108666,
    "t": "AMATEUR ATHLETIC UNIONS OF THE US INC",
    "id": "383914682",
    "i": "383914682",
    "n": "AMATEUR ATHLETIC UNIONS OF THE US INC",
    "a": "208 Loxley Lane",
    "l": "Murfreesboro TN 37217",
    "cs": [
      7
    ],
    "f": 36,
    "u": "www.leaguelineup.com/nashvillejazz"
  },
  {
    "lg": -86.001565,
    "lt": 36.07383,
    "t": "ALEXANDRIA SENIOR CITIZENS INC",
    "id": "581766755",
    "i": "581766755",
    "n": "ALEXANDRIA SENIOR CITIZENS INC",
    "a": "330 Edgewood St",
    "l": "Alexandria TN 37012",
    "cs": [
      15
    ],
    "f": 36
  },
  {
    "lg": -83.916861,
    "lt": 36.056174,
    "t": "ALEX GARDNERS MOTHER-BABY NUTRITION FOUNDATION",
    "id": "884158501",
    "i": "884158501",
    "n": "ALEX GARDNERS MOTHER-BABY NUTRITION FOUNDATION",
    "a": "6829 Mountain Shadow Drive",
    "l": "Knoxville TN 37918",
    "cs": [
      3,
      100
    ],
    "u": "info@motherbabynutrition.org",
    "f": 36
  },
  {
    "lg": -89.760052,
    "lt": 35.181507,
    "t": "AMATEUR ATHLETIC UNION OF THE UNITED STATES INC YOUTH TRACK",
    "id": "465697020",
    "i": "465697020",
    "n": "AMATEUR ATHLETIC UNION OF THE UNITED STATES INC YOUTH TRACK",
    "a": "8960 Johnston",
    "l": "MEMPHIS TN 38016",
    "cs": [
      7
    ],
    "f": 35
  },
  {
    "lg": -86.318932,
    "lt": 35.881943,
    "t": "AMERICAN INNS OF COURT FOUNDATION",
    "id": "030529904",
    "i": "030529904",
    "n": "AMERICAN INNS OF COURT FOUNDATION",
    "a": "119 E Main St",
    "l": "Murfreesboro TN 37130",
    "cs": [
      11,
      100
    ],
    "f": 35,
    "u": "www.tnstarz.com"
  },
  {
    "lg": -89.862806,
    "lt": 35.053329,
    "t": "AMATEUR ATHLETIC UNION OF THE UNITED STATES INC",
    "id": "474650142",
    "i": "474650142",
    "n": "AMATEUR ATHLETIC UNION OF THE UNITED STATES INC",
    "a": "2883 S Mendenhall Rd STE 5",
    "l": "Memphis TN 38115",
    "cs": [
      7
    ],
    "f": 35,
    "u": "veteranslktraining.com"
  },
  {
    "lg": -83.734853,
    "lt": 35.851094,
    "t": "ALL AMERICAN VOLLEYBALL INC",
    "id": "651028565",
    "i": "651028565",
    "n": "ALL AMERICAN VOLLEYBALL INC",
    "a": "1664 DRIPPING SPRINGS ROAD",
    "l": "SEYMOUR TN 37865",
    "cs": [
      7
    ],
    "f": 35
  },
  {
    "lg": -84.002156,
    "lt": 35.979767,
    "t": "AMATEUR ATHLETIC UNIONS OF THE US INC",
    "id": "463424700",
    "i": "463424700",
    "n": "AMATEUR ATHLETIC UNIONS OF THE US INC",
    "a": "2031 Torch Light Lane",
    "l": "Knoxville TN 37921",
    "cs": [
      7
    ],
    "f": 35
  },
  {
    "lg": -86.834691,
    "lt": 36.081868,
    "t": "ALLIANCE FOR GREEN HILLS FOUNDATION INC",
    "id": "810718037",
    "i": "810718037",
    "n": "ALLIANCE FOR GREEN HILLS FOUNDATION INC",
    "a": "PO Box 150946",
    "l": "Nashville TN 37215",
    "cs": [
      100
    ],
    "u": "www.all4greenhills.com",
    "f": 36
  },
  {
    "lg": -86.834691,
    "lt": 36.081868,
    "t": "ALLIANCE FOR GREEN HILLS FOUNDATION INC",
    "id": "810718037",
    "i": "810718037",
    "n": "ALLIANCE FOR GREEN HILLS FOUNDATION INC",
    "a": "PO Box 150946",
    "l": "Nashville TN 37215",
    "cs": [
      100
    ],
    "u": "www.all4greenhills.com",
    "f": 36
  },
  {
    "lg": -86.898124,
    "lt": 35.719838,
    "t": "AMATEUR ATHLETIC UNION OF THE UNITED STATES INC",
    "id": "871671124",
    "i": "871671124",
    "n": "AMATEUR ATHLETIC UNION OF THE UNITED STATES INC",
    "a": "PO Box 483",
    "l": "Spring Hill TN 37174",
    "cs": [
      7
    ],
    "f": 35,
    "u": "skeetersbaseballclub.com"
  },
  {
    "lg": -87.442911,
    "lt": 36.077159,
    "t": "AMATEUR ATHLETIC UNION OF THE UNITED STATES INC",
    "id": "461185771",
    "i": "461185771",
    "n": "AMATEUR ATHLETIC UNION OF THE UNITED STATES INC",
    "a": "410 BELLWODD DR",
    "l": "DICKSON TN 37055",
    "cs": [
      7
    ],
    "u": "www.allenheritagefoundation.org",
    "f": 36
  },
  {
    "lg": -89.788637,
    "lt": 35.025913,
    "t": "AMATEUR ATHLETIC UNION OF THE UNITED STATES INC",
    "id": "800303060",
    "i": "800303060",
    "n": "AMATEUR ATHLETIC UNION OF THE UNITED STATES INC",
    "a": "5378 Philgrove Way",
    "l": "Memphis TN 38125",
    "cs": [
      7
    ],
    "u": "www.2911youthcenter.org",
    "f": 35
  },
  {
    "lg": -86.576632,
    "lt": 36.145195,
    "t": "ALPHA DELTA ALUMNI FOUNDATION",
    "id": "453674192",
    "i": "453674192",
    "n": "ALPHA DELTA ALUMNI FOUNDATION",
    "a": "2029 HAWKS NEST DRIVE",
    "l": "HERMITAGE TN 37076",
    "cs": [
      100
    ],
    "u": "https://aberdeenfoundation.org",
    "f": 36
  },
  {
    "lg": -89.760016,
    "lt": 35.13851,
    "t": "AMANA COMMUNITY SERVICES",
    "id": "851746710",
    "i": "851746710",
    "n": "AMANA COMMUNITY SERVICES",
    "a": "441 Bruins Trce",
    "l": "Memphis TN 38018",
    "cs": [
      42
    ],
    "f": 35
  },
  {
    "lg": -90.011396,
    "lt": 35.033181,
    "t": "ALPHA 100 INCORPORATED",
    "id": "311688879",
    "i": "311688879",
    "n": "ALPHA 100 INCORPORATED",
    "a": "4552 St Honore Dr",
    "l": "Memphis TN 38116",
    "cs": [
      100
    ],
    "f": 35,
    "u": "AFRICAN ENGAGEMENT COMMUNITY DEVELOPMENT NETWORK, INC."
  },
  {
    "lg": -89.794288,
    "lt": 35.212893,
    "t": "ALMS SOCCER ACADEMY INC",
    "id": "475634868",
    "i": "475634868",
    "n": "ALMS SOCCER ACADEMY INC",
    "a": "2666 VANN LEER DRIVE",
    "l": "MEMPHIS TN 38133",
    "cs": [
      7
    ],
    "u": "www.agapenorthfoundation.org",
    "f": 35
  },
  {
    "lg": -86.138387,
    "lt": 35.181209,
    "t": "ALMOST HOME TRANSITIONAL HOUSING PROGRAM",
    "id": "272912474",
    "i": "272912474",
    "n": "ALMOST HOME TRANSITIONAL HOUSING PROGRAM",
    "a": "P O Box 906",
    "l": "Winchester TN 37398",
    "cs": [
      1
    ],
    "f": 35,
    "u": "www.almosthomethp.org"
  },
  {
    "lg": -89.848589,
    "lt": 35.238915,
    "t": "AMATEUR ATHLETIC UNION OF THE UNITED STATES",
    "id": "844211971",
    "i": "844211971",
    "n": "AMATEUR ATHLETIC UNION OF THE UNITED STATES",
    "a": "4526 Tall Meadow cove",
    "l": "Bartlett TN 38135",
    "cs": [
      7
    ],
    "f": 35
  },
  {
    "lg": -85.008024,
    "lt": 35.502103,
    "t": "ALMOST HOME PET FOUNDATION",
    "id": "260255015",
    "i": "260255015",
    "n": "ALMOST HOME PET FOUNDATION",
    "a": "PO BOX 645",
    "l": "DAYTON TN 37321",
    "cs": [
      1,
      100
    ],
    "f": 35
  },
  {
    "lg": -86.442648,
    "lt": 35.932526,
    "t": "AMATEUR ATHLETIC UNION OF THE UNITED STATES INC",
    "id": "833734789",
    "i": "833734789",
    "n": "AMATEUR ATHLETIC UNION OF THE UNITED STATES INC",
    "a": "PO Box 12111",
    "l": "Murfreesboro TN 37129",
    "cs": [
      7
    ],
    "f": 35,
    "u": "www.mborojrpats.com"
  },
  {
    "lg": -83.981389,
    "lt": 35.660842,
    "t": "ALMOST HOME ANIMAL RESCUE",
    "id": "320122741",
    "i": "320122741",
    "n": "ALMOST HOME ANIMAL RESCUE",
    "a": "112 York Circle",
    "l": "Maryville TN 37803",
    "cs": [
      1
    ],
    "u": "www.almosthometn.org",
    "f": 35
  },
  {
    "lg": -89.700274,
    "lt": 35.286355,
    "t": "ALLURE BY MIA INCORPORATED",
    "id": "823566391",
    "i": "823566391",
    "n": "ALLURE BY MIA INCORPORATED",
    "a": "2719 Misty Bar Drive",
    "l": "Memphis TN 38002",
    "cs": [
      100
    ],
    "f": 35
  },
  {
    "lg": -85.433312,
    "lt": 36.187107,
    "t": "AMATEUR ATHLETIC UNION OF THE UNITED STATES",
    "id": "113734740",
    "i": "113734740",
    "n": "AMATEUR ATHLETIC UNION OF THE UNITED STATES",
    "a": "165 E Whitehall",
    "l": "Cookeville TN 38506",
    "cs": [
      7
    ],
    "f": 36,
    "u": "www.cookevilleyouthwrestling.com"
  },
  {
    "lg": -89.760016,
    "lt": 35.13851,
    "t": "AMANA COMMUNITY SERVICES",
    "id": "851746710",
    "i": "851746710",
    "n": "AMANA COMMUNITY SERVICES",
    "a": "441 Bruins Trce",
    "l": "Memphis TN 38018",
    "cs": [
      42
    ],
    "f": 35
  },
  {
    "lg": -90.003728,
    "lt": 35.132549,
    "t": "AMATEUR ATHLETIC UNION OF THE UNITED STATES INC",
    "id": "800717297",
    "i": "800717297",
    "n": "AMATEUR ATHLETIC UNION OF THE UNITED STATES INC",
    "a": "2007 Central Ave",
    "l": "Memphis TN 38104",
    "cs": [
      7
    ],
    "f": 35
  },
  {
    "lg": -89.648939,
    "lt": 35.066971,
    "t": "ALPHA HOUSE",
    "id": "621827995",
    "i": "621827995",
    "n": "ALPHA HOUSE",
    "a": "972 N 7TH ST",
    "l": "MEMPHIS TN 38017",
    "cs": [
      1
    ],
    "f": 35
  },
  {
    "lg": -86.808023,
    "lt": 36.177714,
    "t": "ALPHA OMEGA ALPHA HONOR MEDICAL SOCIETY",
    "id": "626073904",
    "i": "626073904",
    "n": "ALPHA OMEGA ALPHA HONOR MEDICAL SOCIETY",
    "a": "1005 DB Todd Blvd",
    "l": "Nashville TN 37208",
    "cs": [
      10
    ],
    "f": 36,
    "u": "http://www.alphaomegaalph.org/meharry.html"
  },
  {
    "lg": -87.334932,
    "lt": 36.522633,
    "t": "AMERICA AGAINST DRUGS",
    "id": "621843951",
    "i": "621843951",
    "n": "AMERICA AGAINST DRUGS",
    "a": "2053 B Wilma Rudolph",
    "l": "Clarksville TN 37040",
    "cs": [
      51
    ],
    "f": 36,
    "u": "https://www.cseyouthsports.com/"
  },
  {
    "lg": -84.290549,
    "lt": 35.966483,
    "t": "ALTRUSA INTERNATIONAL FOUNDATION INC",
    "id": "621619212",
    "i": "621619212",
    "n": "ALTRUSA INTERNATIONAL FOUNDATION INC",
    "a": "PO Box5763",
    "l": "Oak Ridge TN 37830",
    "cs": [
      100
    ],
    "f": 35
  },
  {
    "lg": -89.799331,
    "lt": 35.084827,
    "t": "ALTERATION SPECIALTY SCHOOL",
    "id": "882397929",
    "i": "882397929",
    "n": "ALTERATION SPECIALTY SCHOOL",
    "a": "2219 S Germantown Rd ste C",
    "l": "memphis TN 38138",
    "cs": [
      5
    ],
    "u": "alterationspecialty.com",
    "f": 35
  },
  {
    "lg": -86.69553,
    "lt": 36.253847,
    "t": "AMATEUR ATHLETIC UNION OF THE UNITED STATES",
    "id": "264256224",
    "i": "264256224",
    "n": "AMATEUR ATHLETIC UNION OF THE UNITED STATES",
    "a": "1708 Cumberland Station Blvd",
    "l": "Madison TN 37115",
    "cs": [
      7
    ],
    "f": 36
  },
  {
    "lg": -86.723711,
    "lt": 36.067234,
    "t": "AMERICAN COLLEGE OF HEALTHCARE EXECUTIVES",
    "id": "320132513",
    "i": "320132513",
    "n": "AMERICAN COLLEGE OF HEALTHCARE EXECUTIVES",
    "a": "5041 Meta Drive",
    "l": "Nashville TN 37211",
    "cs": [
      5,
      10
    ],
    "f": 36,
    "u": "https://achemt.org/"
  },
  {
    "lg": -85.433312,
    "lt": 36.187107,
    "t": "AMATEUR ATHLETIC UNION OF THE UNITED STATES",
    "id": "113734740",
    "i": "113734740",
    "n": "AMATEUR ATHLETIC UNION OF THE UNITED STATES",
    "a": "165 E Whitehall",
    "l": "Cookeville TN 38506",
    "cs": [
      7
    ],
    "f": 36,
    "u": "www.cookevilleyouthwrestling.com"
  },
  {
    "lg": -86.793127,
    "lt": 36.068447,
    "t": "12 WOMEN FOUNDATION INC",
    "id": "621870480",
    "i": "621870480",
    "n": "12 WOMEN FOUNDATION INC",
    "a": "5057 Kingsview Court",
    "l": "Nashville TN 37220",
    "cs": [
      100
    ],
    "f": 36
  },
  {
    "lg": -85.180301,
    "lt": 35.0976,
    "t": "AMANDA GODIN CANCER FOUNDATION",
    "id": "475024813",
    "i": "475024813",
    "n": "AMANDA GODIN CANCER FOUNDATION",
    "a": "3782 KINGS RD",
    "l": "CHATTANOOGA TN 37416",
    "cs": [
      100
    ],
    "f": 35
  },
  {
    "lg": -89.760016,
    "lt": 35.13851,
    "t": "AMANA COMMUNITY SERVICES",
    "id": "851746710",
    "i": "851746710",
    "n": "AMANA COMMUNITY SERVICES",
    "a": "441 Bruins Trce",
    "l": "Memphis TN 38018",
    "cs": [
      42
    ],
    "f": 35
  },
  {
    "lg": -89.848589,
    "lt": 35.238915,
    "t": "AMATEUR ATHLETIC UNION OF THE UNITED STATES",
    "id": "844211971",
    "i": "844211971",
    "n": "AMATEUR ATHLETIC UNION OF THE UNITED STATES",
    "a": "4526 Tall Meadow cove",
    "l": "Bartlett TN 38135",
    "cs": [
      7
    ],
    "f": 35
  },
  {
    "lg": -86.481794,
    "lt": 36.180589,
    "t": "AMATEUR ATHLETIC UNION OF THE UNITED STATES INC",
    "id": "832981993",
    "i": "832981993",
    "n": "AMATEUR ATHLETIC UNION OF THE UNITED STATES INC",
    "a": "110 SE Springdale Drive",
    "l": "Mount Juliet TN 37122",
    "cs": [
      7
    ],
    "f": 36
  },
  {
    "lg": -86.924482,
    "lt": 35.811405,
    "t": "AMATEUR ATHLETIC UNION OF THE UNITED STATES",
    "id": "471776336",
    "i": "471776336",
    "n": "AMATEUR ATHLETIC UNION OF THE UNITED STATES",
    "a": "1776 Declaration Way",
    "l": "Thompsons Station TN 37179",
    "cs": [
      7
    ],
    "f": 35
  },
  {
    "lg": -82.208744,
    "lt": 36.460339,
    "t": "AMATEUR ATHLETIC UNION OF THE UNITED STATES",
    "id": "471853368",
    "i": "471853368",
    "n": "AMATEUR ATHLETIC UNION OF THE UNITED STATES",
    "a": "1017 Beaver Creek Rd",
    "l": "Bluff City TN 37618",
    "cs": [
      7
    ],
    "f": 36
  },
  {
    "lg": -85.226165,
    "lt": 35.028764,
    "t": "AMATEUR ATHLETIC UNION OF THE UNITED STATES",
    "id": "320337552",
    "i": "320337552",
    "n": "AMATEUR ATHLETIC UNION OF THE UNITED STATES",
    "a": "9241 Shay Cv",
    "l": "Chattanooga TN 37411",
    "cs": [
      7
    ],
    "f": 35
  },
  {
    "lg": -82.137118,
    "lt": 36.377345,
    "t": "AMATEUR ATHLETIC UNION OF THE UNITED STATES",
    "id": "364772813",
    "i": "364772813",
    "n": "AMATEUR ATHLETIC UNION OF THE UNITED STATES",
    "a": "135 Aviation Drive",
    "l": "Elizabethton TN 37643",
    "cs": [
      7
    ],
    "f": 36
  },
  {
    "lg": -86.607922,
    "lt": 36.339969,
    "t": "AMATEUR ATHLETIC UNION OF THE UNITED STATES",
    "id": "471674164",
    "i": "471674164",
    "n": "AMATEUR ATHLETIC UNION OF THE UNITED STATES",
    "a": "1233B Jenkins Lane",
    "l": "Hendersonville TN 37075",
    "cs": [
      7
    ],
    "u": "SECONDBASE.ORG",
    "f": 36
  },
  {
    "lg": -86.898124,
    "lt": 35.719838,
    "t": "AMATEUR ATHLETIC UNION OF THE UNITED STATES INC",
    "id": "871671124",
    "i": "871671124",
    "n": "AMATEUR ATHLETIC UNION OF THE UNITED STATES INC",
    "a": "PO Box 483",
    "l": "Spring Hill TN 37174",
    "cs": [
      7
    ],
    "f": 35,
    "u": "skeetersbaseballclub.com"
  },
  {
    "lg": -89.926689,
    "lt": 35.224574,
    "t": "AMATEUR ATHLETIC UNION OF THE UNITED STATES",
    "id": "320399996",
    "i": "320399996",
    "n": "AMATEUR ATHLETIC UNION OF THE UNITED STATES",
    "a": "4302 N Grand Cedar Lane",
    "l": "Memphis TN 38128",
    "cs": [
      7
    ],
    "f": 35,
    "u": "Teamtoughclassic.com"
  },
  {
    "lg": -86.656722,
    "lt": 36.108666,
    "t": "AMATEUR ATHLETIC UNIONS OF THE US INC",
    "id": "383914682",
    "i": "383914682",
    "n": "AMATEUR ATHLETIC UNIONS OF THE US INC",
    "a": "208 Loxley Lane",
    "l": "Murfreesboro TN 37217",
    "cs": [
      7
    ],
    "f": 36,
    "u": "www.leaguelineup.com/nashvillejazz"
  },
  {
    "lg": -83.987225,
    "lt": 35.791709,
    "t": "AMATEUR ATHLETIC UNION OF THE UNITED STATES",
    "id": "020811644",
    "i": "020811644",
    "n": "AMATEUR ATHLETIC UNION OF THE UNITED STATES",
    "a": "1721 Peppertree Drive",
    "l": "Alcoa TN 37701",
    "cs": [
      7
    ],
    "f": 35,
    "u": "http://www.alcoacityschoolsfoundation.org/"
  },
  {
    "lg": -86.580895,
    "lt": 35.166452,
    "t": "AMATEUR ATHLETIC UNION OF THE UNITED STATES",
    "id": "462029732",
    "i": "462029732",
    "n": "AMATEUR ATHLETIC UNION OF THE UNITED STATES",
    "a": "P O Box 1092",
    "l": "Fayetteville TN 37334",
    "cs": [
      7
    ],
    "f": 35
  },
  {
    "lg": -85.407828,
    "lt": 35.120403,
    "t": "AMATEUR ATHLETIC UNION OF THE UNITED STATES",
    "id": "453909101",
    "i": "453909101",
    "n": "AMATEUR ATHLETIC UNION OF THE UNITED STATES",
    "a": "832 Runyan Drive",
    "l": "Chattanooga TN 37405",
    "cs": [
      7
    ],
    "u": "thealicefund.org",
    "f": 35
  },
  {
    "lg": -89.759757,
    "lt": 35.411411,
    "t": "AMATEUR ATHLETIC UNION OF THE UNITED STATES",
    "id": "270117747",
    "i": "270117747",
    "n": "AMATEUR ATHLETIC UNION OF THE UNITED STATES",
    "a": "464 Colton Ridge Lane",
    "l": "Atoka TN 38004",
    "cs": [
      7
    ],
    "f": 35
  },
  {
    "lg": -86.834803,
    "lt": 36.29888,
    "t": "AMATEUR ATHLETIC UNION OF THE UNITED STATES",
    "id": "800564536",
    "i": "800564536",
    "n": "AMATEUR ATHLETIC UNION OF THE UNITED STATES",
    "a": "555 Hickory Hills Blvd",
    "l": "Whites Creek TN 37189",
    "cs": [
      7
    ],
    "f": 36
  },
  {
    "lg": -82.498988,
    "lt": 36.520428,
    "t": "AMERICAN COLLEGE OF GENERAL MEDICINE INC",
    "id": "541892549",
    "i": "541892549",
    "n": "AMERICAN COLLEGE OF GENERAL MEDICINE INC",
    "a": "4407 Glen Eden Road",
    "l": "kingsport TN 37664",
    "cs": [
      5,
      10
    ],
    "f": 36,
    "u": "alespto.com"
  },
  {
    "lg": -85.063804,
    "lt": 35.115688,
    "t": "AMATEUR ATHLETIC UNION OF THE UNITED STATES INC",
    "id": "843068761",
    "i": "843068761",
    "n": "AMATEUR ATHLETIC UNION OF THE UNITED STATES INC",
    "a": "9241 Shay Cove",
    "l": "Ooltewah TN 37363",
    "cs": [
      7
    ],
    "u": "bigtnoles@gmail.com",
    "f": 35
  },
  {
    "lg": -86.656722,
    "lt": 36.108666,
    "t": "AMATEUR ATHLETIC UNIONS OF THE US INC",
    "id": "383914682",
    "i": "383914682",
    "n": "AMATEUR ATHLETIC UNIONS OF THE US INC",
    "a": "208 Loxley Lane",
    "l": "Murfreesboro TN 37217",
    "cs": [
      7
    ],
    "f": 36,
    "u": "www.leaguelineup.com/nashvillejazz"
  },
  {
    "lg": -87.237235,
    "lt": 36.489761,
    "t": "AMERICAN COLLEGE OF NURSE-MIDWIVES",
    "id": "452588276",
    "i": "452588276",
    "n": "AMERICAN COLLEGE OF NURSE-MIDWIVES",
    "a": "855 Iron Wood Circle",
    "l": "Clarksville TN 37043",
    "cs": [
      5
    ],
    "f": 36
  },
  {
    "lg": -82.45718,
    "lt": 36.402425,
    "t": "AMATEUR ATHLETIC UNION OF THE UNITED STATES",
    "id": "743166985",
    "i": "743166985",
    "n": "AMATEUR ATHLETIC UNION OF THE UNITED STATES",
    "a": "145 BENTWOOD LANE",
    "l": "GRAY TN 37615",
    "cs": [
      7
    ],
    "f": 36
  },
  {
    "lg": -86.785062,
    "lt": 35.999288,
    "t": "AMERICAN HEALTH DECISIONS INC",
    "id": "223019027",
    "i": "223019027",
    "n": "AMERICAN HEALTH DECISIONS INC",
    "a": "9302 Grist Mill Ct",
    "l": "Brentwood TN 37027",
    "cs": [
      10
    ],
    "f": 35,
    "u": "https://masshealthdecisions.org/american-health-decisions/"
  },
  {
    "lg": -89.932532,
    "lt": 35.032631,
    "t": "AMATEUR ATHLETIC UNION OV THE UNITED STATES INC",
    "id": "471729130",
    "i": "471729130",
    "n": "AMATEUR ATHLETIC UNION OV THE UNITED STATES INC",
    "a": "2840 Churchill street",
    "l": "Memphis TN 38118",
    "cs": [
      7
    ],
    "f": 35
  },
  {
    "lg": -86.801254,
    "lt": 36.133877,
    "t": "AMATEUR ATHLETIC UNION OF THE UNITED STATES INC",
    "id": "900925400",
    "i": "900925400",
    "n": "AMATEUR ATHLETIC UNION OF THE UNITED STATES INC",
    "a": "2512 Barton Ave",
    "l": "Nashville TN 37212",
    "cs": [
      7
    ],
    "f": 36,
    "u": "nashvilleyouthathletics.org"
  },
  {
    "lg": -82.365576,
    "lt": 36.524578,
    "t": "AMATEUR ATHLETIC UNION OF THE UNITED STATES INC",
    "id": "460590026",
    "i": "460590026",
    "n": "AMATEUR ATHLETIC UNION OF THE UNITED STATES INC",
    "a": "623 cole hollow road",
    "l": "kingsport TN 37617",
    "cs": [
      7
    ],
    "f": 36
  },
  {
    "lg": -86.785062,
    "lt": 35.999288,
    "t": "AMERICAN HEALTH DECISIONS INC",
    "id": "223019027",
    "i": "223019027",
    "n": "AMERICAN HEALTH DECISIONS INC",
    "a": "9302 Grist Mill Ct",
    "l": "Brentwood TN 37027",
    "cs": [
      10
    ],
    "f": 35,
    "u": "https://masshealthdecisions.org/american-health-decisions/"
  },
  {
    "lg": -87.135932,
    "lt": 35.990876,
    "t": "AMATEUR ATHLETIC UNION OF THE UNITED STATES INC",
    "id": "464276670",
    "i": "464276670",
    "n": "AMATEUR ATHLETIC UNION OF THE UNITED STATES INC",
    "a": "7302 Allans Ridge Ln",
    "l": "Fairview TN 37062",
    "cs": [
      7
    ],
    "f": 35
  },
  {
    "lg": -89.856938,
    "lt": 35.01365,
    "t": "AMATEUR ATHLETIC UNION OF THE UNITED STATES INC",
    "id": "465072195",
    "i": "465072195",
    "n": "AMATEUR ATHLETIC UNION OF THE UNITED STATES INC",
    "a": "4451 Kayla Cove",
    "l": "Memphis TN 38141",
    "cs": [
      7
    ],
    "u": "leaguelineup.com/memphisdream",
    "f": 35
  },
  {
    "lg": -86.898124,
    "lt": 35.719838,
    "t": "AMATEUR ATHLETIC UNION OF THE UNITED STATES INC",
    "id": "871671124",
    "i": "871671124",
    "n": "AMATEUR ATHLETIC UNION OF THE UNITED STATES INC",
    "a": "PO Box 483",
    "l": "Spring Hill TN 37174",
    "cs": [
      7
    ],
    "f": 35,
    "u": "skeetersbaseballclub.com"
  },
  {
    "lg": -86.723711,
    "lt": 36.067234,
    "t": "AMERICAN COLLEGE OF HEALTHCARE EXECUTIVES",
    "id": "320132513",
    "i": "320132513",
    "n": "AMERICAN COLLEGE OF HEALTHCARE EXECUTIVES",
    "a": "5041 Meta Drive",
    "l": "Nashville TN 37211",
    "cs": [
      5,
      10
    ],
    "f": 36,
    "u": "https://achemt.org/"
  },
  {
    "lg": -86.801254,
    "lt": 36.133877,
    "t": "AMATEUR ATHLETIC UNION OF THE UNITED STATES INC",
    "id": "900925400",
    "i": "900925400",
    "n": "AMATEUR ATHLETIC UNION OF THE UNITED STATES INC",
    "a": "2512 Barton Ave",
    "l": "Nashville TN 37212",
    "cs": [
      7
    ],
    "f": 36,
    "u": "nashvilleyouthathletics.org"
  },
  {
    "lg": -86.774283,
    "lt": 36.106735,
    "t": "AMERICAN INNS OF COURT FOUNDATION",
    "id": "621437201",
    "i": "621437201",
    "n": "AMERICAN INNS OF COURT FOUNDATION",
    "a": "4013 Armory Oaks Dr",
    "l": "Nashville TN 37204",
    "cs": [
      11,
      100
    ],
    "f": 36,
    "u": "adoptionhopefoundation.org"
  },
  {
    "lg": -89.862806,
    "lt": 35.053329,
    "t": "AMATEUR ATHLETIC UNION OF THE UNITED STATES INC",
    "id": "474650142",
    "i": "474650142",
    "n": "AMATEUR ATHLETIC UNION OF THE UNITED STATES INC",
    "a": "2883 S Mendenhall Rd STE 5",
    "l": "Memphis TN 38115",
    "cs": [
      7
    ],
    "f": 35,
    "u": "veteranslktraining.com"
  },
  {
    "lg": -86.481794,
    "lt": 36.180589,
    "t": "AMATEUR ATHLETIC UNION OF THE UNITED STATES INC",
    "id": "832981993",
    "i": "832981993",
    "n": "AMATEUR ATHLETIC UNION OF THE UNITED STATES INC",
    "a": "110 SE Springdale Drive",
    "l": "Mount Juliet TN 37122",
    "cs": [
      7
    ],
    "f": 36
  },
  {
    "lg": -86.318932,
    "lt": 35.881943,
    "t": "AMERICAN INNS OF COURT FOUNDATION",
    "id": "030529904",
    "i": "030529904",
    "n": "AMERICAN INNS OF COURT FOUNDATION",
    "a": "119 E Main St",
    "l": "Murfreesboro TN 37130",
    "cs": [
      11,
      100
    ],
    "f": 35,
    "u": "www.tnstarz.com"
  },
  {
    "lg": -86.632515,
    "lt": 36.052231,
    "t": "AMERICAN ENTERTAINMENT WORKS INC",
    "id": "462353020",
    "i": "462353020",
    "n": "AMERICAN ENTERTAINMENT WORKS INC",
    "a": "3400 Roundwood Forest Dr",
    "l": "Antioch TN 37013",
    "cs": [
      6
    ],
    "f": 36,
    "u": "https://www.aeworks.org"
  },
  {
    "lg": -84.002156,
    "lt": 35.979767,
    "t": "AMATEUR ATHLETIC UNIONS OF THE US INC",
    "id": "463424700",
    "i": "463424700",
    "n": "AMATEUR ATHLETIC UNIONS OF THE US INC",
    "a": "2031 Torch Light Lane",
    "l": "Knoxville TN 37921",
    "cs": [
      7
    ],
    "f": 35
  },
  {
    "lg": -86.898124,
    "lt": 35.719838,
    "t": "AMATEUR ATHLETIC UNION OF THE UNITED STATES INC",
    "id": "871671124",
    "i": "871671124",
    "n": "AMATEUR ATHLETIC UNION OF THE UNITED STATES INC",
    "a": "PO Box 483",
    "l": "Spring Hill TN 37174",
    "cs": [
      7
    ],
    "f": 35,
    "u": "skeetersbaseballclub.com"
  },
  {
    "lg": -82.09404,
    "lt": 36.549613,
    "t": "AMATEUR ATHLETIC UNIONS OF THE US INC",
    "id": "463201155",
    "i": "463201155",
    "n": "AMATEUR ATHLETIC UNIONS OF THE US INC",
    "a": "1362 Bullock Hollow Road",
    "l": "Bristol TN 37620",
    "cs": [
      7
    ],
    "u": "theaddictsfamily.org",
    "f": 36
  },
  {
    "lg": -90.003728,
    "lt": 35.132549,
    "t": "AMATEUR ATHLETIC UNION OF THE UNITED STATES INC",
    "id": "800717297",
    "i": "800717297",
    "n": "AMATEUR ATHLETIC UNION OF THE UNITED STATES INC",
    "a": "2007 Central Ave",
    "l": "Memphis TN 38104",
    "cs": [
      7
    ],
    "f": 35
  },
  {
    "lg": -89.856938,
    "lt": 35.01365,
    "t": "AMATEUR ATHLETIC UNION OF THE UNITED STATES INC",
    "id": "465072195",
    "i": "465072195",
    "n": "AMATEUR ATHLETIC UNION OF THE UNITED STATES INC",
    "a": "4451 Kayla Cove",
    "l": "Memphis TN 38141",
    "cs": [
      7
    ],
    "u": "leaguelineup.com/memphisdream",
    "f": 35
  },
  {
    "lg": -86.412877,
    "lt": 35.2042,
    "t": "AMATEUR ATHLETIC UNION OF THE UNITED STATES INC",
    "id": "465191275",
    "i": "465191275",
    "n": "AMATEUR ATHLETIC UNION OF THE UNITED STATES INC",
    "a": "447 Preston Ridge Rd",
    "l": "Mulberry TN 37359",
    "cs": [
      7
    ],
    "f": 35
  },
  {
    "lg": -89.845385,
    "lt": 35.079511,
    "t": "AMERICAN IMMIGRATION LAWYERS ASSOCIATION MID-SOUTH CHAPTER",
    "id": "911911189",
    "i": "911911189",
    "n": "AMERICAN IMMIGRATION LAWYERS ASSOCIATION MID-SOUTH CHAPTER",
    "a": "1028 OAKHAVEN ROAD",
    "l": "MEMPHIS TN 38119",
    "cs": [
      53,
      11
    ],
    "f": 35
  },
  {
    "lg": -86.954138,
    "lt": 35.884862,
    "t": "AMERICAN INNS OF COURT FOUNDATION",
    "id": "621699920",
    "i": "621699920",
    "n": "AMERICAN INNS OF COURT FOUNDATION",
    "a": "125 Fourth Ave S",
    "l": "Franklin TN 37064",
    "cs": [
      11,
      100
    ],
    "f": 35,
    "u": "www.mambabaseball.com"
  },
  {
    "lg": -87.442911,
    "lt": 36.077159,
    "t": "AMATEUR ATHLETIC UNION OF THE UNITED STATES INC",
    "id": "461185771",
    "i": "461185771",
    "n": "AMATEUR ATHLETIC UNION OF THE UNITED STATES INC",
    "a": "410 BELLWODD DR",
    "l": "DICKSON TN 37055",
    "cs": [
      7
    ],
    "u": "www.allenheritagefoundation.org",
    "f": 36
  },
  {
    "lg": -89.788637,
    "lt": 35.025913,
    "t": "AMATEUR ATHLETIC UNION OF THE UNITED STATES INC",
    "id": "800303060",
    "i": "800303060",
    "n": "AMATEUR ATHLETIC UNION OF THE UNITED STATES INC",
    "a": "5378 Philgrove Way",
    "l": "Memphis TN 38125",
    "cs": [
      7
    ],
    "u": "www.2911youthcenter.org",
    "f": 35
  },
  {
    "lg": -86.318932,
    "lt": 35.881943,
    "t": "AMERICAN INNS OF COURT FOUNDATION",
    "id": "030529904",
    "i": "030529904",
    "n": "AMERICAN INNS OF COURT FOUNDATION",
    "a": "119 E Main St",
    "l": "Murfreesboro TN 37130",
    "cs": [
      11,
      100
    ],
    "f": 35,
    "u": "www.tnstarz.com"
  },
  {
    "lg": -84.054192,
    "lt": 35.826849,
    "t": "AMATEUR ATHLETIC UNION OF THE UNITED STATES INC",
    "id": "320194021",
    "i": "320194021",
    "n": "AMATEUR ATHLETIC UNION OF THE UNITED STATES INC",
    "a": "2559 Robinson Drive",
    "l": "Louisville TN 37777",
    "cs": [
      7
    ],
    "f": 35,
    "u": "www.easttnair.com"
  },
  {
    "lg": -89.519208,
    "lt": 36.207086,
    "t": "AMATEUR ATHLETIC UNION OF THE UNITED STATES INC",
    "id": "113740444",
    "i": "113740444",
    "n": "AMATEUR ATHLETIC UNION OF THE UNITED STATES INC",
    "a": "305 Monk Argo Rd",
    "l": "Ridgely TN 38080",
    "cs": [
      7
    ],
    "f": 36
  },
  {
    "lg": -86.318932,
    "lt": 35.881943,
    "t": "AMERICAN INNS OF COURT FOUNDATION",
    "id": "030529904",
    "i": "030529904",
    "n": "AMERICAN INNS OF COURT FOUNDATION",
    "a": "119 E Main St",
    "l": "Murfreesboro TN 37130",
    "cs": [
      11,
      100
    ],
    "f": 35,
    "u": "www.tnstarz.com"
  },
  {
    "lg": -86.489369,
    "lt": 35.784183,
    "t": "AMATEUR ATHLETIC UNION OF THE UNITED STATES INC",
    "id": "352572271",
    "i": "352572271",
    "n": "AMATEUR ATHLETIC UNION OF THE UNITED STATES INC",
    "a": "4958 CLOVER HILL DRIVE",
    "l": "MURFREESBORO TN 37128",
    "cs": [
      7
    ],
    "f": 35,
    "u": "abovetherimgym.com"
  },
  {
    "lg": -87.334932,
    "lt": 36.522633,
    "t": "AMERICA AGAINST DRUGS",
    "id": "621843951",
    "i": "621843951",
    "n": "AMERICA AGAINST DRUGS",
    "a": "2053 B Wilma Rudolph",
    "l": "Clarksville TN 37040",
    "cs": [
      51
    ],
    "f": 36,
    "u": "https://www.cseyouthsports.com/"
  },
  {
    "lg": -89.628878,
    "lt": 35.562373,
    "t": "AMATEUR ATHLETIC UNION OF THE UNITED STATES INC",
    "id": "831884098",
    "i": "831884098",
    "n": "AMATEUR ATHLETIC UNION OF THE UNITED STATES INC",
    "a": "574 Fairway Dr",
    "l": "Covington TN 38019",
    "cs": [
      7
    ],
    "f": 35
  },
  {
    "lg": -89.951498,
    "lt": 35.346626,
    "t": "AMATEUR ATHLETIC UNION OF THE UNITED STATES INC",
    "id": "812098789",
    "i": "812098789",
    "n": "AMATEUR ATHLETIC UNION OF THE UNITED STATES INC",
    "a": "6890 Alderwood Dr S",
    "l": "Millington TN 38053",
    "cs": [
      7
    ],
    "f": 35
  },
  {
    "lg": -86.318932,
    "lt": 35.881943,
    "t": "AMERICAN INNS OF COURT FOUNDATION",
    "id": "030529904",
    "i": "030529904",
    "n": "AMERICAN INNS OF COURT FOUNDATION",
    "a": "119 E Main St",
    "l": "Murfreesboro TN 37130",
    "cs": [
      11,
      100
    ],
    "f": 35,
    "u": "www.tnstarz.com"
  },
  {
    "lg": -87.197891,
    "lt": 36.144149,
    "t": "AMATEUR ATHLETIC UNION OF THE UNITED STATES INC",
    "id": "811830555",
    "i": "811830555",
    "n": "AMATEUR ATHLETIC UNION OF THE UNITED STATES INC",
    "a": "104 Marty Ln",
    "l": "White Bluff TN 37187",
    "cs": [
      7
    ],
    "f": 36
  },
  {
    "lg": -86.775969,
    "lt": 36.233774,
    "t": "AMATEUR ATHLETIC UNION OF THE UNITED STATES INC",
    "id": "461683218",
    "i": "461683218",
    "n": "AMATEUR ATHLETIC UNION OF THE UNITED STATES INC",
    "a": "3216 Sennadale Ln",
    "l": "Nashville TN 37207",
    "cs": [
      7
    ],
    "u": "www.tbftrailblazers.com",
    "f": 36
  },
  {
    "lg": -86.67641,
    "lt": 35.915276,
    "t": "AMATEUR ATHLETIC UNION OF THE UNITED STATES INC",
    "id": "811354199",
    "i": "811354199",
    "n": "AMATEUR ATHLETIC UNION OF THE UNITED STATES INC",
    "a": "2010 Pulley Place",
    "l": "Nolensville TN 37135",
    "cs": [
      7
    ],
    "f": 35,
    "u": "http://www.frontrunnerstrackclub.com/"
  },
  {
    "lg": -89.760052,
    "lt": 35.181507,
    "t": "AMATEUR ATHLETIC UNION OF THE UNITED STATES INC YOUTH TRACK",
    "id": "465697020",
    "i": "465697020",
    "n": "AMATEUR ATHLETIC UNION OF THE UNITED STATES INC YOUTH TRACK",
    "a": "8960 Johnston",
    "l": "MEMPHIS TN 38016",
    "cs": [
      7
    ],
    "f": 35
  },
  {
    "lg": -86.442648,
    "lt": 35.932526,
    "t": "AMATEUR ATHLETIC UNION OF THE UNITED STATES INC",
    "id": "833734789",
    "i": "833734789",
    "n": "AMATEUR ATHLETIC UNION OF THE UNITED STATES INC",
    "a": "PO Box 12111",
    "l": "Murfreesboro TN 37129",
    "cs": [
      7
    ],
    "f": 35,
    "u": "www.mborojrpats.com"
  },
  {
    "lg": -86.269244,
    "lt": 36.263852,
    "t": "AMATEUR ATHLETIC UNION OF THE UNITED STATES INC",
    "id": "475348729",
    "i": "475348729",
    "n": "AMATEUR ATHLETIC UNION OF THE UNITED STATES INC",
    "a": "514 Sheath Circle",
    "l": "Lebanon TN 37087",
    "cs": [
      7
    ],
    "u": "magenrae@gmail.com",
    "f": 36
  },
  {
    "lg": -86.318932,
    "lt": 35.881943,
    "t": "AMERICAN INNS OF COURT FOUNDATION",
    "id": "030529904",
    "i": "030529904",
    "n": "AMERICAN INNS OF COURT FOUNDATION",
    "a": "119 E Main St",
    "l": "Murfreesboro TN 37130",
    "cs": [
      11,
      100
    ],
    "f": 35,
    "u": "www.tnstarz.com"
  },
  {
    "lg": -88.853395,
    "lt": 35.588164,
    "t": "AMERICAN INNS OF COURT FOUNDATION",
    "id": "272030999",
    "i": "272030999",
    "n": "AMERICAN INNS OF COURT FOUNDATION",
    "a": "111 S Highland Avenue",
    "l": "Jackson TN 38301",
    "cs": [
      11,
      100
    ],
    "f": 35,
    "u": "https://www.americanmusicandhealing.org"
  },
  {
    "lg": -86.481794,
    "lt": 36.180589,
    "t": "AMATEUR ATHLETIC UNION OF THE UNITED STATES INC",
    "id": "832981993",
    "i": "832981993",
    "n": "AMATEUR ATHLETIC UNION OF THE UNITED STATES INC",
    "a": "110 SE Springdale Drive",
    "l": "Mount Juliet TN 37122",
    "cs": [
      7
    ],
    "f": 36
  },
  {
    "lg": -85.533285,
    "lt": 36.226045,
    "t": "13TH JUDICIAL DISTRICT RECOVERY COURTS SUPPORT FOUNDATION",
    "id": "821236472",
    "i": "821236472",
    "n": "13TH JUDICIAL DISTRICT RECOVERY COURTS SUPPORT FOUNDATION",
    "a": "18 NORTH MADISON AVENUE STE 100",
    "l": "COOKEVILLE TN 38501",
    "cs": [
      11,
      100
    ],
    "u": "cookevilleyouthwrestling.club",
    "f": 36
  },
  {
    "lg": -86.489369,
    "lt": 35.784183,
    "t": "AMATEUR ATHLETIC UNION OF THE UNITED STATES INC",
    "id": "352572271",
    "i": "352572271",
    "n": "AMATEUR ATHLETIC UNION OF THE UNITED STATES INC",
    "a": "4958 CLOVER HILL DRIVE",
    "l": "MURFREESBORO TN 37128",
    "cs": [
      7
    ],
    "f": 35,
    "u": "abovetherimgym.com"
  },
  {
    "lg": -88.768058,
    "lt": 35.701654,
    "t": "AMATEUR ATHLETIC UNION OF THE UNITED STATES INC",
    "id": "473240864",
    "i": "473240864",
    "n": "AMATEUR ATHLETIC UNION OF THE UNITED STATES INC",
    "a": "75 Avondale Cove",
    "l": "Jackson TN 38305",
    "cs": [
      7
    ],
    "u": "www.tnpridewest.com",
    "f": 35
  },
  {
    "lg": -87.334932,
    "lt": 36.522633,
    "t": "AMERICA AGAINST DRUGS",
    "id": "621843951",
    "i": "621843951",
    "n": "AMERICA AGAINST DRUGS",
    "a": "2053 B Wilma Rudolph",
    "l": "Clarksville TN 37040",
    "cs": [
      51
    ],
    "f": 36,
    "u": "https://www.cseyouthsports.com/"
  },
  {
    "lg": -86.785062,
    "lt": 35.999288,
    "t": "AMERICAN HEALTH DECISIONS INC",
    "id": "223019027",
    "i": "223019027",
    "n": "AMERICAN HEALTH DECISIONS INC",
    "a": "9302 Grist Mill Ct",
    "l": "Brentwood TN 37027",
    "cs": [
      10
    ],
    "f": 35,
    "u": "https://masshealthdecisions.org/american-health-decisions/"
  },
  {
    "lg": -86.775969,
    "lt": 36.233774,
    "t": "AMATEUR ATHLETIC UNION OF THE UNITED STATES INC",
    "id": "461683218",
    "i": "461683218",
    "n": "AMATEUR ATHLETIC UNION OF THE UNITED STATES INC",
    "a": "3216 Sennadale Ln",
    "l": "Nashville TN 37207",
    "cs": [
      7
    ],
    "u": "www.tbftrailblazers.com",
    "f": 36
  },
  {
    "lg": -84.100535,
    "lt": 35.860496,
    "t": "AMERICAN DOCTOR OF MEDICAL SCIENCE ASSOCIATION",
    "id": "832733866",
    "i": "832733866",
    "n": "AMERICAN DOCTOR OF MEDICAL SCIENCE ASSOCIATION",
    "a": "12223 Fredericksburg Blvd",
    "l": "Knoxville TN 37922",
    "cs": [
      10
    ],
    "f": 35
  },
  {
    "lg": -86.67641,
    "lt": 35.915276,
    "t": "AMATEUR ATHLETIC UNION OF THE UNITED STATES INC",
    "id": "811354199",
    "i": "811354199",
    "n": "AMATEUR ATHLETIC UNION OF THE UNITED STATES INC",
    "a": "2010 Pulley Place",
    "l": "Nolensville TN 37135",
    "cs": [
      7
    ],
    "f": 35,
    "u": "http://www.frontrunnerstrackclub.com/"
  },
  {
    "lg": -86.269244,
    "lt": 36.263852,
    "t": "AMATEUR ATHLETIC UNION OF THE UNITED STATES INC",
    "id": "475348729",
    "i": "475348729",
    "n": "AMATEUR ATHLETIC UNION OF THE UNITED STATES INC",
    "a": "514 Sheath Circle",
    "l": "Lebanon TN 37087",
    "cs": [
      7
    ],
    "u": "magenrae@gmail.com",
    "f": 36
  },
  {
    "lg": -86.221711,
    "lt": 36.596738,
    "t": "AMAZING GRACE MISSION OF SUMNER COUNTY INC",
    "id": "621768690",
    "i": "621768690",
    "n": "AMAZING GRACE MISSION OF SUMNER COUNTY INC",
    "a": "PO Box 164",
    "l": "Westmoreland TN 37186",
    "cs": [
      1
    ],
    "f": 36
  },
  {
    "lg": -84.879821,
    "lt": 35.232461,
    "t": "AMAZING GRACE CHRISTIAN FOUNDATION",
    "id": "261865524",
    "i": "261865524",
    "n": "AMAZING GRACE CHRISTIAN FOUNDATION",
    "a": "3653 Ozark St NW",
    "l": "Cleveland TN 37312",
    "cs": [
      100
    ],
    "f": 35
  },
  {
    "lg": -82.09404,
    "lt": 36.549613,
    "t": "AMATEUR ATHLETIC UNIONS OF THE US INC",
    "id": "463201155",
    "i": "463201155",
    "n": "AMATEUR ATHLETIC UNIONS OF THE US INC",
    "a": "1362 Bullock Hollow Road",
    "l": "Bristol TN 37620",
    "cs": [
      7
    ],
    "u": "theaddictsfamily.org",
    "f": 36
  },
  {
    "lg": -86.656722,
    "lt": 36.108666,
    "t": "AMATEUR ATHLETIC UNIONS OF THE US INC",
    "id": "383914682",
    "i": "383914682",
    "n": "AMATEUR ATHLETIC UNIONS OF THE US INC",
    "a": "208 Loxley Lane",
    "l": "Murfreesboro TN 37217",
    "cs": [
      7
    ],
    "f": 36,
    "u": "www.leaguelineup.com/nashvillejazz"
  },
  {
    "lg": -84.002156,
    "lt": 35.979767,
    "t": "AMATEUR ATHLETIC UNIONS OF THE US INC",
    "id": "463424700",
    "i": "463424700",
    "n": "AMATEUR ATHLETIC UNIONS OF THE US INC",
    "a": "2031 Torch Light Lane",
    "l": "Knoxville TN 37921",
    "cs": [
      7
    ],
    "f": 35
  },
  {
    "lg": -86.632515,
    "lt": 36.052231,
    "t": "AMERICAN ENTERTAINMENT WORKS INC",
    "id": "462353020",
    "i": "462353020",
    "n": "AMERICAN ENTERTAINMENT WORKS INC",
    "a": "3400 Roundwood Forest Dr",
    "l": "Antioch TN 37013",
    "cs": [
      6
    ],
    "f": 36,
    "u": "https://www.aeworks.org"
  },
  {
    "lg": -89.932532,
    "lt": 35.032631,
    "t": "AMATEUR ATHLETIC UNION OV THE UNITED STATES INC",
    "id": "471729130",
    "i": "471729130",
    "n": "AMATEUR ATHLETIC UNION OV THE UNITED STATES INC",
    "a": "2840 Churchill street",
    "l": "Memphis TN 38118",
    "cs": [
      7
    ],
    "f": 35
  },
  {
    "lg": -83.612571,
    "lt": 35.778007,
    "t": "AMATEUR ATHLETIC UNION OF THE US INC",
    "id": "853228243",
    "i": "853228243",
    "n": "AMATEUR ATHLETIC UNION OF THE US INC",
    "a": "1614 Riceland Dr",
    "l": "Sevierville TN 37862",
    "cs": [
      7
    ],
    "f": 35
  },
  {
    "lg": -83.47897,
    "lt": 35.865101,
    "t": "AMERICAN CAVY BREEDERS ASSOCIATION YOUTH SCHOLARSHIP",
    "id": "842019354",
    "i": "842019354",
    "n": "AMERICAN CAVY BREEDERS ASSOCIATION YOUTH SCHOLARSHIP",
    "a": "425 Ingle Hollow Rd",
    "l": "Sevierville TN 37876",
    "cs": [
      7,
      5,
      100
    ],
    "f": 35
  },
  {
    "lg": -89.760052,
    "lt": 35.181507,
    "t": "AMATEUR ATHLETIC UNION OF THE UNITED STATES INC YOUTH TRACK",
    "id": "465697020",
    "i": "465697020",
    "n": "AMATEUR ATHLETIC UNION OF THE UNITED STATES INC YOUTH TRACK",
    "a": "8960 Johnston",
    "l": "MEMPHIS TN 38016",
    "cs": [
      7
    ],
    "f": 35
  },
  {
    "lg": -85.063804,
    "lt": 35.115688,
    "t": "AMATEUR ATHLETIC UNION OF THE UNITED STATES INC",
    "id": "843068761",
    "i": "843068761",
    "n": "AMATEUR ATHLETIC UNION OF THE UNITED STATES INC",
    "a": "9241 Shay Cove",
    "l": "Ooltewah TN 37363",
    "cs": [
      7
    ],
    "u": "bigtnoles@gmail.com",
    "f": 35
  },
  {
    "lg": -85.223882,
    "lt": 36.493416,
    "t": "AMATEUR ATHLETIC UNION OF THE UNITED STATES INC",
    "id": "454167777",
    "i": "454167777",
    "n": "AMATEUR ATHLETIC UNION OF THE UNITED STATES INC",
    "a": "1258 HILL CEMETERY RD",
    "l": "MONROE TN 38573",
    "cs": [
      7
    ],
    "f": 36
  },
  {
    "lg": -86.775969,
    "lt": 36.233774,
    "t": "AMATEUR ATHLETIC UNION OF THE UNITED STATES INC",
    "id": "461683218",
    "i": "461683218",
    "n": "AMATEUR ATHLETIC UNION OF THE UNITED STATES INC",
    "a": "3216 Sennadale Ln",
    "l": "Nashville TN 37207",
    "cs": [
      7
    ],
    "u": "www.tbftrailblazers.com",
    "f": 36
  },
  {
    "lg": -86.898124,
    "lt": 35.719838,
    "t": "AMATEUR ATHLETIC UNION OF THE UNITED STATES INC",
    "id": "871671124",
    "i": "871671124",
    "n": "AMATEUR ATHLETIC UNION OF THE UNITED STATES INC",
    "a": "PO Box 483",
    "l": "Spring Hill TN 37174",
    "cs": [
      7
    ],
    "f": 35,
    "u": "skeetersbaseballclub.com"
  },
  {
    "lg": -86.559384,
    "lt": 36.022237,
    "t": "AMATEUR ATHLETIC UNION OF THE UNITED STATES INC",
    "id": "472135889",
    "i": "472135889",
    "n": "AMATEUR ATHLETIC UNION OF THE UNITED STATES INC",
    "a": "690 ALMONDWOOD PL",
    "l": "LA VERGNE TN 37086",
    "cs": [
      7
    ],
    "f": 36,
    "u": "WWW.RCTRACKCLUB.ORG"
  },
  {
    "lg": -86.731083,
    "lt": 36.179319,
    "t": "AMATEUR ATHLETIC UNION OF THE UNITED STATES INC",
    "id": "862858748",
    "i": "862858748",
    "n": "AMATEUR ATHLETIC UNION OF THE UNITED STATES INC",
    "a": "710 CLEO Miller Drive Apt-361",
    "l": "Nashville TN 37206",
    "cs": [
      7
    ],
    "u": "www.awaketn.org",
    "f": 36
  },
  {
    "lg": -89.755097,
    "lt": 35.079657,
    "t": "AMERICAN FINANCIAL OPPORTUNITY FOUNDATION",
    "id": "472460640",
    "i": "472460640",
    "n": "AMERICAN FINANCIAL OPPORTUNITY FOUNDATION",
    "a": "8825 Aldershot",
    "l": "Memphis TN 38139",
    "cs": [
      12,
      100
    ],
    "u": "www.aaictrust.org",
    "f": 35
  },
  {
    "lg": -86.670867,
    "lt": 36.162189,
    "t": "AMERICAN AIRLINES BNA RECREATION",
    "id": "621480112",
    "i": "621480112",
    "n": "AMERICAN AIRLINES BNA RECREATION",
    "a": "1 TERMINAL DR STE 401",
    "l": "NASHVILLE TN 37214",
    "cs": [
      7,
      9
    ],
    "f": 36
  },
  {
    "lg": -87.334932,
    "lt": 36.522633,
    "t": "AMERICA AGAINST DRUGS",
    "id": "621843951",
    "i": "621843951",
    "n": "AMERICA AGAINST DRUGS",
    "a": "2053 B Wilma Rudolph",
    "l": "Clarksville TN 37040",
    "cs": [
      51
    ],
    "f": 36,
    "u": "https://www.cseyouthsports.com/"
  },
  {
    "lg": -86.723711,
    "lt": 36.067234,
    "t": "AMERICAN COLLEGE OF HEALTHCARE EXECUTIVES",
    "id": "320132513",
    "i": "320132513",
    "n": "AMERICAN COLLEGE OF HEALTHCARE EXECUTIVES",
    "a": "5041 Meta Drive",
    "l": "Nashville TN 37211",
    "cs": [
      5,
      10
    ],
    "f": 36,
    "u": "https://achemt.org/"
  },
  {
    "lg": -89.845385,
    "lt": 35.079511,
    "t": "AMERICAN IMMIGRATION LAWYERS ASSOCIATION MID-SOUTH CHAPTER",
    "id": "911911189",
    "i": "911911189",
    "n": "AMERICAN IMMIGRATION LAWYERS ASSOCIATION MID-SOUTH CHAPTER",
    "a": "1028 OAKHAVEN ROAD",
    "l": "MEMPHIS TN 38119",
    "cs": [
      53,
      11
    ],
    "f": 35
  },
  {
    "lg": -89.6322,
    "lt": 35.183099,
    "t": "AMBASSADORS RECONCILIATION MISSION",
    "id": "621621860",
    "i": "621621860",
    "n": "AMBASSADORS RECONCILIATION MISSION",
    "a": "100 Randy Rd",
    "l": "Eads TN 38028",
    "cs": [
      1
    ],
    "f": 35
  },
  {
    "lg": -89.905344,
    "lt": 35.11518,
    "t": "AMERICAN COLLEGE OF DENTISTS INC",
    "id": "521384720",
    "i": "521384720",
    "n": "AMERICAN COLLEGE OF DENTISTS INC",
    "a": "961 Hiawatha St",
    "l": "Memphis TN 38117",
    "cs": [
      5
    ],
    "f": 35
  },
  {
    "lg": -83.47897,
    "lt": 35.865101,
    "t": "AMERICAN CAVY BREEDERS ASSOCIATION YOUTH SCHOLARSHIP",
    "id": "842019354",
    "i": "842019354",
    "n": "AMERICAN CAVY BREEDERS ASSOCIATION YOUTH SCHOLARSHIP",
    "a": "425 Ingle Hollow Rd",
    "l": "Sevierville TN 37876",
    "cs": [
      7,
      5,
      100
    ],
    "f": 35
  },
  {
    "lg": -82.9414,
    "lt": 36.424289,
    "t": "AMERICAN CAIRO ANIMAL RESCUE FOUNDATION",
    "id": "861291212",
    "i": "861291212",
    "n": "AMERICAN CAIRO ANIMAL RESCUE FOUNDATION",
    "a": "559 Shanks Gap Rd",
    "l": "Rogersville TN 37857",
    "cs": [
      100
    ],
    "f": 36
  },
  {
    "lg": -89.859879,
    "lt": 35.174957,
    "t": "AMERICAN FEDERATION OF GOVERNMENT EMPLOYEES",
    "id": "621056650",
    "i": "621056650",
    "n": "AMERICAN FEDERATION OF GOVERNMENT EMPLOYEES",
    "a": "1101 John A Denie Rd",
    "l": "Memphis TN 38134",
    "cs": [
      6
    ],
    "f": 35,
    "u": "www.local3731.org"
  },
  {
    "lg": -84.046043,
    "lt": 36.054314,
    "t": "AMERICAN COUNCIL OF WOMEN VETERANS",
    "id": "830770033",
    "i": "830770033",
    "n": "AMERICAN COUNCIL OF WOMEN VETERANS",
    "a": "7721 Norwich Road",
    "l": "Powell TN 37849",
    "cs": [
      16
    ],
    "f": 36
  },
  {
    "lg": -87.237235,
    "lt": 36.489761,
    "t": "AMERICAN COLLEGE OF NURSE-MIDWIVES",
    "id": "452588276",
    "i": "452588276",
    "n": "AMERICAN COLLEGE OF NURSE-MIDWIVES",
    "a": "855 Iron Wood Circle",
    "l": "Clarksville TN 37043",
    "cs": [
      5
    ],
    "f": 36
  },
  {
    "lg": -82.318108,
    "lt": 36.338162,
    "t": "AMERICAN COLLEGE OF HEALTHCARE EXECUTIVES",
    "id": "352223453",
    "i": "352223453",
    "n": "AMERICAN COLLEGE OF HEALTHCARE EXECUTIVES",
    "a": "1009 Lark Street",
    "l": "Johnson City TN 37601",
    "cs": [
      5,
      10
    ],
    "u": "2ndcenturyfoundation.org",
    "f": 36
  },
  {
    "lg": -86.723711,
    "lt": 36.067234,
    "t": "AMERICAN COLLEGE OF HEALTHCARE EXECUTIVES",
    "id": "320132513",
    "i": "320132513",
    "n": "AMERICAN COLLEGE OF HEALTHCARE EXECUTIVES",
    "a": "5041 Meta Drive",
    "l": "Nashville TN 37211",
    "cs": [
      5,
      10
    ],
    "f": 36,
    "u": "https://achemt.org/"
  },
  {
    "lg": -82.498988,
    "lt": 36.520428,
    "t": "AMERICAN COLLEGE OF GENERAL MEDICINE INC",
    "id": "541892549",
    "i": "541892549",
    "n": "AMERICAN COLLEGE OF GENERAL MEDICINE INC",
    "a": "4407 Glen Eden Road",
    "l": "kingsport TN 37664",
    "cs": [
      5,
      10
    ],
    "f": 36,
    "u": "alespto.com"
  },
  {
    "lg": -86.803372,
    "lt": 36.196931,
    "t": "AMERICAN FEDERATION OF GOVERNMENT EMPLOYEES AFGE LOCAL 3980",
    "id": "900839566",
    "i": "900839566",
    "n": "AMERICAN FEDERATION OF GOVERNMENT EMPLOYEES AFGE LOCAL 3980",
    "a": "235 Cumberland Bend Dr Suite 200",
    "l": "Nashville TN 37228",
    "cs": [
      6
    ],
    "f": 36
  },
  {
    "lg": -88.876526,
    "lt": 36.456709,
    "t": "AMERICAN FEDERATION OF GOVERNMENT EMPLOYEES",
    "id": "626081018",
    "i": "626081018",
    "n": "AMERICAN FEDERATION OF GOVERNMENT EMPLOYEES",
    "a": "204 Old Pierce Rd",
    "l": "South Fulton TN 38257",
    "cs": [
      6
    ],
    "f": 36
  },
  {
    "lg": -85.273662,
    "lt": 35.027912,
    "t": "AMERICAN FEDERATION OF GOVERNMENT EMPLOYEES",
    "id": "626046729",
    "i": "626046729",
    "n": "AMERICAN FEDERATION OF GOVERNMENT EMPLOYEES",
    "a": "431 North Hickory St",
    "l": "Chattanooga TN 37404",
    "cs": [
      6
    ],
    "f": 35
  },
  {
    "lg": -86.790618,
    "lt": 36.149614,
    "t": "AMERICAN FEDERATION OF GOVERNMENT EMPLOYEES",
    "id": "626063187",
    "i": "626063187",
    "n": "AMERICAN FEDERATION OF GOVERNMENT EMPLOYEES",
    "a": "110 9th Avenue South",
    "l": "Nashville TN 37203",
    "cs": [
      6
    ],
    "f": 36
  },
  {
    "lg": -89.859879,
    "lt": 35.174957,
    "t": "AMERICAN FEDERATION OF GOVERNMENT EMPLOYEES",
    "id": "621056650",
    "i": "621056650",
    "n": "AMERICAN FEDERATION OF GOVERNMENT EMPLOYEES",
    "a": "1101 John A Denie Rd",
    "l": "Memphis TN 38134",
    "cs": [
      6
    ],
    "f": 35,
    "u": "www.local3731.org"
  },
  {
    "lg": -84.321728,
    "lt": 35.840726,
    "t": "AMERICAN FEDERATION OF GOVERNMENT EMPLOYEES",
    "id": "237122528",
    "i": "237122528",
    "n": "AMERICAN FEDERATION OF GOVERNMENT EMPLOYEES",
    "a": "702 Tate Coley Rd",
    "l": "Lenoir City TN 37771",
    "cs": [
      6
    ],
    "f": 35
  },
  {
    "lg": -88.926409,
    "lt": 35.827399,
    "t": "AMERICAN FEDERATION OF GOVERNMENT EMPLOYEES",
    "id": "630668030",
    "i": "630668030",
    "n": "AMERICAN FEDERATION OF GOVERNMENT EMPLOYEES",
    "a": "1620 Osborne St",
    "l": "Humboldt TN 38343",
    "cs": [
      6
    ],
    "f": 35
  },
  {
    "lg": -86.632515,
    "lt": 36.052231,
    "t": "AMERICAN ENTERTAINMENT WORKS INC",
    "id": "462353020",
    "i": "462353020",
    "n": "AMERICAN ENTERTAINMENT WORKS INC",
    "a": "3400 Roundwood Forest Dr",
    "l": "Antioch TN 37013",
    "cs": [
      6
    ],
    "f": 36,
    "u": "https://www.aeworks.org"
  },
  {
    "lg": -84.100535,
    "lt": 35.860496,
    "t": "AMERICAN DOCTOR OF MEDICAL SCIENCE ASSOCIATION",
    "id": "832733866",
    "i": "832733866",
    "n": "AMERICAN DOCTOR OF MEDICAL SCIENCE ASSOCIATION",
    "a": "12223 Fredericksburg Blvd",
    "l": "Knoxville TN 37922",
    "cs": [
      10
    ],
    "f": 35
  },
  {
    "lg": -86.732969,
    "lt": 36.149263,
    "t": "AMERICAN INDUSTRIAL EXTENSION ALLIANCE INCORPORATED",
    "id": "521813771",
    "i": "521813771",
    "n": "AMERICAN INDUSTRIAL EXTENSION ALLIANCE INCORPORATED",
    "a": "193C Polk Ave",
    "l": "Nashville TN 37210",
    "cs": [
      100
    ],
    "u": "http://www.ciras.iastate.edu/aiea/",
    "f": 36
  },
  {
    "lg": -89.845385,
    "lt": 35.079511,
    "t": "AMERICAN IMMIGRATION LAWYERS ASSOCIATION MID-SOUTH CHAPTER",
    "id": "911911189",
    "i": "911911189",
    "n": "AMERICAN IMMIGRATION LAWYERS ASSOCIATION MID-SOUTH CHAPTER",
    "a": "1028 OAKHAVEN ROAD",
    "l": "MEMPHIS TN 38119",
    "cs": [
      53,
      11
    ],
    "f": 35
  },
  {
    "lg": -86.785062,
    "lt": 35.999288,
    "t": "AMERICAN HEALTH DECISIONS INC",
    "id": "223019027",
    "i": "223019027",
    "n": "AMERICAN HEALTH DECISIONS INC",
    "a": "9302 Grist Mill Ct",
    "l": "Brentwood TN 37027",
    "cs": [
      10
    ],
    "f": 35,
    "u": "https://masshealthdecisions.org/american-health-decisions/"
  },
  {
    "lg": -89.943501,
    "lt": 35.110521,
    "t": "AMERICAN FRIENDS OF DURRELL WILDLIFE CONSERVATION TRUST INC",
    "id": "461717077",
    "i": "461717077",
    "n": "AMERICAN FRIENDS OF DURRELL WILDLIFE CONSERVATION TRUST INC",
    "a": "4042 Goodlett Cove",
    "l": "Memphis TN 38111",
    "cs": [
      100
    ],
    "f": 35
  },
  {
    "lg": -82.491063,
    "lt": 36.28021,
    "t": "AMERICAN FRIENDS FOUNDATION FOR AFRICAN HEALTHCARE SERVICES",
    "id": "621733570",
    "i": "621733570",
    "n": "AMERICAN FRIENDS FOUNDATION FOR AFRICAN HEALTHCARE SERVICES",
    "a": "125 Baileigh Lynn Loop",
    "l": "Jonesborough TN 37659",
    "cs": [
      42,
      10,
      100
    ],
    "f": 36
  },
  {
    "lg": -89.755097,
    "lt": 35.079657,
    "t": "AMERICAN FINANCIAL OPPORTUNITY FOUNDATION",
    "id": "472460640",
    "i": "472460640",
    "n": "AMERICAN FINANCIAL OPPORTUNITY FOUNDATION",
    "a": "8825 Aldershot",
    "l": "Memphis TN 38139",
    "cs": [
      12,
      100
    ],
    "u": "www.aaictrust.org",
    "f": 35
  },
  {
    "lg": -88.853395,
    "lt": 35.588164,
    "t": "AMERICAN INNS OF COURT FOUNDATION",
    "id": "272030999",
    "i": "272030999",
    "n": "AMERICAN INNS OF COURT FOUNDATION",
    "a": "111 S Highland Avenue",
    "l": "Jackson TN 38301",
    "cs": [
      11,
      100
    ],
    "f": 35,
    "u": "https://www.americanmusicandhealing.org"
  },
  {
    "lg": -88.853395,
    "lt": 35.588164,
    "t": "AMERICAN INNS OF COURT FOUNDATION",
    "id": "272030999",
    "i": "272030999",
    "n": "AMERICAN INNS OF COURT FOUNDATION",
    "a": "111 S Highland Avenue",
    "l": "Jackson TN 38301",
    "cs": [
      11,
      100
    ],
    "f": 35,
    "u": "https://www.americanmusicandhealing.org"
  },
  {
    "lg": -86.782141,
    "lt": 36.165011,
    "t": "AMERICAN INNS OF COURT FOUNDATION",
    "id": "383834591",
    "i": "383834591",
    "n": "AMERICAN INNS OF COURT FOUNDATION",
    "a": "220 French Landing Dr",
    "l": "Nashville TN 37243",
    "cs": [
      11,
      100
    ],
    "f": 36
  },
  {
    "lg": -86.774283,
    "lt": 36.106735,
    "t": "AMERICAN INNS OF COURT FOUNDATION",
    "id": "621437201",
    "i": "621437201",
    "n": "AMERICAN INNS OF COURT FOUNDATION",
    "a": "4013 Armory Oaks Dr",
    "l": "Nashville TN 37204",
    "cs": [
      11,
      100
    ],
    "f": 36,
    "u": "adoptionhopefoundation.org"
  },
  {
    "lg": -90.054979,
    "lt": 35.15305,
    "t": "AMERICAN INNS OF COURT FOUNDATION",
    "id": "621587757",
    "i": "621587757",
    "n": "AMERICAN INNS OF COURT FOUNDATION",
    "a": "167 North Main St Rm 1111",
    "l": "Memphis TN 38103",
    "cs": [
      11,
      100
    ],
    "f": 35,
    "u": "www.alcomgt.com"
  },
  {
    "lg": -86.954138,
    "lt": 35.884862,
    "t": "AMERICAN INNS OF COURT FOUNDATION",
    "id": "621699920",
    "i": "621699920",
    "n": "AMERICAN INNS OF COURT FOUNDATION",
    "a": "125 Fourth Ave S",
    "l": "Franklin TN 37064",
    "cs": [
      11,
      100
    ],
    "f": 35,
    "u": "www.mambabaseball.com"
  },
  {
    "lg": -85.317871,
    "lt": 35.043722,
    "t": "AMERICAN INNS OF COURT FOUNDATION",
    "id": "621870873",
    "i": "621870873",
    "n": "AMERICAN INNS OF COURT FOUNDATION",
    "a": "1 Fountain Square",
    "l": "Chattanooga TN 37402",
    "cs": [
      11,
      100
    ],
    "f": 35
  },
  {
    "lg": -86.318932,
    "lt": 35.881943,
    "t": "AMERICAN INNS OF COURT FOUNDATION",
    "id": "030529904",
    "i": "030529904",
    "n": "AMERICAN INNS OF COURT FOUNDATION",
    "a": "119 E Main St",
    "l": "Murfreesboro TN 37130",
    "cs": [
      11,
      100
    ],
    "f": 35,
    "u": "www.tnstarz.com"
  },
  {
    "lg": -86.53159,
    "lt": 35.959541,
    "t": "17-15 SPORTS",
    "id": "814854167",
    "i": "814854167",
    "n": "17-15 SPORTS",
    "a": "1002 Seven Oaks Blvd",
    "l": "smyrna TN 37167",
    "cs": [
      7
    ],
    "f": 35,
    "u": "www.1715sports.com"
  },
  {
    "lg": -85.533285,
    "lt": 36.226045,
    "t": "13TH JUDICIAL DISTRICT RECOVERY COURTS SUPPORT FOUNDATION",
    "id": "821236472",
    "i": "821236472",
    "n": "13TH JUDICIAL DISTRICT RECOVERY COURTS SUPPORT FOUNDATION",
    "a": "18 NORTH MADISON AVENUE STE 100",
    "l": "COOKEVILLE TN 38501",
    "cs": [
      11,
      100
    ],
    "u": "cookevilleyouthwrestling.club",
    "f": 36
  },
  {
    "lg": -86.793127,
    "lt": 36.068447,
    "t": "12 WOMEN FOUNDATION INC",
    "id": "621870480",
    "i": "621870480",
    "n": "12 WOMEN FOUNDATION INC",
    "a": "5057 Kingsview Court",
    "l": "Nashville TN 37220",
    "cs": [
      100
    ],
    "f": 36
  }
]