[
    {
      "jobTitle": "Fundraising Consultant",
      "requests": [
        {
          "requestTitle": "Donor Engagement Strategy",
          "request": "Develop a donor engagement strategy to cultivate relationships with existing donors and increase their contributions."
        },
        {
          "requestTitle": "Annual Fundraising Campaign",
          "request": "Create a compelling narrative and design a comprehensive annual fundraising campaign to attract new donors."
        },
        {
          "requestTitle": "Sponsorship Proposal",
          "request": "Write a persuasive sponsorship proposal targeting corporate partners for our upcoming fundraising event."
        },
        {
          "requestTitle": "Major Donor Stewardship Plan",
          "request": "Develop a major donor stewardship plan outlining personalized strategies to recognize and engage major donors."
        },
        {
          "requestTitle": "Online Crowdfunding Strategy",
          "request": "Devise an online crowdfunding strategy leveraging social media and email marketing to raise funds for a specific project."
        }
      ]
    },
    {
      "jobTitle": "Marketing Specialist",
      "requests": [
        {
          "requestTitle": "Content Marketing Plan",
          "request": "Create a content marketing plan outlining topics, channels, and distribution strategies to increase brand awareness."
        },
        {
          "requestTitle": "Social Media Advertising Campaign",
          "request": "Design and execute a targeted social media advertising campaign to reach a specific audience segment."
        },
        {
          "requestTitle": "Email Newsletter Revamp",
          "request": "Revamp our email newsletter design and content to improve engagement and increase open and click-through rates."
        },
        {
          "requestTitle": "Branding and Visual Identity",
          "request": "Develop a new branding strategy and visual identity guidelines to enhance our nonprofit's overall brand perception."
        },
        {
          "requestTitle": "Influencer Partnership Program",
          "request": "Create an influencer partnership program to collaborate with relevant influencers to expand our nonprofit's reach and impact."
        }
      ]
    },
    {
      "jobTitle": "Grant Writer",
      "requests": [
        {
          "requestTitle": "Government Grant Proposal",
          "request": "Write a comprehensive grant proposal for a government-funded program aimed at community development."
        },
        {
          "requestTitle": "Foundation Grant Application",
          "request": "Prepare a grant application for a foundation grant supporting our environmental conservation project."
        },
        {
          "requestTitle": "Capacity Building Grant Proposal",
          "request": "Craft a persuasive grant proposal seeking funding for capacity-building initiatives within our organization."
        },
        {
          "requestTitle": "Collaborative Grant Proposal",
          "request": "Develop a collaborative grant proposal in partnership with other nonprofits to address a pressing social issue."
        },
        {
          "requestTitle": "Impact Measurement Report",
          "request": "Produce a detailed impact measurement report showcasing the outcomes and success of our previous grant-funded programs."
        }
      ]
    },
    {
      "jobTitle": "Program Coordinator",
      "requests": [
        {
          "requestTitle": "Program Outreach Strategy",
          "request": "Develop a comprehensive outreach strategy to engage target beneficiaries and increase participation in our programs."
        },
        {
          "requestTitle": "Program Evaluation Framework",
          "request": "Create an evaluation framework to assess the effectiveness and impact of our programs and improve outcomes."
        },
        {
          "requestTitle": "Program Recruitment Materials",
          "request": "Design attractive and informative recruitment materials to attract program participants and communicate program benefits."
        },
        {
          "requestTitle": "Training Curriculum Development",
          "request": "Develop a structured training curriculum with engaging materials and activities for our volunteer training program."
        },
        {
          "requestTitle": "Program Expansion Proposal",
          "request": "Prepare a program expansion proposal outlining the need, goals, and budget for expanding our services into a new region."
        }
      ]
    },
    {
      "jobTitle": "Legal Advisor",
      "requests": [
        {
          "requestTitle": "Policy and Bylaws Review",
          "request": "Conduct a comprehensive review of our organization's policies and bylaws to ensure compliance and recommend updates if necessary."
        },
        {
          "requestTitle": "Contract Drafting and Negotiation",
          "request": "Draft and negotiate contracts for partnerships, service agreements, and other legal documents on behalf of our organization."
        },
        {
          "requestTitle": "Intellectual Property Protection",
          "request": "Provide guidance on protecting our intellectual property rights, including trademarks, copyrights, and patents."
        },
        {
          "requestTitle": "Risk Management Plan",
          "request": "Develop a risk management plan to identify potential risks, mitigate liabilities, and ensure legal compliance across our operations."
        },
        {
          "requestTitle": "Legal Training for Staff",
          "request": "Deliver legal training sessions to educate staff members about relevant laws and regulations impacting our organization."
        }
      ]
    }
  ]
  